<svg width="55" height="18" viewBox="0 0 55 18" fill="none" xmlns="http://www.w3.org/2000/svg">
<path d="M19.2422 5.39339C20.2223 5.39339 21.2045 5.39339 22.1853 5.39193C22.2711 5.39193 22.3554 5.3992 22.439 5.41229C22.6063 5.43774 22.687 5.52644 22.6884 5.69293C22.6906 6.1626 22.6906 6.63227 22.6884 7.1034C22.687 7.26771 22.6208 7.33533 22.4572 7.34551C22.3925 7.35059 22.3264 7.34914 22.2609 7.34914H20.8112C20.7567 7.34914 20.7036 7.34769 20.6505 7.36368C20.5742 7.38767 20.5429 7.42257 20.5371 7.50546C20.5335 7.54399 20.5356 7.58325 20.5356 7.62178V12.9932C20.5356 13.0594 20.5356 13.1248 20.5233 13.1895C20.5015 13.3044 20.4375 13.3764 20.3284 13.4127C20.247 13.4396 20.1634 13.4527 20.0776 13.4527C19.629 13.4534 19.1819 13.4549 18.7326 13.4549C18.5624 13.4549 18.3938 13.4534 18.2236 13.4527C18.1727 13.4527 18.1233 13.4462 18.0739 13.436C17.9125 13.4018 17.8543 13.3436 17.8339 13.183C17.8281 13.1379 17.8288 13.0899 17.8288 13.0434V7.66032C17.8288 7.61379 17.8303 7.56725 17.8267 7.52072C17.8194 7.41676 17.783 7.37531 17.6813 7.35859C17.6391 7.35132 17.5962 7.3506 17.554 7.3506C17.0822 7.3506 16.6118 7.35059 16.1399 7.34914C16.0752 7.34914 16.009 7.35132 15.9436 7.33315C15.8622 7.30843 15.8084 7.26044 15.8018 7.17101C15.7968 7.12012 15.7917 7.07068 15.7917 7.02052C15.7902 6.60101 15.7917 6.1815 15.7917 5.76127C15.7917 5.74164 15.7902 5.72347 15.7917 5.70311C15.8018 5.51408 15.8782 5.43265 16.0672 5.4072C16.1472 5.39702 16.2279 5.39121 16.3093 5.39121C17.2879 5.39339 18.2651 5.39339 19.2422 5.39339ZM33.8806 10.0138C33.8806 10.5765 33.882 11.14 33.8806 11.7041C33.8798 11.9688 33.8529 12.2305 33.7744 12.485C33.7068 12.7017 33.605 12.9009 33.4487 13.0688C33.187 13.3487 32.8562 13.4687 32.4817 13.4701C31.5511 13.4731 30.6205 13.4723 29.6899 13.4701C29.5038 13.4701 29.3191 13.4498 29.1402 13.3974C28.6124 13.244 28.3019 12.8834 28.1689 12.3578C28.1209 12.1687 28.0962 11.9768 28.0962 11.7819V8.11181C28.0962 7.98894 28.1151 7.87189 28.1689 7.7621C28.2401 7.61233 28.3565 7.52945 28.5252 7.52945H30.0788C30.1777 7.52945 30.2701 7.55562 30.3551 7.60433C30.5136 7.69667 30.6009 7.83045 30.6009 8.02166C30.598 8.94283 30.5994 9.86327 30.5994 10.783C30.5994 10.8717 30.5994 10.9611 30.619 11.0498C30.6714 11.2825 30.8066 11.4032 31.0269 11.401C31.2545 11.3995 31.413 11.2665 31.4595 11.0404C31.4733 10.972 31.4777 10.9029 31.4777 10.8317V8.10527C31.4777 8.00057 31.4719 7.89588 31.4995 7.79264C31.5431 7.63124 31.6369 7.53672 31.799 7.53454C32.3509 7.53018 32.9042 7.52509 33.4553 7.53672C33.7046 7.54254 33.8479 7.70103 33.874 7.95114C33.8798 8.00057 33.8813 8.05074 33.8813 8.10236V10.0145L33.8806 10.0138ZM51.7565 10.1759L52.1156 9.27436L52.6246 8.00203C52.6638 7.90388 52.714 7.813 52.7823 7.73302C52.8987 7.59779 53.0397 7.52291 53.2258 7.52654C53.6504 7.53381 54.0757 7.52872 54.5011 7.52872C54.5854 7.52872 54.6712 7.53018 54.7541 7.55708C54.869 7.59343 54.9162 7.67122 54.8908 7.789C54.8791 7.84135 54.858 7.89224 54.837 7.94241L51.7834 15.162C51.7274 15.2965 51.6554 15.4186 51.5478 15.5182C51.4598 15.5982 51.3595 15.6578 51.2381 15.6564C50.7859 15.6556 50.3336 15.668 49.8829 15.6491C49.8363 15.6469 49.7913 15.6418 49.7476 15.6251C49.6328 15.5829 49.5906 15.5088 49.6211 15.3881C49.6328 15.3394 49.6509 15.2936 49.6713 15.2463C49.9258 14.6356 50.1802 14.0249 50.4391 13.4149C50.471 13.3422 50.4732 13.2797 50.4427 13.2055C49.7418 11.4679 49.0439 9.72949 48.3452 7.99112C48.3168 7.92351 48.287 7.85589 48.2834 7.78028C48.2775 7.66541 48.3219 7.59634 48.431 7.55926C48.4891 7.5389 48.5502 7.53018 48.6127 7.53018H50.4427C50.5576 7.53018 50.6514 7.57889 50.7364 7.65014C50.8527 7.74684 50.9276 7.87043 50.9771 8.01221C51.1697 8.56476 51.3631 9.11586 51.5573 9.66769C51.6089 9.81674 51.6627 9.96724 51.7158 10.1163C51.7238 10.1374 51.7259 10.1621 51.7565 10.1759ZM38.0989 7.31133C38.3446 7.31788 38.7307 7.32224 39.1124 7.39204C39.2185 7.41239 39.3218 7.44148 39.425 7.47419C39.5014 7.49819 39.5355 7.5469 39.5501 7.62324C39.5828 7.78319 39.5632 7.94168 39.5428 8.09873C39.5203 8.29067 39.4796 8.48115 39.4098 8.66291C39.3836 8.73126 39.3531 8.79814 39.3123 8.85922C39.2665 8.93119 39.2062 8.96682 39.1182 8.95373C38.9728 8.93338 38.8274 8.91593 38.682 8.89557C38.3723 8.85485 38.0633 8.80832 37.7477 8.8345C37.6736 8.84031 37.6023 8.85195 37.5347 8.88394C37.3915 8.95301 37.3748 9.08969 37.494 9.18857C37.59 9.26782 37.7012 9.32234 37.8124 9.3776C38.0342 9.48666 38.261 9.58335 38.4791 9.70114C38.7867 9.86836 39.0775 10.0574 39.3225 10.3089C39.7464 10.7408 39.9281 11.2599 39.878 11.8648C39.8518 12.1876 39.7726 12.4915 39.5893 12.7613C39.3712 13.0812 39.0637 13.2775 38.7067 13.4083C38.4246 13.5101 38.1323 13.5668 37.8372 13.5887C36.9298 13.6548 36.0341 13.569 35.1493 13.3567C35.07 13.3378 34.9951 13.3087 34.9166 13.284C34.8606 13.2673 34.8294 13.2309 34.8148 13.1713C34.7807 13.0266 34.7698 12.8805 34.7596 12.7329C34.7407 12.4734 34.745 12.2131 34.793 11.955C34.8025 11.9055 34.8163 11.8576 34.8381 11.8125C34.8861 11.7121 34.9203 11.6947 35.0308 11.7216C35.2474 11.7747 35.4655 11.8285 35.688 11.8554C36.0835 11.9019 36.4798 11.9281 36.8782 11.8903C36.9713 11.8808 37.0599 11.8612 37.1465 11.8219C37.289 11.7572 37.3479 11.5755 37.1857 11.4591C37.113 11.4068 37.0352 11.3646 36.9553 11.3275C36.6688 11.193 36.3722 11.0818 36.0915 10.9357C35.9301 10.8521 35.7738 10.7597 35.6277 10.6499C35.1093 10.2631 34.8548 9.74839 34.881 9.09551C34.9028 8.59312 35.1355 8.20924 35.5295 7.91696C35.8567 7.6734 36.2326 7.53308 36.6259 7.44002C37.0636 7.33533 37.51 7.30188 38.0989 7.31206V7.31133ZM41.0354 10.6267V9.22783C41.0354 9.14422 41.0354 9.14422 40.9562 9.14276C40.8602 9.14204 40.7628 9.14422 40.6668 9.14204C40.4851 9.1384 40.3876 9.05334 40.3615 8.87303C40.3542 8.81923 40.3527 8.76397 40.3527 8.70944C40.3513 8.46152 40.3513 8.21142 40.3527 7.9635C40.3527 7.89733 40.3527 7.8319 40.3709 7.76647C40.4044 7.6465 40.4822 7.57671 40.6036 7.55199C40.7417 7.52509 40.8813 7.5389 41.0202 7.53745C41.1569 7.53454 41.1569 7.53745 41.1569 7.40294C41.1569 7.21246 41.1612 7.02197 41.1554 6.83148C41.1481 6.61264 41.2543 6.47378 41.4419 6.38435C41.5844 6.31528 41.7378 6.30001 41.8897 6.27457C42.2431 6.21422 42.5979 6.15824 42.9512 6.09862C43.0326 6.08408 43.1126 6.07899 43.1933 6.08772C43.2987 6.09935 43.3511 6.14951 43.3729 6.25494C43.3896 6.33128 43.3903 6.40834 43.3903 6.48686V7.45384C43.3903 7.53599 43.3918 7.53672 43.4703 7.53817H44.0272C44.2381 7.53817 44.3362 7.61597 44.3958 7.81881C44.4118 7.87625 44.4198 7.93296 44.4213 7.99112C44.4286 8.30157 44.4329 8.61275 44.4184 8.92247C44.4177 8.95446 44.4155 8.98572 44.406 9.0148C44.3828 9.09478 44.3304 9.15003 44.2461 9.16385C44.1959 9.17185 44.1465 9.17548 44.0963 9.17548C43.9109 9.17694 43.7255 9.17766 43.5401 9.17548C43.4798 9.17475 43.4587 9.19293 43.4623 9.25546C43.4667 9.33979 43.4638 9.42631 43.4638 9.51138C43.4638 10.1759 43.4681 10.8404 43.4616 11.5049C43.458 11.7507 43.607 11.8343 43.7822 11.8467C43.844 11.851 43.9058 11.8481 43.9676 11.8467C44.0665 11.8452 44.0745 11.8496 44.1116 11.9412C44.1566 12.0539 44.1799 12.1724 44.201 12.2901C44.2497 12.5657 44.2788 12.8442 44.2882 13.1233C44.2904 13.1815 44.281 13.2397 44.2817 13.2978C44.2832 13.372 44.2483 13.4091 44.1785 13.4302C44.0272 13.476 43.8731 13.5101 43.7161 13.5363C43.4107 13.5865 43.1039 13.6214 42.7934 13.6112C42.4946 13.6003 42.2009 13.5559 41.9283 13.4265C41.4084 13.183 41.1285 12.7649 41.05 12.2007C41.0224 11.9986 41.0325 11.7972 41.0318 11.5958C41.0296 11.2723 41.0303 10.9509 41.0303 10.6281L41.0354 10.6267ZM45.2952 9.37251V5.70311C45.2952 5.66457 45.2938 5.62531 45.2959 5.58678C45.3032 5.40357 45.4086 5.2916 45.5897 5.27415C45.6195 5.27197 45.6507 5.27342 45.682 5.27342H47.1761C47.2655 5.27342 47.3535 5.27779 47.4422 5.29451C47.6123 5.32577 47.6806 5.3992 47.7003 5.57297C47.7039 5.60787 47.7025 5.64276 47.7025 5.67766C47.7025 8.12417 47.7025 10.5707 47.7039 13.0172C47.7039 13.0877 47.6981 13.1575 47.685 13.2259C47.6654 13.3298 47.6043 13.3989 47.5032 13.4316C47.4429 13.4498 47.3826 13.4571 47.32 13.4571H45.6638C45.594 13.4571 45.5257 13.4556 45.4573 13.4374C45.3774 13.4156 45.3301 13.3684 45.3134 13.2877C45.3061 13.2542 45.301 13.2193 45.2996 13.1844C45.2974 13.1146 45.2959 13.0441 45.2959 12.9743L45.2952 9.37251ZM23.0687 10.839V8.88176C23.0687 8.73344 23.0788 8.58657 23.1087 8.44189C23.1799 8.10309 23.3718 7.86171 23.6837 7.71485C23.9433 7.5927 24.2218 7.54762 24.5031 7.53672C24.7467 7.52581 24.9903 7.52945 25.2338 7.52799L26.5316 7.52581L27.0885 7.52C27.1234 7.52 27.1576 7.52 27.1925 7.52363C27.3342 7.53817 27.3793 7.58979 27.3793 7.73593V8.97191C27.3793 9.16094 27.3008 9.23728 27.111 9.24164C26.842 9.24964 26.5716 9.25109 26.304 9.30126C26.1179 9.33616 25.95 9.41032 25.7951 9.51574C25.5828 9.66042 25.4955 9.87199 25.4796 10.1206C25.4759 10.1788 25.4759 10.237 25.4759 10.2951V12.9416C25.4759 13.0266 25.4745 13.1117 25.4541 13.196C25.4156 13.3487 25.3203 13.4345 25.1633 13.452C25.1248 13.4563 25.0855 13.4563 25.047 13.4563H23.6329C23.5514 13.4563 23.4707 13.4534 23.3915 13.4309C23.2243 13.3822 23.1217 13.2724 23.0868 13.1001C23.0708 13.023 23.0672 12.9459 23.0672 12.8674C23.0687 12.1913 23.0687 11.5151 23.0687 10.8397V10.839Z" fill="white"/>
<path d="M7.11866 13.4504H2.55135C2.40449 13.4504 2.25835 13.4388 2.11658 13.3944C1.71307 13.2672 1.48405 12.9785 1.38953 12.5765C1.27539 12.0923 1.17142 11.6073 1.06454 11.1224L0.0321365 6.47656C0.00305469 6.34279 -0.0129403 6.20974 0.0132334 6.07305C0.0488586 5.87966 0.149918 5.72916 0.306233 5.61647C0.469819 5.49723 0.657396 5.43907 0.854426 5.41289C0.972935 5.39617 1.09217 5.39036 1.21286 5.39036H2.9047C2.93305 5.39036 2.94832 5.37581 2.94832 5.34819V5.26676V4.22854C2.95486 3.13433 3.31184 2.17245 4.04761 1.36397C4.68014 0.667462 5.46463 0.234869 6.38943 0.0676487C8.40335 -0.300964 10.3969 0.868127 11.068 2.81152C11.2425 3.31973 11.3152 3.84175 11.2963 4.38049C11.2846 4.68294 11.2926 4.98612 11.2926 5.2893C11.2926 5.38817 11.2941 5.38963 11.3959 5.38963H13.0768C13.2782 5.38963 13.4774 5.40926 13.6701 5.47615C13.7428 5.50159 13.814 5.5314 13.8795 5.57284C14.1652 5.7437 14.3026 6.02507 14.2393 6.35369C14.1637 6.74193 14.0736 7.12727 13.9878 7.51333L13.1422 11.3187C13.0499 11.7353 12.9597 12.1526 12.8645 12.5692C12.7409 13.113 12.3447 13.4373 11.7899 13.4497C11.5849 13.4548 11.3806 13.4511 11.1756 13.4511C9.82327 13.4497 8.47024 13.4497 7.11866 13.4497V13.4504ZM7.12447 5.39036H9.70694C9.81236 5.39036 9.808 5.39763 9.808 5.29002V4.03223C9.808 3.87592 9.79055 3.72324 9.76147 3.56983C9.49392 2.1361 8.09799 1.1175 6.57919 1.43304C5.28723 1.70132 4.46567 2.83261 4.44385 3.99588C4.43586 4.41902 4.44167 4.84216 4.43949 5.2653C4.43804 5.40344 4.42786 5.39036 4.56454 5.39036H7.1252H7.12447ZM7.12665 7.112H5.57296C5.51988 7.112 5.46535 7.10837 5.41228 7.12654C5.33594 7.15126 5.30686 7.17962 5.3054 7.25741C5.30322 7.51042 5.30322 7.76198 5.3054 8.01499C5.30686 8.08552 5.3323 8.1146 5.39992 8.12841C5.43627 8.13568 5.47553 8.13568 5.51407 8.13568H6.17495C6.37198 8.13568 6.37198 8.13568 6.37198 8.33707V11.1231C6.37198 11.2976 6.40688 11.3325 6.57992 11.3478L6.60245 11.3485C6.91218 11.3485 7.22044 11.3558 7.53017 11.3478C7.79772 11.3405 7.78972 11.2511 7.78972 11.0729C7.78754 10.1554 7.78827 9.23934 7.78827 8.32181C7.78827 8.14004 7.79336 8.13496 7.96712 8.13496H8.70871C8.74724 8.13496 8.7865 8.13496 8.82504 8.12768C8.89192 8.11532 8.92101 8.08624 8.92101 8.0179C8.92319 7.76489 8.92319 7.5126 8.92101 7.25959C8.91955 7.18034 8.89047 7.15126 8.81631 7.12582C8.76469 7.10837 8.71016 7.11127 8.65563 7.11127H7.12665V7.112ZM4.32462 13.7725C5.24288 13.7732 5.98228 14.5206 5.97792 15.441C5.97356 16.3571 5.23415 17.0943 4.3188 17.0929C3.40127 17.0922 2.66114 16.344 2.66623 15.4236C2.67059 14.5075 3.41145 13.7696 4.32462 13.7725ZM9.9316 13.7725C10.7626 13.7608 11.5798 14.4283 11.582 15.4301C11.5849 16.432 10.7641 17.1023 9.92578 17.0943C9.00825 17.0864 8.27103 16.3484 8.27393 15.4236C8.27757 14.509 9.01698 13.771 9.9316 13.7725Z" fill="white"/>
</svg>
