<svg width="54" height="17" viewBox="0 0 54 17" fill="none" xmlns="http://www.w3.org/2000/svg">
<path d="M53.1532 16.7068H49.2199C49.0752 16.0117 48.9218 15.3312 48.7989 14.6449C48.7487 14.3599 48.6579 14.2494 48.3423 14.2537C46.7646 14.2741 45.1869 14.269 43.6093 14.2567C43.3708 14.2545 43.2755 14.3344 43.2028 14.5526C42.9854 15.2069 42.7477 15.854 42.5049 16.4989C42.4714 16.5861 42.3624 16.7061 42.2875 16.7068C40.8654 16.7192 39.4433 16.7163 37.9805 16.7163C38.2473 16.0706 38.4996 15.4541 38.7562 14.839L44.2571 1.64312C44.6547 0.691421 45.2502 0.293 46.2746 0.293H49.7281C49.8422 0.828833 49.9571 1.3574 50.0669 1.88669C50.9691 6.23442 51.87 10.5814 52.7737 14.9277C52.89 15.4846 53.0267 16.0365 53.1532 16.5912V16.7075V16.7068ZM48.005 10.8744L46.7581 4.86467L46.7072 4.85449L44.5377 10.8744H48.005ZM36.016 0C36.5351 0.0966972 37.0578 0.176672 37.5719 0.295908C38.0408 0.404965 38.5003 0.55619 38.9991 0.698692L38.2626 4.16234C37.6046 3.96822 36.9757 3.74502 36.3301 3.60179C35.446 3.40549 34.5401 3.3306 33.656 3.57852C33.2968 3.67885 32.9326 3.87225 32.6498 4.11654C32.1648 4.53459 32.1583 5.13658 32.6221 5.57572C32.942 5.87817 33.3201 6.12682 33.6989 6.35584C34.5597 6.8764 35.4634 7.32863 36.2995 7.88482C37.2847 8.53916 38.0037 9.43997 38.1542 10.657C38.4211 12.8091 37.6293 14.5053 35.8313 15.7049C34.7008 16.4596 33.4204 16.7955 32.087 16.9206C30.2258 17.095 28.4009 16.8857 26.6218 16.2975C26.5026 16.2582 26.3863 16.2095 26.2699 16.1615C26.235 16.147 26.2045 16.1215 26.1521 16.0888L26.9134 12.5016C27.2165 12.6346 27.5015 12.7684 27.7931 12.8862C29.1817 13.4489 30.6177 13.707 32.1045 13.4264C32.492 13.3537 32.8868 13.1821 33.2147 12.9611C33.9272 12.4812 33.9948 11.5797 33.347 11.0155C32.9209 10.6447 32.4091 10.3713 31.9234 10.074C31.1651 9.60937 30.3603 9.21386 29.642 8.69402C28.723 8.02805 28.057 7.1396 27.9305 5.95887C27.7415 4.1907 28.3936 2.75551 29.743 1.64022C30.9172 0.66961 32.311 0.239198 33.7963 0.0581637C33.8792 0.0479851 33.9592 0.0196303 34.0406 0H36.016ZM20.7182 0.305359C20.4972 0.840466 20.2878 1.35013 20.0755 1.85906C18.0514 6.71573 16.0237 11.5709 14.0076 16.4312C13.9116 16.6632 13.7938 16.7235 13.5604 16.7221C12.2823 16.7112 11.0049 16.7068 9.72671 16.725C9.45625 16.7286 9.36755 16.6326 9.30503 16.3884C8.22173 12.1431 7.12025 7.90299 6.04931 3.65486C5.85301 2.87547 5.4604 2.34254 4.72245 2.0161C3.53882 1.49263 2.31157 1.12474 1.05959 0.826652L0.897461 0.785937C0.903277 0.293 0.903277 0.293 1.37004 0.293H8.0785C9.13926 0.293 9.90484 0.91317 10.1055 1.96884C10.6726 4.957 11.2288 7.9488 11.7893 10.9384C11.8141 11.0693 11.8417 11.1994 11.8788 11.3834C11.9369 11.2743 11.9776 11.2125 12.0038 11.1456C13.3925 7.61218 14.7826 4.08018 16.164 0.544558C16.2396 0.351163 16.3327 0.285729 16.5399 0.28791C17.8369 0.298089 19.1347 0.293 20.4317 0.293727C20.5154 0.293727 20.599 0.300997 20.7182 0.306087V0.305359ZM19.0249 16.717L22.5147 0.309722H26.752L26.2299 2.77441C25.2702 7.28937 24.3062 11.8021 23.3567 16.3186C23.2912 16.6319 23.18 16.7315 22.8564 16.7257C21.6953 16.7032 20.5335 16.717 19.3717 16.717H19.0235H19.0249Z" fill="white"/>
</svg>
