<svg width="102" height="18" viewBox="0 0 102 18" fill="none" xmlns="http://www.w3.org/2000/svg">
<path d="M44.1508 11.9316V8.21207C44.1508 6.80887 43.2609 5.86371 41.8279 5.85207C40.9969 5.79755 40.2029 6.20251 39.7543 6.90775C39.3457 6.22287 38.5976 5.8179 37.8037 5.85207C37.1137 5.8179 36.4572 6.1538 36.0777 6.73471V5.99094H34.793V11.9316H36.09V8.64102C36.09 7.61007 36.6571 7.06406 37.5347 7.06406C38.4129 7.06406 38.8201 7.62243 38.8201 8.62866V11.9316H40.1099V8.64102C40.1099 7.61007 40.7009 7.06406 41.5545 7.06406C42.4073 7.06406 42.8516 7.62243 42.8516 8.62866V11.9316H44.1508ZM63.3434 5.99603H61.2451V4.19514H59.948V5.99603H58.7491V7.17675H59.948V9.88136C59.948 11.2606 60.4781 12.0814 61.9969 12.0814C62.564 12.0829 63.1209 11.9244 63.6022 11.6226L63.2321 10.5168C62.8875 10.7233 62.4963 10.8382 62.0957 10.8512C61.4545 10.8512 61.2422 10.455 61.2422 9.85955V7.17675H63.3412L63.3434 5.99603ZM74.2992 5.84771C73.6609 5.82881 73.064 6.16252 72.7433 6.71799V5.99603H71.471V11.9324H72.7557V8.60467C72.7557 7.61298 73.1745 7.07787 74.0157 7.07787C74.2905 7.07351 74.5639 7.12368 74.8198 7.22619L75.2138 6.00839C74.9208 5.90297 74.6111 5.84844 74.2992 5.84771ZM57.7356 6.46716C57.0086 6.03311 56.1725 5.8179 55.3269 5.84771C53.8321 5.84771 52.8608 6.56894 52.8608 7.74676C52.8608 8.71664 53.5755 9.31136 54.8973 9.49748L55.5014 9.58473C56.2045 9.68361 56.5396 9.86973 56.5396 10.2042C56.5396 10.6629 56.0714 10.9261 55.1932 10.9261C54.485 10.9479 53.79 10.7298 53.2207 10.306L52.6361 11.31C53.385 11.8364 54.2807 12.1069 55.1932 12.0807C56.8974 12.0807 57.8861 11.2737 57.8861 10.1446C57.8861 9.10052 57.1067 8.55523 55.825 8.36911L55.2208 8.28186C54.666 8.20843 54.2196 8.09647 54.2196 7.70023C54.2196 7.26618 54.6384 7.0059 55.3437 7.0059C55.99 7.01535 56.6233 7.18984 57.1831 7.5141L57.7356 6.46716ZM92.1402 5.84771C91.5019 5.82881 90.9042 6.16252 90.5843 6.71799V5.99603H89.312V11.9324H90.5967V8.60467C90.5967 7.61298 91.0155 7.07787 91.8567 7.07787C92.1315 7.07351 92.4048 7.12368 92.66 7.22619L93.0548 6.00839C92.7611 5.90297 92.4514 5.84844 92.1402 5.84771ZM75.5963 8.96456C75.5963 10.7647 76.8439 12.0814 78.7451 12.0814C79.5158 12.1199 80.2733 11.8669 80.8681 11.3725L80.2523 10.3285C79.808 10.668 79.2664 10.8556 78.708 10.8614C77.6829 10.8614 76.9304 10.1024 76.9304 8.96165C76.9304 7.82092 77.6851 7.07497 78.708 7.06261C79.2664 7.06842 79.808 7.25527 80.2523 7.59553L80.8688 6.55149C80.2733 6.0571 79.5165 5.80409 78.7458 5.84262C76.8439 5.84262 75.5963 7.15858 75.5963 8.95947V8.96456ZM87.6252 8.96456V5.98803H86.3405V6.70999C85.8956 6.13271 85.2013 5.80845 84.4764 5.83899C82.8216 5.83899 81.5173 7.14331 81.5173 8.95656C81.5173 10.7691 82.8144 12.0734 84.4764 12.0734C85.2013 12.1039 85.8956 11.7797 86.3405 11.2031V11.9222H87.6252V8.96311V8.96456ZM82.8464 8.96456C82.8464 7.92052 83.524 7.06479 84.6364 7.06479C85.6993 7.06479 86.414 7.88635 86.414 8.96456C86.414 10.0428 85.6993 10.8636 84.6364 10.8636C83.524 10.8636 82.8464 10.0057 82.8464 8.96456ZM67.3457 5.84771C65.619 5.84771 64.4063 7.11423 64.4063 8.96456C64.4063 10.8512 65.6663 12.0814 67.4315 12.0814C68.3134 12.1127 69.1757 11.816 69.8526 11.2482L69.2244 10.2907C68.7337 10.6855 68.1266 10.9036 67.4984 10.9109C66.6696 10.9109 65.9178 10.527 65.7324 9.45822H70.1165C70.1296 9.29682 70.142 9.13542 70.142 8.96165C70.142 7.11205 68.9932 5.8448 67.3377 5.8448L67.345 5.84771H67.3457ZM67.321 7.00372C68.1499 7.00372 68.6791 7.52355 68.8151 8.44327H65.7542C65.8909 7.58535 66.4086 7.00372 67.3232 7.00372H67.321ZM99.5379 8.96456V3.60986H98.2532V6.71435C97.809 6.1378 97.1139 5.81354 96.3891 5.84408C94.7343 5.84408 93.43 7.1484 93.43 8.96092C93.43 10.7742 94.727 12.0785 96.3891 12.0785C97.1139 12.109 97.809 11.7848 98.2532 11.2075V11.9273H99.5379V8.96383V8.96456ZM101.039 11.3849C101.09 11.3849 101.141 11.3943 101.188 11.414C101.233 11.4336 101.273 11.4612 101.308 11.4961C101.343 11.5303 101.37 11.5703 101.39 11.6154C101.43 11.7084 101.43 11.8146 101.39 11.9076C101.371 11.952 101.342 11.9927 101.308 12.0269C101.273 12.0611 101.233 12.0894 101.188 12.1083C101.141 12.1287 101.091 12.1388 101.039 12.1381C100.887 12.1403 100.746 12.0494 100.684 11.9076C100.644 11.8146 100.644 11.7084 100.684 11.6154C100.723 11.5245 100.796 11.4518 100.887 11.414C100.937 11.3936 100.991 11.3834 101.044 11.3849H101.039ZM101.039 12.0538C101.078 12.0545 101.117 12.0465 101.153 12.032C101.187 12.0174 101.218 11.9956 101.244 11.9702C101.358 11.8546 101.358 11.6684 101.244 11.5536C101.218 11.5267 101.187 11.5056 101.153 11.491C101.117 11.4765 101.078 11.4685 101.039 11.4692C101 11.4685 100.961 11.4765 100.924 11.491C100.775 11.555 100.706 11.7288 100.769 11.8786C100.783 11.9127 100.804 11.944 100.83 11.9702C100.857 11.9963 100.889 12.0174 100.924 12.032C100.962 12.048 101.004 12.0552 101.044 12.0538H101.039ZM101.062 11.5827C101.098 11.5805 101.135 11.5907 101.166 11.6125C101.19 11.6328 101.204 11.6634 101.202 11.6946C101.204 11.7215 101.193 11.7477 101.173 11.7666C101.15 11.787 101.122 11.7986 101.092 11.8015L101.205 11.9324H101.116L101.01 11.8015H100.975V11.9324H100.901V11.5856L101.062 11.5827ZM100.975 11.6481V11.7419H101.062C101.077 11.7462 101.093 11.7462 101.108 11.7419C101.12 11.7346 101.126 11.7201 101.126 11.707C101.126 11.6932 101.12 11.6801 101.108 11.6721C101.094 11.6677 101.077 11.6677 101.062 11.6721L100.975 11.6474V11.6481ZM94.7641 8.96456C94.7641 7.92052 95.4417 7.06479 96.5541 7.06479C97.617 7.06479 98.3317 7.88635 98.3317 8.96456C98.3317 10.0428 97.617 10.8636 96.5541 10.8636C95.4417 10.8636 94.7641 10.0057 94.7641 8.96456ZM51.3885 8.96456V5.98803H50.1038V6.70999C49.6596 6.1378 48.9682 5.81645 48.247 5.84698C46.5922 5.84698 45.2879 7.15131 45.2879 8.96383C45.2879 10.7764 46.5849 12.0807 48.247 12.0807C48.9718 12.1112 49.6669 11.787 50.1111 11.2104V11.9295H51.3958L51.3885 8.96311V8.96456ZM46.6097 8.96456C46.6097 7.92052 47.288 7.06479 48.3996 7.06479C49.4626 7.06479 50.178 7.88635 50.178 8.96456C50.178 10.0428 49.4626 10.8636 48.3996 10.8636C47.2873 10.8636 46.6097 10.0086 46.6097 8.96456Z" fill="white"/>
<path d="M18.3996 1.90674H10.6318V15.9445H18.3996V1.90674Z" fill="white"/>
<path d="M11.1258 8.9294C11.1236 6.19062 12.3741 3.60306 14.516 1.91195C10.6612 -1.13437 5.08041 -0.461857 2.05081 3.41475C-0.978068 7.29064 -0.309185 12.9027 3.54561 15.949C6.76498 18.4937 11.2967 18.4937 14.5167 15.949C12.3734 14.2579 11.1229 11.6689 11.1258 8.9294Z" fill="white"/>
<path d="M28.8799 8.92914C28.8799 13.8592 24.9051 17.8558 20.0026 17.8558C18.012 17.8558 16.0802 17.1833 14.5156 15.9466C18.3704 12.9003 19.04 7.2882 16.0104 3.41231C15.5735 2.85249 15.0718 2.34864 14.5156 1.90951C18.3704 -1.13754 23.9512 -0.465754 26.9816 3.4094C28.2117 4.98346 28.8799 6.92758 28.8792 8.92914H28.8799ZM28.0271 14.4561V14.169H28.1434V14.1115H27.8533V14.1711H27.9696V14.4591L28.0263 14.4561H28.0271ZM28.5963 14.4561V14.1093H28.52L28.4168 14.3565L28.3128 14.1093H28.2219V14.4561H28.2728V14.1959L28.3695 14.4212H28.4364L28.5324 14.1959V14.4591L28.5963 14.4561Z" fill="white"/>
</svg>
