<svg width="93" height="16" viewBox="0 0 93 16" fill="none" xmlns="http://www.w3.org/2000/svg">
<path d="M86.6941 7.01818C86.2048 7.34462 85.3891 7.50821 84.4098 7.50821H83.4305L84.0834 3.26444H84.8998C85.7156 3.26444 86.3684 3.4273 86.8577 3.59088C87.1842 3.91733 87.5106 4.24377 87.5106 5.2231C87.5106 6.20243 87.1842 6.69173 86.6941 7.01891V7.01818ZM24.9992 12.4041H17.0017L17.4917 9.46687H22.5512L23.0405 6.36529H18.1446L18.6339 3.59088H26.6314L24.9992 12.4034V12.4041ZM91.1015 1.14219C89.7957 0.327171 87.9999 0 85.7148 0H79.6752L77.3909 12.4041H69.3934L69.8827 9.46687H74.6157L75.2686 6.36529H70.3727L71.0249 3.59088H75.9215L76.5758 0H66.4568L64.3346 11.7512H60.5808L62.8652 0H57.4792L55.357 11.7512H51.7668L53.8884 0H48.6653L46.3809 12.4041H38.3834L38.8727 9.46687H43.6058L44.2587 6.36529H39.362L39.852 3.59088H44.9123L45.5637 0H14.0644L12.2686 9.79331L8.84129 0H3.29174L0.354492 15.995H5.57685L7.37268 5.87599L10.8 15.995H29.5694L31.8545 3.59088H34.7917L32.5081 15.995H81.799L83.2676 8.16037L85.552 15.995H90.7751L88.3264 9.62973L88.9792 9.46614C90.1222 9.1397 91.1015 8.6504 91.7544 7.83465C92.4073 7.01818 92.7337 5.87599 92.7337 4.57021C92.7337 3.10158 92.2437 1.95866 91.1015 1.14219Z" fill="white"/>
</svg>
