<svg width="108" height="19" viewBox="0 0 108 19" fill="none" xmlns="http://www.w3.org/2000/svg">
<path d="M20.0318 8.10894C20.0195 7.73669 19.8442 7.54548 19.504 7.53239H17.6878C17.2581 7.55857 17.0357 7.79413 17.0262 8.23836V11.5064C17.0357 11.9645 17.2814 12.1979 17.7591 12.2117H19.424C19.597 12.2117 19.741 12.147 19.8551 12.0154C19.9751 11.9172 20.0325 11.7907 20.0325 11.6337V8.10894H20.0318ZM14.6924 7.64509C14.704 6.82716 14.8865 6.20553 15.2398 5.78094C15.4245 5.60281 15.6557 5.45377 15.9378 5.3309C16.2301 5.20003 16.5136 5.13605 16.7885 5.13605H20.1234C21.5942 5.14914 22.3416 5.95325 22.3656 7.5513V12.4698C22.3547 13.0369 22.133 13.5298 21.7026 13.9413C21.2772 14.3746 20.7698 14.5949 20.1779 14.608H17.0247V18.1538H14.6924V7.64509ZM26.576 11.7362C26.576 11.8736 26.6392 11.9812 26.7621 12.0633C26.8719 12.16 27.0107 12.2109 27.1859 12.2109H28.9774C29.3824 12.2109 29.5925 12.0546 29.6048 11.7362V11.0673C29.6048 10.7023 29.3911 10.5184 28.9607 10.5184H27.1859C26.9526 10.5184 26.7912 10.5569 26.701 10.6303C26.6181 10.7169 26.576 10.8877 26.576 11.1415V11.7362ZM29.6048 8.05078C29.6165 7.69234 29.4078 7.52076 28.9767 7.53239H24.2792V5.13605H29.5685C31.1098 5.1615 31.8914 5.90599 31.9176 7.37535V12.3883C31.9045 13.0223 31.7104 13.5451 31.3337 13.9609C30.9397 14.3913 30.4322 14.608 29.8099 14.608H26.6123C25.0564 14.5949 24.2669 13.8846 24.2429 12.4719V10.538C24.2552 9.06137 25.0092 8.31106 26.5018 8.28561H29.6048V8.05078ZM38.4697 15.7575C38.6544 15.7458 38.8143 15.6789 38.9445 15.5604C39.0695 15.4492 39.132 15.3212 39.132 15.1766V14.608H36.1461C35.7564 14.608 35.4452 14.5578 35.2125 14.459C34.9668 14.3695 34.7225 14.2016 34.476 13.9631C34.2434 13.7108 34.0754 13.4469 33.9737 13.1706C33.8675 12.9184 33.8137 12.597 33.8137 12.2109V5.13678H36.1461V11.4519C36.1461 11.9579 36.3525 12.2109 36.7713 12.2109H38.4181C38.6137 12.2109 38.7838 12.147 38.9263 12.0161C39.0637 11.9049 39.132 11.7733 39.132 11.6184V5.13605H41.4455V15.5735C41.4324 16.3457 41.2347 16.9644 40.8522 17.4333C40.4647 17.9023 39.9347 18.1422 39.2585 18.1538H33.813V15.7575H38.4697ZM43.2777 12.2109H47.4335C47.8137 12.1979 48.0115 12.0459 48.0238 11.7536V11.5384C48.0238 11.4759 48.0049 11.4068 47.9678 11.3319C47.8755 11.1516 47.7614 11.0615 47.6261 11.0615H45.5649C44.9535 11.0491 44.4315 10.839 43.9931 10.4319C43.5496 10.0567 43.322 9.5943 43.3089 9.05192V7.26484C43.3329 5.87109 44.0905 5.1615 45.5824 5.13605H50.4027V7.53239H46.3189C45.839 7.53239 45.5984 7.67998 45.5984 7.97298V8.20491C45.5984 8.50882 45.8449 8.66077 46.3363 8.66077H48.391C48.9384 8.67386 49.4052 8.88325 49.7942 9.29185C50.1868 9.70408 50.3904 10.1934 50.4034 10.7619V12.5098C50.3904 13.0012 50.1635 13.4913 49.7266 13.9806C49.5135 14.2205 49.2954 14.3855 49.0773 14.4786C48.8519 14.5644 48.5451 14.608 48.154 14.608H43.2777V12.2109ZM54.3949 11.7362C54.3949 11.8736 54.4575 11.9812 54.584 12.0633C54.693 12.16 54.8312 12.2109 55.0042 12.2109H56.8C57.2042 12.2109 57.4136 12.0546 57.4253 11.7362V11.0673C57.4253 10.7023 57.2086 10.5184 56.7804 10.5184H55.0042C54.7715 10.5184 54.6109 10.5569 54.5214 10.6303C54.4386 10.7169 54.3949 10.8877 54.3949 11.1415V11.7362ZM57.4253 8.05078C57.4354 7.69234 57.2268 7.52076 56.7956 7.53239H52.0989V5.13605H57.3896C58.9288 5.1615 59.7118 5.90599 59.7358 7.37535V12.3883C59.7234 13.0223 59.5271 13.5451 59.1527 13.9609C58.7616 14.3913 58.2534 14.608 57.6303 14.608H54.4298C52.8747 14.5949 52.0851 13.8846 52.064 12.4719V10.538C52.0742 9.06137 52.8274 8.31106 54.3215 8.28561H57.426V8.05078H57.4253ZM61.6319 3.7772C61.6465 3.13013 61.885 2.61102 62.3517 2.22132C62.8054 1.82581 63.4008 1.62296 64.1373 1.61133H65.6183V3.92624H64.7212C64.2282 3.93788 63.9767 4.17344 63.9658 4.6293V5.13678H65.6183V7.53603H63.9658V14.6095H61.6319V3.7772ZM72.2526 8.00643V7.95045C72.2526 7.82685 72.2025 7.72288 72.1021 7.64509C71.9931 7.56947 71.8608 7.53239 71.7008 7.53239H70.0773C69.8686 7.53239 69.7007 7.59056 69.5713 7.71052C69.4099 7.82103 69.3277 7.96644 69.3277 8.14602V9.1079L72.2526 8.00643ZM69.3648 11.3937V11.5428C69.3648 11.7347 69.415 11.8874 69.516 11.9979C69.5887 12.139 69.6876 12.2109 69.8192 12.2109H74.6104V14.608H69.516C69.0507 14.608 68.6887 14.5644 68.4327 14.4771C68.1528 14.3855 67.902 14.235 67.6824 14.0249C67.4258 13.7712 67.2513 13.5131 67.1633 13.247C67.0673 12.9707 67.0194 12.6028 67.0194 12.1448L66.9997 7.34845C67.0252 5.89872 67.782 5.1615 69.2696 5.13605H72.4148C73.8674 5.1615 74.6032 5.92489 74.6264 7.42988V9.32456L69.3648 11.3937ZM79.5645 14.608C79.2112 14.608 78.8884 14.5753 78.5961 14.5157C78.29 14.4662 77.9847 14.3237 77.6728 14.0838C77.3529 13.8054 77.1311 13.4927 77.0097 13.1474C76.881 12.8078 76.8192 12.4232 76.8192 11.9899V7.51785C76.8061 7.15288 76.8432 6.83297 76.9283 6.55524C77.0068 6.27824 77.1718 6.00632 77.4205 5.74095C77.704 5.46177 77.9949 5.27637 78.3002 5.18549C78.5947 5.11133 78.9255 5.07425 79.2977 5.07425H82.8726V5.6348H79.3806C78.7641 5.6348 78.2799 5.76131 77.9251 6.01505C77.563 6.29133 77.3776 6.76899 77.3776 7.44079V11.9165C77.3776 12.2313 77.4256 12.5374 77.5215 12.8326C77.619 13.1234 77.7825 13.3778 78.0167 13.6011C78.2711 13.7937 78.5241 13.9137 78.7706 13.9631C79.028 14.0198 79.3035 14.0467 79.5965 14.0467H82.9286V14.608H79.5645ZM92.0683 8.80545H87.381C86.8197 8.81781 86.3799 8.99158 86.0629 9.32602C85.7357 9.66555 85.5736 10.1309 85.5736 10.7219V12.1499C85.5736 12.4261 85.6027 12.6799 85.6616 12.9074C85.7212 13.1474 85.868 13.3611 86.1007 13.5451C86.5049 13.881 86.9535 14.0467 87.4435 14.0467H90.2841C91.4706 14.0344 92.0683 13.4091 92.0683 12.1673V8.80545ZM92.6252 12.0277C92.6252 12.3883 92.5976 12.7039 92.551 12.9823C92.4754 13.2848 92.3206 13.5763 92.0857 13.8533C91.5957 14.3695 90.9886 14.6204 90.2645 14.608H87.4777C86.7528 14.608 86.1661 14.3913 85.711 13.9609C85.2471 13.5356 85.0123 12.9438 85.0123 12.1855V10.7438C85.0356 9.11663 85.8455 8.28343 87.4421 8.24635H92.085V7.61528C92.085 7.09544 91.9345 6.63958 91.635 6.24843C91.4452 5.99396 91.2206 5.82383 90.9646 5.73659C90.7065 5.66897 90.4164 5.6348 90.0936 5.6348H85.0283V5.07498H89.8304C90.2696 5.07498 90.6665 5.10551 91.0257 5.16586C91.2111 5.20221 91.3783 5.27491 91.5339 5.37888C91.6982 5.47776 91.8516 5.62317 91.9934 5.81293C92.4238 6.36839 92.6339 7.00892 92.6252 7.73088V12.0277ZM97.8665 5.6348C96.5665 5.6588 95.926 6.36912 95.95 7.76505V14.608H95.3916V7.7665C95.3654 5.9707 96.2205 5.07425 97.9566 5.07425H98.5768V5.6348H97.8665ZM107.309 5.63771H102.89C102.572 5.63771 102.287 5.67406 102.03 5.74095C101.761 5.8013 101.501 5.96488 101.257 6.23025C101.025 6.47236 100.878 6.71229 100.817 6.95221C100.735 7.19504 100.698 7.48514 100.711 7.82321V12.1862C100.711 12.9118 100.921 13.4055 101.347 13.6708C101.557 13.7944 101.787 13.8861 102.046 13.9471C102.304 14.0162 102.592 14.0504 102.908 14.0504H104.84C105.562 14.0504 106.152 13.8846 106.606 13.5487C107.061 13.2346 107.293 12.693 107.309 11.9201V5.63844V5.63771ZM107.866 11.9579C107.817 13.7639 106.861 14.6495 105 14.6116H102.929C102.491 14.6116 102.1 14.5738 101.755 14.5011C101.398 14.4088 101.057 14.1914 100.73 13.8533C100.482 13.5494 100.324 13.2419 100.261 12.9271C100.175 12.6123 100.138 12.2626 100.152 11.8801V7.80867C100.175 5.97506 101.099 5.06334 102.924 5.07716H107.308V1.98576H107.866V11.9579Z" fill="white"/>
<path d="M1.73458 4.77597C1.91779 4.69526 2.10101 4.63201 2.28423 4.59275C2.62157 2.98453 4.04513 1.77908 5.75224 1.77908C7.4608 1.77908 8.88508 2.98598 9.22025 4.59421C9.74445 4.69381 10.1785 4.90538 10.5158 5.22092C10.5304 4.91192 10.5173 4.61529 10.4802 4.33538C10.265 1.90632 8.22783 0 5.74497 0C3.18794 0 1.10641 2.02628 0.998808 4.55931C0.984267 4.77815 0.979177 5.00644 0.987175 5.24418C1.20165 5.06315 1.44667 4.90102 1.73458 4.77597Z" fill="white"/>
<path d="M8.52734 5.13598H2.8302C2.5561 5.13598 2.27183 5.19996 1.97956 5.33083C1.69673 5.45443 1.46553 5.60274 1.28014 5.7816C0.926793 6.20474 0.745758 6.82709 0.733398 7.64429V12.0975C0.745758 12.9168 0.926793 13.537 1.28014 13.9601C1.46553 14.1412 1.69673 14.2902 1.97956 14.4145C2.27183 14.5425 2.5561 14.6072 2.8302 14.6072H8.52734C9.99888 14.5941 10.747 13.7864 10.771 12.1912V7.5505C10.747 5.95245 9.99888 5.14834 8.52734 5.13525" fill="white"/>
</svg>
