<svg width="109" height="30" viewBox="0 0 109 30" fill="none" xmlns="http://www.w3.org/2000/svg">
<g opacity="0.5">
<path fill-rule="evenodd" clip-rule="evenodd" d="M54.4209 23.0997H53.7405C37.484 23.0993 21.2274 23.1028 4.97114 23.1103C2.23356 23.1142 0.309944 20.7684 0.970412 18.117C1.53889 15.8347 2.13775 13.5601 2.76703 11.2932C3.43197 8.90578 5.02689 7.43947 7.41661 6.84702C7.86608 6.73561 8.34889 6.72474 8.8163 6.72418C25.4036 6.71826 41.991 6.71887 58.5782 6.72606C58.9562 6.72606 59.2154 6.66831 59.4064 6.29258C60.6884 3.7699 62.703 2.02506 65.2562 0.870513C66.4646 0.310432 67.7795 0.0170997 69.1114 0.0105223C77.4443 0.0097738 85.7773 0.00628094 94.1102 4.36998e-05C95.4435 -0.00317699 96.7127 0.171012 97.9337 0.72649C99.4561 1.4196 100.568 2.52651 101.201 4.05548C101.541 4.87843 101.698 5.77743 101.961 6.72871C102.397 6.72871 102.958 6.70508 103.518 6.73475C104.207 6.77124 104.903 6.79741 105.578 6.9249C107.155 7.22286 108.385 8.61917 108.599 10.2005C108.706 10.9858 108.596 11.7315 108.39 12.478C107.857 14.4147 107.331 16.3536 106.782 18.286C106.141 20.5422 104.748 22.0745 102.488 22.8349C101.742 23.0859 101.011 23.079 100.261 23.0866C99.3947 23.0955 98.5281 23.1055 97.6625 23.0796C97.2995 23.0689 97.069 23.1879 96.9036 23.5013C96.0549 25.1118 94.8491 26.4102 93.382 27.4696C91.7881 28.6205 90.0434 29.4361 88.0652 29.6047C86.8934 29.7046 85.7101 29.7041 84.5319 29.7055C76.7345 29.7149 68.9366 29.7656 61.14 29.6883C57.846 29.6557 55.1781 27.5685 54.5312 24.0887C54.4737 23.7823 54.4605 23.4676 54.4209 23.0997L54.4209 23.0997ZM84.163 26.8763C85.9552 26.8999 87.7615 27.1091 89.5014 26.3992C90.454 26.0146 91.344 25.49 92.1418 24.8427C93.8573 23.4464 94.9129 21.6277 95.4582 19.4886C95.737 18.3968 96.081 17.3211 96.4184 16.2452C96.8011 15.0225 97.216 13.8098 97.6053 12.589C98.0363 11.2352 98.4285 9.86834 98.8859 8.52327C99.3735 7.08596 99.3083 5.68986 98.5353 4.39921C97.6979 2.99991 96.3135 2.4633 94.7551 2.41842C92.993 2.36757 91.2269 2.45253 89.4653 2.39621C87.6949 2.33951 86.1328 2.91021 84.6897 3.84126C84.0464 4.25632 83.4886 4.81041 82.918 5.32998C82.0746 6.10519 81.4318 7.07362 81.045 8.15187C80.5295 9.55865 80.1409 11.0117 79.6923 12.4433C78.9857 14.6986 78.2588 16.9478 77.5725 19.2097C77.2695 20.2082 76.9318 21.2166 76.807 22.2444C76.5158 24.6466 78.2304 26.6843 80.6734 26.8622C81.8309 26.9461 82.9995 26.8763 84.163 26.8763ZM63.4932 21.118C63.52 20.8585 63.5094 20.6678 63.5622 20.4965C64.0038 19.0633 64.4523 17.6322 64.9077 16.2032C65.6602 13.8406 66.4344 11.4839 67.1593 9.1125C67.2808 8.71558 67.4286 8.60821 67.8225 8.60964C71.2875 8.62182 74.7527 8.60964 78.2179 8.61579C78.5933 8.61644 78.8574 8.54718 78.9379 8.12624C79.005 7.80585 79.091 7.48968 79.1954 7.17943C79.6091 5.87659 80.0188 4.57244 80.454 3.27641C80.5825 2.89376 80.4986 2.75382 80.0962 2.75457C76.5208 2.76165 72.9453 2.74427 69.37 2.77895C68.6497 2.77537 67.9336 2.8895 67.25 3.11681C65.9626 3.55883 64.7811 4.26403 63.781 5.18737C62.8776 6.0293 62.14 6.94987 61.6898 8.06909C61.19 9.3117 60.793 10.597 60.3806 11.8732C59.9211 13.296 59.4958 14.7293 59.0534 16.1573C58.7481 17.1425 58.445 18.1284 58.1299 19.1105C57.7492 20.2974 57.2481 21.4535 57.2049 22.7255C57.1464 23.9214 57.6396 25.0805 58.5421 25.8674C59.4272 26.6494 60.5582 26.9899 61.7871 26.9693C63.8341 26.935 65.8827 26.9882 67.9292 26.9394C68.5828 26.9267 69.2286 26.7944 69.8346 26.549C70.6316 26.2147 71.3744 25.7399 72.1142 25.2826C73.1782 24.6249 73.9003 23.6246 74.4847 22.5648C74.9535 21.7143 75.2629 20.766 75.567 19.8362C76.3342 17.4907 77.0616 15.1322 77.7981 12.7768C78.0309 12.0324 78.021 12.0302 77.2202 11.984C77.0326 11.9731 76.8453 11.9395 76.6579 11.9392C74.4686 11.936 72.2791 11.9479 70.0899 11.9277C69.672 11.9238 69.4728 12.0515 69.3528 12.456C68.94 13.8452 68.4928 15.2238 68.0581 16.6065C67.9885 16.8282 67.9077 17.0474 67.8551 17.2731C67.7746 17.6184 67.8763 17.8181 68.2809 17.7928C68.8607 17.7564 69.4423 17.7514 70.0224 17.7199C70.4982 17.6941 70.729 17.8617 70.6237 18.2208C70.3774 19.0595 70.0987 19.8886 69.8413 20.724C69.7478 21.0274 69.5634 21.1288 69.2459 21.1252C67.9073 21.1098 66.5684 21.1185 65.2295 21.1184H63.4932V21.118ZM28.4846 19.3885C29.2893 19.3885 30.012 19.402 30.7338 19.3746C30.8479 19.3703 31.0138 19.2017 31.0559 19.0756C31.3083 18.3196 31.5272 17.5528 31.7654 16.792C32.2696 15.1813 32.7994 13.5784 33.2791 11.9604C33.6855 10.5891 32.8798 9.56364 31.4405 9.56328C30.7004 9.56328 29.9604 9.57215 29.2205 9.57414C27.8037 9.57802 26.3209 10.6515 25.8906 12.0029C25.2533 14.0043 24.6214 16.0074 23.9949 18.0124C23.8566 18.4526 23.7303 18.8965 23.5791 19.4006C24.3059 19.4006 24.9504 19.3845 25.5937 19.4071C25.9315 19.4191 26.0991 19.3144 26.1859 18.9724C26.332 18.396 26.5239 17.8308 26.7178 17.2682C26.7615 17.1415 26.889 16.9526 26.9837 16.9492C27.7135 16.9225 28.4447 16.9346 29.2479 16.9346C28.983 17.7864 28.7441 18.5543 28.4846 19.3887V19.3885V19.3885ZM6.65111 19.4003C7.38937 19.4003 8.04796 19.3829 8.70496 19.4078C9.01891 19.4197 9.15329 19.2962 9.23598 19.0131C9.40741 18.4264 9.62514 17.8528 9.78164 17.2626C9.85449 16.9879 9.9835 16.9198 10.2424 16.9264C10.8248 16.9411 11.4087 16.9088 11.9908 16.9346C13.6464 17.0082 15.0979 15.9286 15.6346 14.3375C15.9045 13.5374 16.1516 12.7294 16.3757 11.9134C16.7159 10.6849 15.9855 9.59118 14.7911 9.57104C13.2324 9.54468 11.6725 9.57331 10.1132 9.55999C9.82133 9.55754 9.6879 9.68217 9.60965 9.93157C9.36722 10.7081 9.12342 11.4842 8.87828 12.2601C8.41344 13.7359 7.94864 15.2118 7.48389 16.6877C7.20954 17.5654 6.94408 18.4449 6.65111 19.4003ZM42.6516 9.56754C41.9087 9.56754 41.2639 9.58739 40.6211 9.55951C40.2751 9.54459 40.1354 9.67671 40.0391 9.9963C39.6191 11.3895 39.1813 12.7772 38.7255 14.1594C38.6547 14.3161 38.5129 14.4297 38.3446 14.4646C37.764 14.4966 37.1804 14.4723 36.5979 14.4741C36.2965 14.4749 36.213 14.3642 36.313 14.0638C36.5991 13.2044 36.8626 12.3376 37.1337 11.4733C37.3268 10.8574 37.5179 10.2408 37.7258 9.57378C36.9631 9.57378 36.2866 9.59127 35.6118 9.56546C35.329 9.55468 35.2214 9.68217 35.1509 9.91191C35.0044 10.3892 34.854 10.8653 34.7048 11.3417C34.3672 12.419 34.0019 13.4887 33.6991 14.5758C33.372 15.7499 33.8374 16.5245 35.0011 16.8655C35.1206 16.9081 35.2376 16.9573 35.3516 17.0128C35.1193 17.8025 34.8949 18.5655 34.6512 19.3943C35.4292 19.3943 36.1496 19.4086 36.8682 19.3802C36.9862 19.3754 37.1531 19.2033 37.2006 19.0733C37.3948 18.5772 37.5522 18.0675 37.6715 17.5484C37.7619 17.1078 38.004 16.9316 38.4102 16.841C39.8206 16.5265 40.7153 15.6301 41.1714 14.2863C41.503 13.3093 41.7989 12.3206 42.1077 11.3356C42.2843 10.7723 42.4548 10.2079 42.6516 9.56754ZM24.0334 14.4807C23.2157 14.4807 22.4785 14.4712 21.7424 14.4928C21.653 14.4954 21.5259 14.6487 21.4886 14.7574C21.2801 15.3645 21.1039 15.9828 20.8917 16.5886C20.8437 16.7259 20.7013 16.9271 20.5954 16.9316C19.8761 16.9619 19.155 16.9474 18.3517 16.9474C19.1343 14.4596 19.8958 12.0393 20.6645 9.59599H18.1939C17.1621 12.8686 16.1403 16.1091 15.1092 19.3799H22.4842C22.9945 17.7663 23.5026 16.1594 24.0334 14.4807ZM49.5519 19.3988C50.3646 19.3988 51.0713 19.4076 51.7772 19.3888C51.902 19.3665 52.0084 19.2845 52.0619 19.1695C52.5132 17.6889 52.9968 16.2155 53.3725 14.7153C53.728 13.2954 52.6905 12.4247 51.5132 12.4892C50.7601 12.5304 50.0022 12.4757 49.2477 12.5007C47.7766 12.5492 46.6866 13.2727 46.1035 14.5902C45.6823 15.5417 45.4618 16.5827 45.1594 17.586C44.9825 18.1725 44.8204 18.7633 44.6377 19.4005C45.3737 19.4005 46.0349 19.3774 46.6934 19.4099C47.0402 19.4269 47.1652 19.2675 47.2416 18.9799C47.3938 18.4055 47.5492 17.8318 47.7153 17.2613C47.9403 16.489 48.1767 15.72 48.4109 14.9405C49.0593 14.9405 49.6571 14.9506 50.2542 14.9369C50.6364 14.9282 50.8164 15.0169 50.6795 15.4536C50.4452 16.1992 50.2525 16.9576 50.0394 17.7098C49.8866 18.2458 49.7303 18.7803 49.5519 19.3988ZM43.1358 12.6872C44.1914 12.6872 45.178 12.6928 46.1642 12.6778C46.2794 12.6536 46.3763 12.5755 46.4246 12.4682C46.7297 11.6176 47.0167 10.761 47.3186 9.87818H44.0691L43.1358 12.6872ZM92.7857 8.73874C92.5314 9.51018 92.2952 10.213 92.0688 10.9186C91.8971 11.4533 91.7412 11.9931 91.5723 12.5287C91.2642 13.5065 90.9368 14.4783 90.6449 15.4608C90.2992 16.6245 89.9946 17.8004 89.6488 18.9641C89.4636 19.592 89.2467 20.2102 88.9991 20.8163C88.9413 20.9568 88.6997 21.0904 88.5323 21.1041C88.0843 21.1419 87.6305 21.1041 87.1792 21.1122C86.175 21.1299 85.171 21.1661 84.1668 21.1742C83.9004 21.1772 83.6355 21.1344 83.3836 21.0475C83.2985 21.0173 83.2159 20.7674 83.2492 20.6515C83.6032 19.4203 83.9716 18.1933 84.3542 16.9704C84.8574 15.3616 85.3777 13.7581 85.8886 12.1518C86.2248 11.0946 86.544 10.0318 86.9059 8.9836C86.9959 8.8039 87.1675 8.67836 87.366 8.64688C89.0016 8.61447 90.6381 8.61381 92.2743 8.61286C92.4075 8.61297 92.5407 8.67657 92.7857 8.73874H92.7857ZM27.6613 14.4373C27.8951 13.6782 28.0694 13.0284 28.306 12.402C28.3654 12.2446 28.6161 12.0792 28.793 12.0618C29.2906 12.0134 29.7955 12.0375 30.2976 12.0385C30.5826 12.0391 30.6954 12.1629 30.6048 12.4577C30.4579 12.9363 30.3376 13.4232 30.189 13.9015C30.0704 14.2843 29.8394 14.4832 29.392 14.4473C28.8521 14.4045 28.3057 14.4373 27.6613 14.4373ZM10.7459 14.4345C10.9951 13.6718 11.2098 12.9924 11.4459 12.3205C11.5012 12.2248 11.5983 12.1604 11.708 12.1467C12.3717 12.1027 13.0367 12.0791 13.7693 12.0459C13.5291 12.8223 13.3303 13.5035 13.0991 14.1736C13.0343 14.3052 12.9101 14.398 12.7655 14.4229C12.1405 14.4477 11.5141 14.4347 10.7459 14.4347V14.4345Z" fill="white"/>
</g>
</svg>
