<svg width="57" height="22" viewBox="0 0 57 22" fill="none" xmlns="http://www.w3.org/2000/svg">
<g opacity="0.5">
<path fill-rule="evenodd" clip-rule="evenodd" d="M7.11712 0H56.7351L51.2533 21.016H1.63528L4.42292 10.2295L2.65794 11.624L0.985352 12.9248L1.44943 11.1574L2.75139 6.32267L3.21547 4.46275L4.14468 5.76469L5.25869 7.25263L7.11712 0ZM3.49371 6.32372L5.25869 8.74056L2.19281 11.1585L3.49371 6.32372ZM24.5864 0.929959H55.6201L51.5315 16.5522H20.5902L22.4487 9.11254H25.5145L25.7004 8.36963H22.7279L24.5864 0.929959ZM27.373 9.1136H30.4389L28.7673 15.5298H50.6958L54.3192 1.85887H32.2983L30.6257 8.36963H27.6512L27.3719 9.1136H27.373ZM16.2224 0.929959H24.2147L22.2628 8.36963H20.0327L19.8469 9.1136H22.077L20.1261 16.5533H12.1359L14.0868 9.1136H16.0376L16.2234 8.36963H14.2726L16.2234 0.929959H16.2224ZM7.7681 0.929959H15.7583L13.8999 8.36963H11.5774C11.7632 8.55562 11.8566 8.83408 11.8566 9.1136H13.6216L11.7632 16.5533H3.6806L5.63143 9.1136H7.39746L7.58331 8.36963H5.81622L7.7681 0.929959ZM33.5058 6.32372L30.5323 8.74056L32.2983 11.1585L33.5058 6.32372ZM48.6515 4.4638H50.0448L47.3506 14.5998H48.6504L51.3446 4.4638H52.739L53.1107 2.78988H49.1145L48.6504 4.4638H48.6515ZM46.2355 4.4638H48.3722L48.8373 2.78988H45.3063L42.2404 14.5998H43.5413L44.8422 9.76404H46.5138L46.9789 8.09011H45.3063L46.2355 4.4638ZM38.1508 11.8089C37.6867 13.6688 38.0584 14.7858 39.3593 14.7858C40.6613 14.7858 41.6829 13.6699 42.147 11.8099L43.7272 5.67327C44.2836 3.81336 43.8196 2.69635 42.5197 2.69635C41.2178 2.69635 40.2885 3.8123 39.731 5.67222L38.1519 11.8089H38.1508ZM41.1254 5.57975C41.3112 4.64979 41.6818 4.37133 42.147 4.37133C42.5187 4.37133 42.7045 4.64979 42.5187 5.57975L40.8461 11.9024C40.5678 12.7399 40.2896 13.1108 39.8245 13.1108C39.4528 13.1108 39.2669 12.7399 39.4528 11.9024L41.1254 5.57975ZM35.2718 5.67222C34.3426 9.02007 36.851 9.48558 36.2 11.9035C36.0142 12.7399 35.6435 13.0184 35.1784 13.0184C34.8067 13.0184 34.6219 12.7399 34.8067 11.9024L35.086 10.9725H33.8785L33.5992 11.8099C33.1341 13.6699 33.5058 14.7858 34.8067 14.7858C36.1076 14.7858 37.0368 13.6699 37.5009 11.8099C38.4301 8.4621 36.0142 7.99764 36.5717 5.5787C36.851 4.64979 37.1292 4.37028 37.5943 4.37028C37.966 4.37028 38.1508 4.64979 37.8726 5.5787L37.7802 6.13773H38.9876L39.0811 5.67222C39.6376 3.8123 39.2669 2.69635 37.966 2.69635C36.6651 2.69635 35.7359 3.8123 35.2718 5.67222ZM27.8381 19.1561L27.9305 18.8776H28.7673L28.5815 19.4346C28.3956 19.6216 28.2098 19.7141 28.0239 19.8076C27.8381 19.9001 27.6523 19.9001 27.373 19.9001C27.0013 19.9001 26.722 19.8076 26.5372 19.6216C26.4438 19.4356 26.3514 19.2496 26.4438 18.8776C26.5372 18.5981 26.723 18.3197 27.0013 18.1337C27.2806 17.9477 27.5588 17.8542 27.9305 17.8542C28.1163 17.8542 28.3022 17.9477 28.488 17.9477C28.6739 18.0401 28.7673 18.2261 28.8597 18.3197L28.5815 18.5057L28.3022 18.2261C28.2098 18.2261 28.0239 18.1337 27.8381 18.1337C27.7159 18.1301 27.5944 18.1531 27.482 18.2012C27.3696 18.2493 27.269 18.3213 27.1871 18.4121C26.9089 18.5056 26.8154 18.6916 26.723 18.8776C26.723 19.1561 26.723 19.2496 26.8154 19.4346C27.0013 19.6216 27.1871 19.6216 27.4664 19.6216C27.6523 19.6216 27.7447 19.6216 27.9305 19.5281C28.1163 19.5281 28.2098 19.4356 28.3022 19.3421L28.3956 19.1561H27.8381ZM31.7408 19.1561H32.4842L32.2983 18.4121L31.7408 19.1561ZM30.8116 19.9001L32.2983 17.9477H32.4842L33.0407 19.9001H32.67L32.5766 19.3431H31.555L31.1833 19.9001H30.8116ZM35.4577 19.9001L36.0141 17.9477H36.2L36.7575 19.0636L37.7802 17.9477H38.0584L37.5943 19.9001H37.2227L37.5943 18.5057L36.5717 19.5281L36.1076 18.5057L35.7359 19.9001H35.4577ZM40.382 19.9001L40.9385 17.9477H41.2178L40.7537 19.9001H40.382ZM43.5413 19.9001L44.0978 17.9477H44.2847L45.1205 19.2496L45.4921 17.9466H45.7714L45.3063 19.9011H45.1205L44.1912 18.5057L43.913 19.9001H43.5413ZM49.5807 19.1561L49.6731 18.8776H50.5099L50.3241 19.4346C50.2306 19.6216 50.0448 19.7141 49.7665 19.8076C49.5807 19.9001 49.3949 19.9001 49.1156 19.9001C48.7439 19.9001 48.5591 19.8076 48.3722 19.6216C48.1863 19.4356 48.094 19.2496 48.1863 18.8776C48.2798 18.5981 48.4656 18.3197 48.7439 18.1337C49.0232 17.9477 49.3014 17.8542 49.6731 17.8542C49.9524 17.8542 50.1382 17.9477 50.2306 17.9477C50.4165 18.0401 50.5099 18.2261 50.6023 18.3197L50.3241 18.5057L50.0448 18.2261C49.9524 18.2261 49.7665 18.1337 49.5807 18.1337C49.4585 18.1301 49.337 18.1531 49.2246 18.2012C49.1122 18.2493 49.0116 18.3213 48.9297 18.4121C48.6515 18.5056 48.558 18.6916 48.4656 18.8776C48.4656 19.1561 48.4656 19.2496 48.6515 19.4346C48.7439 19.6216 48.9297 19.6216 49.208 19.6216C49.3949 19.6216 49.5807 19.6216 49.6731 19.5281C49.8589 19.5281 49.9524 19.4356 50.0448 19.3421L50.1382 19.1561H49.5807ZM11.3915 17.5757C11.7632 17.5757 12.0425 17.9477 11.949 18.3197V18.4121C12.3207 18.5056 12.5066 18.7841 12.4142 19.1561C12.3207 19.6216 11.8566 19.9001 11.485 19.9001C11.2057 19.9001 10.9274 19.7141 10.9274 19.4356C10.7416 19.7141 10.3699 19.9001 10.0906 19.9001C9.71893 19.9001 9.43964 19.6216 9.53413 19.1561C9.62653 18.7841 9.99822 18.5046 10.4623 18.4121V18.3197C10.5557 17.9477 11.0198 17.5757 11.3915 17.5757ZM11.0198 20.3656L10.834 19.6216L10.3699 20.3656H11.0209H11.0198ZM23.2855 17.5757C23.4713 17.5757 24.4005 18.5056 24.2147 19.1561C24.1212 19.6216 23.7496 19.9001 23.2855 19.9001C23.0062 19.9001 22.8203 19.7141 22.7279 19.4356C22.5421 19.7141 22.2628 19.9001 21.9846 19.9001C21.5194 19.9001 21.2412 19.6216 21.427 19.1561C21.6129 18.4121 23.0062 17.5757 23.2855 17.5757ZM22.8203 20.3656L22.7279 19.6216L22.1704 20.3656H22.8214H22.8203ZM16.6886 20.1796C16.3158 20.1796 15.3866 19.2496 15.5725 18.4121C15.6659 18.0401 16.13 17.6682 16.5951 17.6682C16.9668 17.6682 17.1516 17.8542 17.1516 18.1337C17.4309 17.8542 17.7102 17.6682 18.0819 17.6682C18.4536 17.6682 18.7328 18.0401 18.6383 18.4121C18.4536 19.3421 16.9668 20.1796 16.6875 20.1796H16.6886ZM5.72278 17.5757C6.00102 18.1326 6.27925 18.5056 6.74439 18.9701C6.09341 19.3421 5.62933 19.7141 5.0718 20.272C4.79356 19.7151 4.51532 19.3421 4.05019 18.9701C4.70116 18.5056 5.16525 18.1337 5.72278 17.5757ZM25.608 4.27676H27.0947L24.3071 14.8772H25.7004L28.3967 4.27781H29.8834L30.3475 2.51036H26.0742L25.609 4.27781L25.608 4.27676ZM18.9176 4.27676H21.3336L21.7987 2.50931H17.9884L14.8291 14.8772H18.5459L19.0111 13.1108H16.5951L17.6167 9.48453H19.4752L19.9403 7.71708H18.0819L18.9176 4.27676ZM11.0198 4.27676C11.485 4.27676 11.5774 4.64874 11.3915 5.48518L11.2057 6.22915C10.9274 7.1591 10.5547 7.53214 9.99822 7.53214H9.44069L10.2765 4.27676H11.0198ZM9.62653 9.29959C10.2775 9.29959 10.3699 9.67157 10.0906 10.7865L9.81237 11.9024C9.62653 12.8324 9.25484 13.1108 8.78971 13.1108H8.04634L8.97555 9.29959H9.62653ZM11.485 2.51141H9.44069L6.18791 14.8793H8.32563C9.71893 14.8793 10.6481 13.8559 11.2057 11.9024L11.485 10.88C11.7632 9.57805 11.7632 8.64809 11.1133 8.27611C11.8566 7.81165 12.3207 7.06769 12.6924 5.76469L12.7859 5.30024C13.2499 3.44032 12.8783 2.51036 11.4839 2.51036L11.485 2.51141Z" fill="white"/>
</g>
</svg>
