<svg width="75" height="25" viewBox="0 0 75 25" fill="none" xmlns="http://www.w3.org/2000/svg">
<g opacity="0.5">
<path d="M0.735352 1.31143C2.38505 0.438444 4.22883 -0.0344207 6.08474 0.00195363C8.91106 0.00195363 11.701 1.2508 13.5812 3.33626C13.848 3.63938 14.1149 3.9425 14.3211 4.30625C15.5948 6.08859 16.3104 8.23467 16.4439 10.4293C16.2377 10.4293 13.4113 10.5262 12.7078 10.5262C10.9247 10.5262 9.17793 10.1868 7.52823 9.55627C6.69125 9.21677 5.91492 8.81666 5.21137 8.28317C4.26522 7.57993 3.50102 6.70695 2.89452 5.72484C1.98476 4.33049 1.40251 2.82702 0.735352 1.31143Z" fill="white"/>
<path d="M14.3943 5.54328C14.3943 7.362 13.8848 9.03522 13.0479 10.5508C14.0547 10.5144 16.2745 10.4538 16.4443 10.4538C16.3109 8.27136 15.6073 6.11315 14.3215 4.33081C14.3215 4.33081 14.3215 4.29443 14.2851 4.29443C14.3579 4.6703 14.3943 5.10679 14.3943 5.54328Z" fill="white"/>
<path d="M11.1917 11.3632C12.6716 11.0964 16.444 11.3268 16.444 11.3268C16.347 13.6184 15.5707 15.8978 14.1514 17.7529C12.9384 19.3291 11.2645 20.5416 9.37216 21.1842C6.54584 22.1542 3.35561 21.8511 0.759766 20.4446C1.36627 19.0381 1.93639 17.5832 2.74911 16.2737C3.52544 14.9278 4.62928 13.7881 5.93933 12.9757C7.52838 12.03 9.38429 11.5693 11.1917 11.3632Z" fill="white"/>
<path d="M12.6108 11.266C10.5972 14.2245 7.03089 16.1766 2.99156 16.1766H2.82173C2.78534 16.2493 2.74895 16.2736 2.72469 16.3463C1.91197 17.6437 1.34186 19.0986 0.735352 20.5051C3.3312 21.9116 6.55782 22.2147 9.34775 21.2447C11.2279 20.6021 12.9504 19.3896 14.127 17.8134C15.5341 15.9583 16.2741 13.6789 16.4196 11.3873C16.4439 11.363 14.2968 11.1933 12.6108 11.266Z" fill="white"/>
<path d="M16.0074 19.4261C15.7406 19.2563 15.3645 19.1957 15.037 19.2563C14.4669 19.3533 13.9938 19.8626 13.9211 20.4324C13.8483 20.9417 14.0909 21.4388 14.4912 21.7055C14.9279 22.045 15.6071 22.045 16.0438 21.7055C16.3835 21.4752 16.6139 21.0629 16.6503 20.6628C16.711 20.2021 16.4441 19.7049 16.0074 19.4261ZM16.3471 20.881C16.2136 21.4145 15.6799 21.7904 15.1341 21.6934C14.6246 21.6207 14.2243 21.1599 14.2243 20.6507C14.1879 20.1414 14.6003 19.6443 15.0977 19.5716C15.3645 19.5352 15.6314 19.5716 15.874 19.7049C16.2379 19.8989 16.4805 20.4082 16.3471 20.881ZM15.6071 20.7477C15.8376 20.6143 15.9832 20.3112 15.8134 20.0808C15.5829 19.7413 15.1462 19.9111 14.8066 19.8747V21.2812H15.0734V20.7477H15.3039C15.4009 20.9174 15.4737 21.0872 15.5708 21.2569H15.9104C15.8012 21.1114 15.7042 20.9053 15.6071 20.7477ZM15.0613 20.5416V20.1051C15.2311 20.1051 15.5344 20.0687 15.5708 20.3354C15.5708 20.5779 15.2675 20.5416 15.0613 20.5416Z" fill="white"/>
<path d="M31.6791 11.3994H32.1886C32.2614 12.8059 32.3584 14.2245 32.4554 15.6067H31.9824C31.7155 14.6973 31.3759 13.788 30.7694 13.012C30.2599 12.3694 29.4957 11.9329 28.6466 11.9329C27.7732 11.8965 26.8998 12.333 26.3904 13.012C25.7839 13.8486 25.517 14.9277 25.4806 15.9341C25.4806 16.904 25.4078 17.8862 25.7111 18.7955C25.9416 19.4987 26.2812 20.2384 26.8877 20.7112C27.6277 21.2447 28.6345 21.3175 29.4836 21.0871C30.1871 20.881 30.7572 20.3111 30.9634 19.6442C31.1939 19.038 31.0969 18.3711 31.0969 17.7285C31.1333 17.4982 30.927 17.292 30.6966 17.2557C30.2599 17.1829 29.8596 17.2193 29.4229 17.2193V16.71H33.5957V17.2193C33.3288 17.2193 33.062 17.1829 32.783 17.3163C32.5767 17.389 32.5161 17.6194 32.5161 17.8255V21.8267H32.043C31.8732 21.2205 31.7034 20.6142 31.5093 20.0444C31.0362 20.8567 30.2963 21.4872 29.3623 21.6933C28.2463 21.9237 27.0454 21.6933 26.0993 21.0871C25.2259 20.5778 24.583 19.7776 24.1463 18.8683C23.6126 17.8255 23.5034 16.5767 23.746 15.4369C23.9522 14.661 24.2797 13.9577 24.7892 13.2909C25.3957 12.4785 26.2691 11.848 27.2395 11.5085C28.0765 11.2418 28.9862 11.2418 29.8353 11.5813C30.3084 11.7874 30.7451 12.0541 31.109 12.3936C31.2788 12.1026 31.485 11.7631 31.6791 11.3994ZM53.477 11.8359C53.2101 11.9693 52.9675 12.236 52.9675 12.5391C52.8947 12.9756 53.3072 13.4121 53.7438 13.3757C54.1805 13.4121 54.6172 12.9756 54.5808 12.5391C54.5565 12.0299 53.95 11.5934 53.477 11.8359ZM71.8784 14.9883C71.8784 15.4248 71.4781 15.8007 71.0414 15.7643C70.7745 15.7643 70.5077 15.5946 70.3742 15.3642C70.3015 15.1944 70.2772 15.0247 70.1438 14.9277C69.7071 15.0975 69.3068 15.3278 68.9308 15.6309C69.1612 15.9341 69.3675 16.2978 69.4402 16.6737C69.5373 17.3163 69.3675 18.0559 68.8701 18.4924C68.5062 18.8198 68.0695 19.0623 67.5965 19.1956C66.7837 19.4624 65.9468 19.1956 65.1462 19.426C64.7701 19.523 64.576 19.9595 64.7701 20.299C64.94 20.5657 65.3039 20.5657 65.5828 20.5657C66.4198 20.5657 67.2689 20.493 68.1059 20.5657C68.7124 20.6385 69.416 20.7961 69.792 21.3417C70.2651 22.0086 70.0589 23.027 69.4888 23.5605C68.9793 24.0698 68.3121 24.3001 67.6328 24.3971C66.9657 24.4941 66.25 24.4941 65.5465 24.3971C65.0127 24.3001 64.4669 24.1304 64.0666 23.7303C63.8361 23.5242 63.6905 23.221 63.6905 22.9179C63.6905 22.5421 63.921 22.2511 64.2 22.0449C64.5397 21.8146 64.9036 21.7055 65.2796 21.6448C64.8793 21.5478 64.4426 21.3781 64.1394 21.0386C63.7633 20.6385 63.7997 19.9595 64.1394 19.5594C64.4062 19.2562 64.7823 19.0865 65.1462 18.9531C64.8065 18.747 64.479 18.5166 64.2728 18.1408C63.8725 17.5345 63.8725 16.6979 64.2 16.0553C64.4669 15.5461 64.9399 15.1823 65.4494 14.9762C66.4562 14.5761 67.6692 14.7095 68.579 15.3521C69.0157 14.952 69.5251 14.6852 70.0589 14.4063C70.3621 14.273 70.7018 14.1032 71.0657 14.1396C71.5023 14.1517 71.9148 14.5276 71.8784 14.9883ZM68.1787 17.0132C68.1787 16.4797 68.0453 15.9341 67.645 15.5703C67.2689 15.1945 66.6988 15.1338 66.2379 15.3036C65.7041 15.5097 65.3645 16.0432 65.2917 16.5767C65.1947 17.2193 65.2917 17.9589 65.7648 18.456C66.2743 18.9895 67.2083 18.9895 67.7178 18.456C68.0817 18.0923 68.1787 17.5103 68.1787 17.0132ZM63.5329 21.075V21.6084H60.5731C60.5731 21.4387 60.5367 21.2326 60.5731 21.075C60.8036 21.075 61.0098 21.075 61.2403 20.978C61.4101 20.881 61.5071 20.6385 61.4707 20.4687V17.4375C61.4343 16.904 61.3737 16.3221 60.9613 15.9583C60.6216 15.6188 60.0879 15.5582 59.6148 15.6188C59.1054 15.7158 58.7051 16.0553 58.4382 16.4918C58.2077 16.9283 58.0985 17.4012 58.0985 17.8983V20.3475C58.0985 20.5778 58.1349 20.8203 58.329 20.9537C58.5352 21.0507 58.7657 21.0507 58.9962 21.0507V21.5842H48.6734V21.0507C48.9403 21.0507 49.2436 21.0871 49.5104 20.9537C49.7166 20.8567 49.7773 20.6142 49.7773 20.4202V17.2314C49.7773 16.7222 49.6802 16.1887 49.2436 15.8492C48.637 15.3763 47.6666 15.6188 47.2542 16.2493C47.0237 16.6252 46.8539 17.0617 46.7811 17.4982V20.493C46.7811 20.6991 46.8539 20.8931 47.048 21.0022C47.3149 21.0992 47.6181 21.075 47.885 21.075V21.6084H44.4521V21.075C44.719 21.075 44.9859 21.1113 45.2649 21.0022C45.4347 20.9295 45.5681 20.7718 45.5681 20.5657V17.3042C45.5317 16.7949 45.4711 16.2614 45.0587 15.9219C44.6826 15.5824 44.1489 15.5824 43.6758 15.7158C43.409 15.8128 43.1664 16.0189 43.0087 16.2493C42.7054 16.6858 42.5356 17.2193 42.5356 17.7649V20.4566C42.5356 20.6263 42.572 20.8325 42.7054 20.9295C42.9723 21.0992 43.3119 21.0265 43.6152 21.0265V21.56H39.5758C39.309 21.5236 39.0057 21.5236 38.7389 21.3902C38.4356 21.2205 38.3022 20.881 38.2051 20.5536C37.8048 20.9295 37.4288 21.3296 36.9315 21.5236C36.3613 21.7539 35.6821 21.7903 35.0756 21.657C34.6025 21.56 34.1294 21.3175 33.8625 20.881C33.5593 20.3717 33.6321 19.7049 33.9596 19.1956C34.2628 18.7591 34.7359 18.456 35.209 18.2256C36.1551 17.7892 37.1619 17.583 38.1323 17.4497V16.3099C38.0596 15.7037 37.5258 15.2672 36.9557 15.1702C36.4463 15.0975 35.9125 15.1702 35.4758 15.4369C35.3424 15.5339 35.1726 15.6673 35.2454 15.8734C35.3788 16.1402 35.6457 16.3827 35.6214 16.71C35.6214 17.1102 35.2211 17.4133 34.8451 17.3769C34.3356 17.4133 33.9353 16.904 34.0081 16.4312C34.0809 15.6916 34.748 15.1581 35.3909 14.8792C36.1673 14.5761 37.0406 14.5397 37.8776 14.7095C38.4841 14.8428 39.0178 15.243 39.2605 15.8249C39.3575 16.0917 39.3575 16.3584 39.3575 16.6373V20.0686C39.3575 20.3717 39.4545 20.7355 39.7942 20.9052C40.0974 21.0022 40.4371 20.978 40.7403 20.978C40.9708 20.978 41.2498 20.881 41.3104 20.6385C41.3468 20.5051 41.3468 20.3354 41.3468 20.202V16.0311C41.3468 15.8007 41.2741 15.5946 41.08 15.4612C40.8738 15.3642 40.6433 15.3278 40.4371 15.2915V14.7822C41.08 14.7822 41.7107 14.7095 42.3536 14.6852C42.4507 15.1581 42.5235 15.6309 42.5598 16.0917C42.9601 15.4854 43.506 14.9156 44.2459 14.7458C44.8161 14.6125 45.459 14.6488 45.932 15.0126C46.3323 15.3157 46.5385 15.7522 46.672 16.2251C47.0723 15.5218 47.7515 14.8792 48.5521 14.7458C49.1223 14.6488 49.8015 14.7095 50.2382 15.146C50.7477 15.6552 50.9418 16.3584 50.9418 17.0253V20.3839C50.9418 20.5536 50.9782 20.7233 51.148 20.8203C51.4148 20.9901 51.7909 20.9173 52.0941 20.9537C52.361 20.9537 52.6642 20.9901 52.9675 20.9173C53.2344 20.881 53.3678 20.6142 53.3678 20.3839V16.1523C53.3678 15.8856 53.2708 15.6188 53.0282 15.4854C52.7613 15.3521 52.4944 15.3521 52.1912 15.3521V14.8186C53.0039 14.7822 53.8045 14.7822 54.5808 14.7216V20.0686C54.5808 20.299 54.5444 20.5778 54.6779 20.8082C54.8113 20.881 54.9447 20.9416 55.1145 20.9416H56.3639C56.6308 20.9416 56.9341 20.7355 56.9341 20.4324V16.1281C56.9341 15.8613 56.837 15.5582 56.5944 15.4248C56.3276 15.2551 55.9879 15.2914 55.6483 15.2551C55.6847 15.0853 55.5755 14.8792 55.721 14.7822C56.4246 14.7095 57.1645 14.7095 57.9045 14.6488C58.0015 15.1581 58.0743 15.6188 58.1107 16.1281C58.4139 15.6188 58.8142 15.1823 59.3843 14.952C59.8938 14.7216 60.4275 14.6488 60.9613 14.7216C61.3979 14.7943 61.7982 14.952 62.0772 15.2915C62.4775 15.7643 62.6837 16.4069 62.6837 17.001V20.2626C62.6837 20.4687 62.7201 20.7355 62.9142 20.8688C63.0598 21.075 63.3024 21.075 63.5329 21.075ZM38.1687 18.0923C37.3318 18.2256 36.519 18.359 35.7791 18.7955C35.4031 19.0259 35.1119 19.4017 35.0756 19.8382C35.0028 20.2384 35.0756 20.7112 35.3788 20.978C35.6457 21.2447 36.046 21.3175 36.422 21.2447C37.1255 21.1477 37.7684 20.6021 38.0353 19.9352C38.2779 19.329 38.1445 18.6864 38.1687 18.0923ZM65.9953 21.7176C65.5586 21.8146 65.0491 22.0207 64.8186 22.4208C64.6124 22.7603 64.6852 23.2574 65.0249 23.5363C65.4009 23.8394 65.8618 23.9364 66.2985 23.9728C66.9657 24.0092 67.645 24.0092 68.2879 23.7424C68.6275 23.5727 68.955 23.3423 69.1248 23.0028C69.2947 22.6633 69.1248 22.2268 68.858 21.9964C68.5547 21.7661 68.1544 21.6933 67.742 21.657C67.1719 21.6206 66.5654 21.6206 65.9953 21.7176ZM40.7646 0.268867V0.80236C41.1406 0.838734 41.5409 0.729608 41.9048 0.935729C42.111 1.03273 42.2081 1.27523 42.2081 1.46922V9.07145C42.2081 9.30182 42.1353 9.54431 41.9048 9.60493C41.6743 9.70193 41.3954 9.67768 41.1649 9.67768V10.2112H44.4279V9.67768C44.161 9.67768 43.8578 9.75043 43.6152 9.58069C43.4817 9.50794 43.409 9.35031 43.4453 9.18057V0.0991211C42.5477 0.196119 41.6743 0.232493 40.7646 0.268867ZM19.6339 0.80236C19.9371 0.80236 20.2404 0.765982 20.5437 0.875105C20.7741 0.947854 20.8833 1.17823 20.8469 1.4086V9.20482C20.8469 9.43519 20.7499 9.64131 20.5073 9.71406C20.2404 9.78681 19.9735 9.78681 19.6945 9.78681C19.6582 9.78681 19.6218 9.82318 19.6218 9.82318V10.3324H28.0643C28.1371 9.21694 28.1614 8.07722 28.2342 6.97386H27.7004C27.6034 7.6771 27.4336 8.45308 26.9605 9.02295C26.5602 9.49581 25.9537 9.72618 25.3836 9.79893C24.7771 9.87168 24.1706 9.83531 23.5641 9.87168C23.2608 9.87168 22.9939 9.87168 22.6907 9.83531C22.4845 9.79893 22.351 9.60493 22.351 9.43519V5.50677C22.9575 5.50677 23.6611 5.40977 24.1706 5.80989C24.7771 6.24638 24.8377 7.08299 24.9105 7.76197H25.42V2.85144H24.9105C24.8741 3.28794 24.8377 3.72443 24.6436 4.12454C24.4132 4.56104 24.0007 4.90053 23.5034 4.96115C23.1031 4.99753 22.7271 4.96115 22.3632 4.99752V1.44497C22.3268 1.17823 22.533 0.935729 22.7999 0.935729H25.5534C26.0265 0.935729 26.5602 1.00848 26.8635 1.4086C27.2637 1.88146 27.2637 2.54832 27.3972 3.11819H27.9066C27.8096 2.20883 27.7732 1.29947 27.6762 0.390115H19.5732C19.6339 0.438614 19.6339 0.632613 19.6339 0.80236ZM58.5595 0.49924C58.2926 0.632613 58.0864 0.899356 58.0864 1.20248C58.0864 1.63897 58.4867 2.07546 58.9598 2.03908C59.4329 2.03908 59.7968 1.52984 59.6997 1.0691C59.6027 0.571987 59.0326 0.26887 58.5595 0.49924ZM53.9137 0.875105C53.8773 1.68746 53.7074 2.52407 53.1737 3.19094C52.9069 3.53043 52.4702 3.70018 52.0335 3.7608V4.27004H53.2101V8.78045C53.2101 9.18057 53.3435 9.61706 53.6468 9.92018C54.0228 10.3203 54.5929 10.4294 55.0903 10.4294C55.7332 10.4294 56.3397 10.0536 56.6429 9.48369C56.9462 8.97445 57.0432 8.36821 57.0432 7.7741H56.5338C56.5338 8.21059 56.461 8.64708 56.2669 9.0472C56.0971 9.35032 55.8666 9.58069 55.527 9.65344C55.1873 9.72618 54.8598 9.61706 54.6536 9.38669C54.4474 9.15632 54.4231 8.81682 54.3867 8.51371V4.23367H57.4193C57.6861 4.23367 57.9894 4.23366 58.232 4.40341C58.4382 4.53678 58.4988 4.80353 58.4988 5.04603V9.08357C58.4988 9.28969 58.4261 9.52006 58.232 9.61706C58.0015 9.71406 57.7225 9.68981 57.4557 9.68981V10.2233H60.7187V9.68981C60.4882 9.68981 60.282 9.68981 60.0515 9.65344C59.9181 9.61706 59.7483 9.52006 59.7119 9.38669C59.6755 9.21694 59.6755 9.0472 59.6755 8.87745V3.46981C57.8923 3.54256 56.1456 3.5668 54.3625 3.54255V0.814481C54.2533 0.875105 54.0835 0.875105 53.9137 0.875105ZM67.3053 3.5668C67.2325 3.5668 67.1355 3.53043 67.0991 3.63955V4.07605C67.4388 4.07605 67.8027 4.03967 68.0695 4.24579C68.3 4.41554 68.3364 4.75503 68.3364 5.02178V9.11994C68.3364 9.28969 68.3364 9.45944 68.203 9.55644C67.9967 9.76256 67.6935 9.72618 67.4266 9.76256V10.296H70.4228V9.76256C70.1923 9.76256 69.9497 9.76256 69.7556 9.66556C69.5494 9.56856 69.5251 9.28969 69.5251 9.0957V6.47675C69.5615 5.83413 69.7556 5.20365 70.2287 4.76715C70.7018 4.33066 71.4053 4.19729 72.0118 4.42766C72.3878 4.59741 72.6183 4.9369 72.7518 5.30064C72.8488 5.67651 72.8852 6.07663 72.8852 6.47675V9.16845C72.8852 9.33819 72.8124 9.56856 72.679 9.67768C72.4728 9.81106 72.2423 9.77468 71.9754 9.77468V10.3082H74.9716V9.77468C74.7411 9.73831 74.4985 9.77468 74.3044 9.67768C74.1103 9.58069 74.0739 9.30182 74.0739 9.10782V5.80989C74.0739 5.24002 73.9041 4.63378 73.5645 4.16092C73.334 3.8578 72.9944 3.65168 72.6183 3.55468C71.8784 3.34856 71.005 3.48193 70.3985 3.9548C70.0589 4.22154 69.7556 4.56103 69.5251 4.90053C69.4887 4.39129 69.4281 3.93055 69.3189 3.45768C68.676 3.49406 67.9725 3.53043 67.3053 3.5668ZM46.8175 3.45768C46.0412 3.53043 45.2406 3.55468 44.4643 3.55468V4.06392C44.7311 4.06392 44.998 4.06392 45.2406 4.16092C45.4711 4.25791 45.6409 4.53678 45.6409 4.76715V7.76197C45.6409 8.23484 45.7137 8.73195 45.9078 9.16845C46.0776 9.54431 46.3808 9.83531 46.7205 10.0414C47.327 10.3809 48.1276 10.3809 48.7705 10.1142C49.3406 9.84743 49.8137 9.41094 50.2504 8.93807C50.2867 9.37456 50.3474 9.77468 50.3474 10.2112C51.0873 10.2475 51.8637 10.1748 52.6036 10.1748V9.66556C52.264 9.66556 51.8637 9.73831 51.5968 9.45944C51.3663 9.22907 51.3663 8.92595 51.3663 8.62283V3.37281C50.59 3.44556 49.8137 3.46981 49.0131 3.50618V4.01542C49.2799 4.01542 49.5832 4.05179 49.8501 4.14879C50.0805 4.24579 50.2261 4.48829 50.2261 4.71866V7.31335C50.2261 7.98022 49.9592 8.65921 49.4498 9.0957C49.1101 9.39882 48.6128 9.53219 48.1761 9.49581C47.703 9.45944 47.3027 9.15632 47.0965 8.79258C46.8903 8.41671 46.866 7.98022 46.8903 7.5801C46.8175 6.24638 46.8175 4.8399 46.8175 3.45768ZM27.5791 3.5668C27.5791 3.73655 27.5427 3.9063 27.5427 4.07605C27.8824 4.14879 28.2099 4.11242 28.5132 4.20941C28.78 4.34279 28.8892 4.64591 29.0226 4.87628C29.8596 6.75562 30.7087 8.64708 31.5821 10.49H31.9824C32.7587 8.67133 33.5593 6.86474 34.3356 5.04603C34.4327 4.81566 34.5418 4.53679 34.7723 4.37916C34.9785 4.20942 35.2454 4.14879 35.4758 4.11242V3.60318H32.7223V4.11242C33.0256 4.18517 33.3895 4.20941 33.5957 4.45191C33.7291 4.58528 33.7655 4.82778 33.6685 4.9854C33.1347 6.2585 32.5889 7.50735 32.0552 8.78045C31.5214 7.56798 30.9392 6.3555 30.4055 5.15515C30.3084 4.92478 30.1386 4.64591 30.2356 4.37916C30.4661 4.07605 30.9028 4.17304 31.206 4.11242V3.60318C30.0052 3.5668 28.7921 3.5668 27.5791 3.5668ZM40.7282 8.9017C40.061 10.0778 38.5448 10.7204 37.2347 10.3809C36.2279 10.1142 35.4152 9.30182 35.0877 8.33183C34.9179 7.82259 34.8572 7.25273 34.8815 6.71924C34.8815 5.88263 35.1847 5.0339 35.7548 4.40341C36.1551 3.93055 36.701 3.59105 37.3075 3.45768C38.1445 3.28794 39.0906 3.38493 39.7942 3.89417C40.5341 4.40341 41.0436 5.20365 41.177 6.113C41.2983 7.05874 41.2013 8.06509 40.7282 8.9017ZM39.8548 6.3555C39.8184 5.82201 39.7578 5.31277 39.5152 4.80353C39.2847 4.33067 38.8116 3.96692 38.3022 3.89417C38.0353 3.8578 37.7321 3.8578 37.4652 3.96692C37.0649 4.13667 36.7616 4.47616 36.5554 4.8399C36.2886 5.40977 36.2158 6.05238 36.1794 6.71924C36.1794 7.42248 36.2158 8.16209 36.4827 8.84108C36.6889 9.35032 37.0892 9.81106 37.6593 9.95656C38.0353 10.0293 38.3992 9.99293 38.7389 9.82318C39.2119 9.59281 39.5152 9.11995 39.6486 8.61071C39.8912 7.8711 39.8912 7.09511 39.8548 6.3555ZM66.4926 9.31394C65.7527 10.2233 64.479 10.6598 63.3266 10.3567C62.4169 10.1505 61.6769 9.48369 61.2766 8.64708C60.8764 7.81047 60.84 6.86474 61.0098 5.99176C61.2403 4.68228 62.3198 3.50618 63.6663 3.37281C64.3698 3.30006 65.1462 3.44555 65.7527 3.84567C66.5654 4.35491 67.0627 5.25215 67.1962 6.19788C67.366 7.28911 67.1962 8.46521 66.4926 9.31394ZM65.6556 5.00965C65.4494 4.50041 64.9885 4.03967 64.4062 3.96692C64.103 3.93055 63.7997 3.93055 63.5329 4.03967C62.9263 4.27004 62.5624 4.87628 62.4169 5.51889C62.2107 6.3555 62.2107 7.22848 62.3441 8.07722C62.4411 8.68346 62.6474 9.28969 63.1204 9.68981C63.5207 10.0293 64.1272 10.1263 64.6367 9.92018C65.1098 9.75043 65.4737 9.31394 65.6435 8.87745C65.8497 8.36821 65.9104 7.83472 65.9104 7.26486C65.9589 6.4525 65.9589 5.67651 65.6556 5.00965Z" fill="white"/>
</g>
</svg>
