<svg width="138" height="16" viewBox="0 0 138 16" fill="none" xmlns="http://www.w3.org/2000/svg">
<g opacity="0.5">
<path d="M6.33504 0H9.14726V10.8558C9.14726 11.8536 8.95071 12.7306 8.57272 13.5017C8.19474 14.2727 7.65043 14.8624 6.93982 15.2706C6.24433 15.694 5.443 15.8905 4.56607 15.8905C3.1146 15.8905 1.99577 15.4672 1.17932 14.6205C0.377986 13.7738 0 12.5794 0 11.0372V9.90323H2.78198V11.0372C2.78198 11.8083 2.94829 12.3677 3.22044 12.7457C3.50771 13.1086 3.94617 13.29 4.55095 13.29C5.09525 13.29 5.51859 13.0783 5.8361 12.655C6.15361 12.2316 6.31992 11.6268 6.31992 10.8406V0H6.33504Z" fill="white"/>
<path d="M20.2447 8.966H15.8903V15.8302H13.0781V0.151367H21.5299V2.76703H15.8903V6.36545H20.2447V8.966Z" fill="white"/>
<path d="M32.582 2.76703H29.1498V15.8453H26.3376V2.76703H23.1172V0.151367H32.5971L32.582 2.76703Z" fill="white"/>
<path d="M45.7661 11.4755L47.5955 0.302246H50.4078L47.3688 15.9962H44.5263L42.3037 5.50333L40.0812 15.9962H37.2539L34.2148 0.302246H37.0271L38.8716 11.4453L41.1244 0.302246H43.5133L45.7661 11.4755Z" fill="white"/>
<path d="M6.03225 12.3977C5.98689 12.5035 5.92641 12.5942 5.86593 12.6698C5.54843 13.0932 5.12508 13.3048 4.5959 13.3048C3.37123 14.1515 2.63038 14.8924 2.20703 15.3913C2.87229 15.7391 3.6585 15.9054 4.58078 15.9054C5.45771 15.9054 6.25904 15.6937 6.95453 15.2855C7.65003 14.8621 8.19433 14.2725 8.58743 13.5165C8.96542 12.7454 9.16197 11.8685 9.16197 10.8706C7.9373 11.3695 6.89406 11.8987 6.03225 12.3977Z" fill="white"/>
<path d="M13.0781 9.46462V15.845H15.8903V8.96568H20.2447V7.77124C17.4779 8.27018 15.1041 8.84472 13.0781 9.46462Z" fill="white"/>
<path d="M27.8801 6.80359C27.3509 6.84895 26.8368 6.89431 26.3379 6.95478V15.845H29.1501V6.69775C28.7268 6.72799 28.3034 6.77335 27.8801 6.80359Z" fill="white"/>
<path d="M39.8246 6.78858L38.8872 11.4454L38.101 6.68274C37.2089 6.63738 36.332 6.60714 35.4551 6.5769L37.2392 15.8149L37.2694 15.9812H40.1119L40.1572 15.7998L42.032 6.95489C41.2761 6.89441 40.5503 6.83393 39.8246 6.78858ZM46.4318 7.45383L45.7665 11.4605L44.9198 7.25728C44.1639 7.16656 43.4079 7.09097 42.6368 7.01537L44.4965 15.7695L44.5419 15.9812H47.3843L47.4297 15.7544L48.9719 7.78646C48.1252 7.68062 47.2785 7.55967 46.4318 7.45383Z" fill="white"/>
<path opacity="0.3" d="M55.519 0.364258C55.3527 0.364258 55.2167 0.439855 55.1108 0.560811C55.005 0.681766 54.9596 0.83296 54.9596 0.999274V5.67118C54.9596 6.24572 54.8689 6.63882 54.7026 6.83538C54.5363 7.03193 54.3095 7.12265 54.0222 7.12265C53.7652 7.12265 53.5082 7.04705 53.2662 6.91097C53.1906 6.86562 53.115 6.8505 53.0243 6.8505C52.8731 6.8505 52.7522 6.92609 52.6463 7.04705C52.5707 7.168 52.5254 7.28896 52.5254 7.44015C52.5254 7.66695 52.6161 7.84838 52.7824 7.96933C53.1604 8.22636 53.5989 8.36244 54.0676 8.36244C54.6421 8.36244 55.1259 8.15077 55.5039 7.72742C55.8819 7.30408 56.0633 6.60859 56.0633 5.62582V1.01439C56.0633 0.84808 56.018 0.696885 55.9121 0.560811C55.8214 0.439855 55.6702 0.364258 55.519 0.364258Z" fill="white"/>
<path opacity="0.3" d="M62.6248 0.363281C62.4585 0.363281 62.3224 0.438878 62.2166 0.559834C62.1107 0.680789 62.0654 0.831984 62.0654 0.998298V5.29222C62.0654 5.70044 61.9898 6.04819 61.8386 6.32034C61.6874 6.59249 61.4908 6.80416 61.2489 6.94024C60.7651 7.21239 60.1603 7.21239 59.6765 6.94024C59.4346 6.80416 59.238 6.59249 59.0868 6.32034C58.9356 6.04819 58.86 5.70044 58.86 5.29222V1.01342C58.86 0.847103 58.8147 0.695909 58.7089 0.559834C58.603 0.423759 58.4518 0.363281 58.3006 0.363281C58.1343 0.363281 57.9982 0.438878 57.8924 0.559834C57.7866 0.680789 57.7412 0.831984 57.7412 0.998298V5.26198C57.7412 5.92723 57.8773 6.50177 58.1343 6.95535C58.4065 7.42406 58.7391 7.7718 59.1624 7.9986C59.5858 8.22539 60.0242 8.34634 60.4627 8.34634C60.9163 8.34634 61.3548 8.22539 61.763 7.9986C62.1863 7.7718 62.5341 7.42406 62.7911 6.95535C63.0481 6.48665 63.1842 5.92723 63.1842 5.26198V1.01342C63.1842 0.847103 63.1388 0.695909 63.033 0.559834C62.9272 0.438878 62.7911 0.363281 62.6248 0.363281Z" fill="white"/>
<path opacity="0.3" d="M68.1743 4.17237C67.8719 4.03629 67.4788 3.8851 67.0101 3.74902C66.6473 3.64319 66.36 3.55247 66.1634 3.47687C65.9669 3.40128 65.8157 3.28032 65.6947 3.14425C65.5738 3.00817 65.5133 2.84186 65.5133 2.61507C65.5133 2.28244 65.6343 2.02541 65.8913 1.82886C66.1634 1.6323 66.5112 1.54159 66.9496 1.54159C67.4183 1.54159 67.8871 1.6323 68.3255 1.81374C68.4011 1.85909 68.4767 1.87421 68.5372 1.87421C68.6884 1.87421 68.8245 1.79862 68.9152 1.66254C69.0059 1.54159 69.0361 1.40551 69.0361 1.26944C69.0361 0.921689 68.8547 0.770495 68.6884 0.694898C68.1441 0.452987 67.5091 0.332031 66.8438 0.332031C66.3298 0.332031 65.8762 0.437867 65.5133 0.649539C65.1353 0.861211 64.848 1.14848 64.6666 1.51135C64.4701 1.85909 64.3793 2.26732 64.3793 2.70578C64.3793 3.20472 64.5003 3.61295 64.7271 3.91534C64.9539 4.21773 65.2412 4.44452 65.5587 4.59571C65.861 4.73179 66.2693 4.88298 66.7531 5.03418C67.116 5.14001 67.3881 5.24585 67.5847 5.32145C67.7661 5.39704 67.9173 5.50288 68.0382 5.62383C68.1441 5.74479 68.2046 5.88086 68.2046 6.0623C68.2046 6.531 68.0534 7.1509 66.7833 7.1509C66.1786 7.1509 65.604 7.01482 65.09 6.72755C65.0144 6.68219 64.9388 6.66707 64.848 6.66707C64.6968 6.66707 64.5608 6.72755 64.4701 6.86363C64.3793 6.98458 64.334 7.12066 64.334 7.27185C64.334 7.39281 64.3642 7.51376 64.4247 7.60448C64.4852 7.71032 64.5759 7.78591 64.6666 7.84639C65.347 8.19414 66.0878 8.37557 66.874 8.37557C67.3579 8.37557 67.7812 8.28485 68.1441 8.0883C68.5221 7.89175 68.8093 7.6196 69.0059 7.28697C69.2176 6.93922 69.3083 6.56124 69.3083 6.12278C69.3083 5.60871 69.1873 5.18537 68.9756 4.86786C68.764 4.55035 68.4918 4.30844 68.1743 4.17237Z" fill="white"/>
<path opacity="0.3" d="M74.4938 0.422852H70.0184C69.8672 0.422852 69.7312 0.483329 69.6253 0.619404C69.5346 0.74036 69.4893 0.876435 69.4893 1.04275C69.4893 1.20906 69.5346 1.34514 69.6253 1.46609C69.7312 1.58705 69.8521 1.64753 70.0184 1.64753H71.6967V7.68018C71.6967 7.84649 71.742 7.99769 71.8479 8.11864C71.9537 8.2396 72.0898 8.3152 72.2561 8.3152C72.4073 8.3152 72.5585 8.25472 72.6643 8.11864C72.7702 7.99769 72.8155 7.84649 72.8155 7.68018V1.63241H74.4938C74.645 1.63241 74.7811 1.57193 74.8869 1.45097C74.9927 1.33002 75.0381 1.19394 75.0381 1.02763C75.0381 0.861315 74.9927 0.72524 74.8869 0.604285C74.7811 0.483329 74.645 0.422852 74.4938 0.422852Z" fill="white"/>
<path opacity="0.3" d="M82.4163 0.422852H78.9237C78.7574 0.422852 78.6213 0.498449 78.5155 0.619404C78.4096 0.74036 78.3643 0.891554 78.3643 1.05787V7.66506C78.3643 7.83138 78.4096 7.98257 78.5155 8.10353C78.6213 8.22448 78.7574 8.30008 78.9237 8.30008C79.0749 8.30008 79.2261 8.2396 79.3319 8.10353C79.4377 7.98257 79.4831 7.83138 79.4831 7.66506V4.94356H82.0988C82.2499 4.94356 82.386 4.88309 82.4919 4.76213C82.5977 4.64117 82.6431 4.5051 82.6431 4.33879C82.6431 4.17247 82.5977 4.0364 82.4919 3.91544C82.386 3.79449 82.2499 3.71889 82.0988 3.71889H79.4831V1.63241H82.4163C82.5675 1.63241 82.7035 1.57193 82.8094 1.45097C82.9152 1.33002 82.9606 1.19394 82.9606 1.02763C82.9606 0.861315 82.9152 0.72524 82.8094 0.604285C82.7035 0.483329 82.5675 0.422852 82.4163 0.422852Z" fill="white"/>
<path opacity="0.3" d="M88.464 0.831426C87.965 0.483679 87.3905 0.302246 86.7252 0.302246C86.0751 0.302246 85.4854 0.483679 84.9865 0.831426C84.4875 1.17917 84.1096 1.663 83.8374 2.26777C83.5653 2.87255 83.4292 3.56804 83.4141 4.33914C83.4292 5.11023 83.5653 5.80572 83.8374 6.4105C84.1096 7.01528 84.4875 7.4991 84.9865 7.84684C85.4854 8.19459 86.0751 8.37602 86.7252 8.37602C87.3905 8.37602 87.965 8.19459 88.464 7.84684C88.9478 7.4991 89.3409 7.01528 89.613 6.4105C89.8852 5.80572 90.0213 5.11023 90.0364 4.33914C90.0213 3.56804 89.8852 2.88767 89.613 2.28289C89.3409 1.663 88.9478 1.17917 88.464 0.831426ZM86.7252 7.13623C86.2716 7.13623 85.8785 7.01528 85.561 6.77336C85.2284 6.53145 84.9865 6.19883 84.8051 5.77548C84.6236 5.35214 84.5329 4.86832 84.5329 4.32402C84.5329 3.77972 84.6236 3.29589 84.8051 2.87255C84.9865 2.44921 85.2284 2.11658 85.561 1.87467C85.8785 1.63276 86.2716 1.5118 86.7252 1.5118C87.1637 1.5118 87.5568 1.63276 87.8894 1.87467C88.222 2.11658 88.4791 2.44921 88.6454 2.87255C88.8268 3.29589 88.9175 3.77972 88.9175 4.32402C88.9175 4.86832 88.8268 5.35214 88.6454 5.77548C88.464 6.19883 88.222 6.53145 87.8894 6.77336C87.5568 7.01528 87.1637 7.13623 86.7252 7.13623Z" fill="white"/>
<path opacity="0.3" d="M96.0085 4.02128C96.2202 3.64329 96.3261 3.21995 96.3261 2.76636C96.3261 2.07087 96.0993 1.49633 95.6759 1.07299C95.2375 0.649643 94.5873 0.422852 93.7406 0.422852H91.6541C91.4878 0.422852 91.3518 0.498449 91.2459 0.619404C91.1401 0.74036 91.0947 0.891554 91.0947 1.05787V7.66506C91.0947 7.83138 91.1401 7.98257 91.2459 8.10353C91.3518 8.22448 91.4878 8.30008 91.6541 8.30008C91.8053 8.30008 91.9565 8.2396 92.0624 8.10353C92.1682 7.98257 92.2136 7.83138 92.2136 7.66506V5.32155H93.9221C94.2849 5.32155 94.5571 5.42739 94.7385 5.62394C94.9199 5.85073 95.0409 6.09264 95.0863 6.37991C95.1316 6.6823 95.1619 6.99981 95.1619 7.34755V7.66506C95.1619 7.8465 95.2072 7.99769 95.3131 8.11864C95.4189 8.2396 95.555 8.3152 95.7364 8.3152C95.8876 8.3152 96.0388 8.25472 96.1446 8.11864C96.2505 7.99769 96.2958 7.84649 96.2958 7.68018V7.18124C96.2958 6.6823 96.2202 6.16824 96.0539 5.63906C95.9178 5.21571 95.691 4.8982 95.3735 4.71677C95.6306 4.53534 95.8573 4.30855 96.0085 4.02128ZM95.2223 2.84196C95.2223 3.25019 95.0863 3.53746 94.8292 3.76425C94.5571 3.99104 94.1791 4.09687 93.6953 4.09687H92.2136V1.64753H93.6499C94.2396 1.64753 94.6478 1.75336 94.8897 1.94991C95.1014 2.16159 95.2223 2.44886 95.2223 2.84196Z" fill="white"/>
<path opacity="0.3" d="M103.917 0.422852H99.4413C99.2901 0.422852 99.154 0.483329 99.0482 0.619404C98.9575 0.74036 98.9121 0.876435 98.9121 1.04275C98.9121 1.20906 98.9575 1.34514 99.0482 1.46609C99.154 1.58705 99.275 1.64753 99.4413 1.64753H101.12V7.68018C101.12 7.84649 101.165 7.99769 101.271 8.11864C101.377 8.2396 101.513 8.3152 101.679 8.3152C101.83 8.3152 101.981 8.25472 102.087 8.11864C102.193 7.99769 102.238 7.84649 102.238 7.68018V1.63241H103.917C104.068 1.63241 104.204 1.57193 104.31 1.45097C104.416 1.33002 104.461 1.19394 104.461 1.02763C104.461 0.861315 104.416 0.72524 104.31 0.604285C104.204 0.483329 104.083 0.422852 103.917 0.422852Z" fill="white"/>
<path opacity="0.3" d="M109.783 0.362287C109.616 0.362287 109.48 0.437885 109.374 0.55884C109.269 0.679796 109.223 0.83099 109.223 0.997304V3.7188H106.124V0.997304C106.124 0.83099 106.078 0.679796 105.973 0.543721C105.867 0.407646 105.715 0.347168 105.564 0.347168C105.398 0.347168 105.262 0.422765 105.156 0.543721C105.05 0.664676 105.005 0.81587 105.005 0.982184V7.63474C105.005 7.80105 105.05 7.95224 105.156 8.0732C105.262 8.19416 105.398 8.26975 105.564 8.26975C105.715 8.26975 105.867 8.20928 105.973 8.0732C106.078 7.95224 106.124 7.80105 106.124 7.63474V4.91324H109.223V7.63474C109.223 7.80105 109.269 7.95224 109.374 8.0732C109.48 8.19416 109.616 8.26975 109.783 8.26975C109.934 8.26975 110.085 8.20928 110.191 8.0732C110.297 7.95224 110.342 7.80105 110.342 7.63474V0.982184C110.342 0.81587 110.297 0.664676 110.191 0.528601C110.07 0.437885 109.934 0.362287 109.783 0.362287Z" fill="white"/>
<path opacity="0.3" d="M116.088 1.63239C116.239 1.63239 116.375 1.57191 116.481 1.45096C116.586 1.33 116.632 1.19393 116.632 1.02761C116.632 0.861298 116.586 0.725223 116.481 0.604268C116.375 0.483312 116.239 0.407715 116.088 0.407715H112.489C112.323 0.407715 112.187 0.483312 112.081 0.604268C111.975 0.725223 111.93 0.876417 111.93 1.04273V7.58945C111.93 7.75576 111.975 7.90695 112.081 8.02791C112.187 8.14887 112.323 8.22446 112.489 8.22446H116.088C116.239 8.22446 116.375 8.16398 116.481 8.04303C116.586 7.92207 116.632 7.786 116.632 7.61969C116.632 7.45337 116.586 7.3173 116.481 7.19634C116.375 7.07539 116.239 6.99979 116.088 6.99979H113.049V4.94355H115.77C115.921 4.94355 116.057 4.88307 116.163 4.76211C116.269 4.64116 116.314 4.50508 116.314 4.33877C116.314 4.17245 116.269 4.03638 116.163 3.91542C116.057 3.79447 115.921 3.71887 115.77 3.71887H113.049V1.63239H116.088Z" fill="white"/>
<path opacity="0.3" d="M127.73 0.363281C127.594 0.363281 127.473 0.40864 127.367 0.514476C127.276 0.605192 127.216 0.726148 127.17 0.862223L125.809 6.24474L124.434 0.892461C124.403 0.741267 124.328 0.620312 124.207 0.514476C123.98 0.317923 123.647 0.317923 123.421 0.514476C123.315 0.605192 123.239 0.741267 123.194 0.892461L121.818 6.24474L120.457 0.862223C120.427 0.726148 120.351 0.605192 120.261 0.514476C120.155 0.40864 120.034 0.363281 119.898 0.363281C119.731 0.363281 119.595 0.423759 119.489 0.559834C119.384 0.680789 119.338 0.831984 119.353 0.998298C119.353 1.05878 119.369 1.11925 119.384 1.22509L121.153 7.72645C121.213 7.90788 121.289 8.05907 121.41 8.14979C121.531 8.25563 121.667 8.3161 121.833 8.3161C121.984 8.3161 122.135 8.25563 122.256 8.13467C122.377 8.02883 122.453 7.87764 122.498 7.71133L123.799 2.76727L125.099 7.71133C125.144 7.87764 125.22 8.02883 125.341 8.13467C125.462 8.25563 125.613 8.3161 125.764 8.3161C125.915 8.3161 126.066 8.25563 126.187 8.14979C126.293 8.04395 126.384 7.90788 126.444 7.71133L128.213 1.20997C128.229 1.11925 128.244 1.04366 128.244 0.998298C128.244 0.816864 128.198 0.680789 128.108 0.559834C128.032 0.438878 127.896 0.363281 127.73 0.363281Z" fill="white"/>
<path opacity="0.3" d="M129.801 0.363281C129.634 0.363281 129.498 0.438878 129.392 0.559834C129.287 0.680789 129.241 0.831984 129.241 0.998298V7.65085C129.241 7.81716 129.287 7.96836 129.392 8.08931C129.498 8.21027 129.634 8.28587 129.801 8.28587C129.952 8.28587 130.103 8.22539 130.209 8.08931C130.315 7.96836 130.36 7.81716 130.36 7.65085V0.998298C130.36 0.831984 130.315 0.68079 130.209 0.544715C130.088 0.438879 129.952 0.363281 129.801 0.363281Z" fill="white"/>
<path opacity="0.3" d="M137.572 0.55884C137.466 0.422765 137.315 0.362287 137.163 0.362287C136.997 0.362287 136.861 0.437885 136.755 0.55884C136.649 0.679796 136.604 0.83099 136.604 0.997304V6.25887L133.429 0.740273C133.263 0.483243 133.051 0.347168 132.809 0.347168H132.688C132.476 0.347168 132.295 0.437885 132.159 0.619318C132.023 0.785632 131.947 0.982184 131.947 1.20898V7.64986C131.947 7.81617 131.993 7.96736 132.098 8.08832C132.204 8.20927 132.34 8.28487 132.507 8.28487C132.658 8.28487 132.809 8.22439 132.915 8.08832C133.021 7.96736 133.066 7.81617 133.066 7.64986V2.40341L136.271 7.95224C136.332 8.05808 136.423 8.1488 136.528 8.20928C136.634 8.28487 136.755 8.31511 136.876 8.31511H136.982C137.194 8.31511 137.375 8.22439 137.511 8.05808C137.647 7.89177 137.723 7.69521 137.723 7.46842V1.01242C137.723 0.846109 137.678 0.694915 137.572 0.55884Z" fill="white"/>
<path opacity="0.3" d="M55.836 12.8671H54.7172C54.6265 12.8671 54.5509 12.8974 54.4904 12.973C54.4299 13.0334 54.3997 13.1242 54.3997 13.2149C54.3997 13.3056 54.4299 13.3963 54.4904 13.4568C54.5509 13.5324 54.6265 13.5626 54.7172 13.5626H55.579V14.6512C55.2917 14.8175 54.9894 14.9082 54.6718 14.9082C54.3695 14.9082 54.1124 14.8326 53.8856 14.6815C53.674 14.5303 53.4925 14.3186 53.3867 14.0616C53.2657 13.8045 53.2053 13.487 53.2053 13.1544C53.2053 12.7915 53.2657 12.474 53.3867 12.2019C53.5077 11.9448 53.674 11.7483 53.9008 11.6122C54.1124 11.4761 54.3695 11.4157 54.6416 11.4157C54.8382 11.4157 55.0196 11.4459 55.1859 11.5064C55.3522 11.5669 55.5337 11.6576 55.7 11.7785C55.836 11.8541 56.0024 11.8239 56.0931 11.718C56.1536 11.6576 56.1687 11.5669 56.1687 11.4761C56.1687 11.4157 56.1535 11.3552 56.1233 11.2947C56.0931 11.2342 56.0628 11.1889 56.0175 11.1737C55.8058 11.0226 55.5941 10.9016 55.3673 10.8109C55.1405 10.7202 54.8684 10.6748 54.566 10.6748C54.188 10.6748 53.8403 10.7806 53.5228 10.9923C53.2204 11.204 52.9634 11.4913 52.7819 11.8692C52.6005 12.2472 52.5098 12.6857 52.5098 13.1544C52.5098 13.6231 52.6005 14.0616 52.7668 14.4244C52.9331 14.8024 53.175 15.0897 53.4925 15.3014C53.81 15.513 54.1729 15.6189 54.566 15.6189C55.0196 15.6189 55.4732 15.4828 55.8965 15.2409C55.9721 15.1955 56.0326 15.135 56.078 15.0443C56.1233 14.9536 56.1536 14.8629 56.1536 14.7571V13.2602C56.1536 13.1544 56.1233 13.0637 56.0628 12.9881C56.0175 12.9125 55.9268 12.8671 55.836 12.8671Z" fill="white"/>
<path opacity="0.3" d="M58.9509 11.0524C58.9207 10.9617 58.8602 10.8861 58.7997 10.8256C58.7241 10.7651 58.6485 10.7349 58.5427 10.7349H58.4822C58.3764 10.7349 58.3008 10.7651 58.2252 10.8256C58.1647 10.8861 58.1194 10.9617 58.074 11.0524L56.6377 15.0893C56.6225 15.1497 56.6074 15.2102 56.6074 15.2556C56.6074 15.3614 56.6377 15.4521 56.6981 15.5126C56.804 15.6487 57.0005 15.6638 57.1366 15.558C57.1971 15.5126 57.2273 15.4521 57.2576 15.3916L57.6053 14.3938H59.4196L59.7674 15.3916C59.7976 15.4672 59.843 15.5126 59.8883 15.558C59.9488 15.6033 60.0093 15.6184 60.0849 15.6184C60.1756 15.6184 60.2663 15.5731 60.3268 15.4975C60.3873 15.4219 60.4175 15.3312 60.4175 15.2405C60.4175 15.1951 60.4024 15.1497 60.3873 15.0741L58.9509 11.0524ZM59.1928 13.6832H57.8775L58.5276 11.8083L59.1928 13.6832Z" fill="white"/>
<path opacity="0.3" d="M65.1804 10.7192H64.999C64.9083 10.7192 64.8175 10.7495 64.7419 10.8251C64.6663 10.8856 64.621 10.9611 64.5756 11.0519L63.3661 14.6352L62.1565 11.0519C62.1263 10.9611 62.0658 10.8856 61.9902 10.8251C61.9146 10.7646 61.8239 10.7192 61.7332 10.7192H61.5517C61.4308 10.7192 61.325 10.7797 61.2342 10.8704C61.1586 10.9763 61.1133 11.0972 61.1133 11.2333V15.2399C61.1133 15.3458 61.1435 15.4365 61.204 15.497C61.2645 15.5726 61.3552 15.6179 61.4459 15.6179C61.5366 15.6179 61.6273 15.5726 61.6878 15.5121C61.7483 15.4365 61.7785 15.3458 61.7785 15.2551V11.8986L62.9427 15.2853C62.973 15.3911 63.0335 15.4667 63.109 15.5272C63.2602 15.6482 63.4719 15.6482 63.6382 15.5272C63.7138 15.4667 63.7743 15.3911 63.8045 15.2853L64.9687 11.8986V15.2399C64.9687 15.3458 64.999 15.4365 65.0595 15.497C65.1199 15.5726 65.2106 15.6028 65.3014 15.6028C65.3921 15.6028 65.4828 15.5575 65.5433 15.4819C65.6038 15.4063 65.634 15.3155 65.634 15.2248V11.2484C65.634 11.1123 65.5886 10.9914 65.513 10.8856C65.4072 10.7797 65.3014 10.7192 65.1804 10.7192Z" fill="white"/>
<path opacity="0.3" d="M69.1562 11.4757C69.2469 11.4757 69.3225 11.4455 69.383 11.3699C69.4435 11.3094 69.4737 11.2187 69.4737 11.1129C69.4737 11.007 69.4435 10.9314 69.383 10.8558C69.3225 10.7802 69.2469 10.75 69.1562 10.75H66.8883C66.7976 10.75 66.7069 10.7954 66.6464 10.871C66.5859 10.9466 66.5557 11.0373 66.5557 11.1431V15.2102C66.5557 15.3161 66.5859 15.4068 66.6464 15.4673C66.7069 15.5429 66.7976 15.5882 66.8883 15.5882H69.1562C69.2469 15.5882 69.3225 15.558 69.383 15.4824C69.4435 15.4219 69.4737 15.3312 69.4737 15.2254C69.4737 15.1195 69.4435 15.0439 69.383 14.9683C69.3225 14.8927 69.2469 14.8625 69.1562 14.8625H67.2209V13.532H68.9445C69.0353 13.532 69.1109 13.5017 69.1713 13.4261C69.2318 13.3657 69.262 13.2749 69.262 13.1691C69.262 13.0784 69.2318 12.9877 69.1713 12.9121C69.1109 12.8365 69.0353 12.8062 68.9445 12.8062H67.2209V11.4757H69.1562Z" fill="white"/>
<path opacity="0.3" d="M74.2363 11.1129C73.9188 10.871 73.5408 10.7651 73.1023 10.7651H71.9684C71.8777 10.7651 71.7869 10.8105 71.7265 10.8861C71.666 10.9617 71.6357 11.0524 71.6357 11.1582V15.2254C71.6357 15.3312 71.666 15.4219 71.7265 15.4824C71.7869 15.558 71.8777 15.6034 71.9684 15.6034H73.1023C73.5408 15.6034 73.9339 15.4824 74.2363 15.2556C74.5387 15.0288 74.7806 14.7113 74.9318 14.3484C75.083 13.9856 75.1586 13.5925 75.1586 13.1994C75.1586 12.7911 75.083 12.4132 74.9318 12.0503C74.7806 11.6572 74.5538 11.3397 74.2363 11.1129ZM74.5084 13.1691C74.5084 13.5018 74.448 13.8041 74.327 14.0612C74.206 14.3182 74.0397 14.5148 73.8129 14.6508C73.5861 14.7869 73.3291 14.8625 73.0419 14.8625H72.301V11.4758H73.0419C73.3291 11.4758 73.6013 11.5513 73.8129 11.6874C74.0397 11.8235 74.206 12.0352 74.327 12.2771C74.448 12.5341 74.5084 12.8365 74.5084 13.1691Z" fill="white"/>
<path opacity="0.3" d="M78.621 11.4757C78.7118 11.4757 78.7874 11.4455 78.8478 11.3699C78.9083 11.3094 78.9386 11.2187 78.9386 11.1129C78.9386 11.007 78.9083 10.9314 78.8478 10.8558C78.7874 10.7802 78.7118 10.75 78.621 10.75H76.3531C76.2624 10.75 76.1717 10.7954 76.1112 10.871C76.0507 10.9466 76.0205 11.0373 76.0205 11.1431V15.2102C76.0205 15.3161 76.0507 15.4068 76.1112 15.4673C76.1717 15.5429 76.2624 15.5882 76.3531 15.5882H78.621C78.7118 15.5882 78.7874 15.558 78.8478 15.4824C78.9083 15.4219 78.9386 15.3312 78.9386 15.2254C78.9386 15.1195 78.9083 15.0439 78.8478 14.9683C78.7874 14.8927 78.7118 14.8625 78.621 14.8625H76.6858V13.532H78.4094C78.5001 13.532 78.5757 13.5017 78.6362 13.4261C78.6966 13.3657 78.7269 13.2749 78.7269 13.1691C78.7269 13.0784 78.6966 12.9877 78.6362 12.9121C78.5757 12.8365 78.5001 12.8062 78.4094 12.8062H76.6858V11.4757H78.621Z" fill="white"/>
<path opacity="0.3" d="M82.537 10.7192C82.4614 10.7192 82.401 10.7495 82.3405 10.7948C82.2951 10.8402 82.2498 10.9007 82.2195 10.9763L80.9646 14.6956L79.7097 10.9763C79.6795 10.9007 79.6492 10.8402 79.5888 10.7948C79.5283 10.7495 79.4678 10.7192 79.3922 10.7192C79.2864 10.7192 79.2108 10.7646 79.1503 10.8251C79.0898 10.9007 79.0596 10.9914 79.0596 11.0972C79.0596 11.1426 79.0596 11.1879 79.0747 11.2333L80.4657 15.2399C80.5564 15.4819 80.6925 15.6028 80.889 15.6028H81.01C81.1914 15.6028 81.3426 15.4819 81.4333 15.2399L82.8243 11.2182C82.8394 11.1728 82.8394 11.1275 82.8394 11.0821C82.8394 10.9763 82.8092 10.8856 82.7487 10.81C82.7336 10.7646 82.6429 10.7192 82.537 10.7192Z" fill="white"/>
<path opacity="0.3" d="M85.999 11.4757C86.0897 11.4757 86.1653 11.4455 86.2258 11.3699C86.2863 11.3094 86.3165 11.2187 86.3165 11.1129C86.3165 11.007 86.2863 10.9314 86.2258 10.8558C86.1653 10.7802 86.0897 10.75 85.999 10.75H83.7311C83.6404 10.75 83.5496 10.7954 83.4892 10.871C83.4287 10.9466 83.3984 11.0373 83.3984 11.1431V15.2102C83.3984 15.3161 83.4287 15.4068 83.4892 15.4673C83.5496 15.5429 83.6404 15.5882 83.7311 15.5882H85.999C86.0897 15.5882 86.1653 15.558 86.2258 15.4824C86.2863 15.4219 86.3165 15.3312 86.3165 15.2254C86.3165 15.1195 86.2863 15.0439 86.2258 14.9683C86.1653 14.8927 86.0897 14.8625 85.999 14.8625H84.0637V13.532H85.7873C85.878 13.532 85.9536 13.5017 86.0141 13.4261C86.0746 13.3657 86.1048 13.2749 86.1048 13.1691C86.1048 13.0784 86.0746 12.9877 86.0141 12.9121C85.9536 12.8365 85.878 12.8062 85.7873 12.8062H84.0637V11.4757H85.999Z" fill="white"/>
<path opacity="0.3" d="M89.4469 14.8317H87.678V11.1123C87.678 11.0065 87.6477 10.9158 87.5872 10.8402C87.5268 10.7646 87.436 10.7192 87.3453 10.7192C87.2546 10.7192 87.1639 10.7646 87.1034 10.8402C87.0429 10.9158 87.0127 11.0065 87.0127 11.1123V15.0888C87.0127 15.2248 87.0581 15.3458 87.1337 15.4365C87.2244 15.5423 87.3151 15.5877 87.436 15.5877H89.4469C89.5376 15.5877 89.6284 15.5423 89.6888 15.4819C89.7493 15.4063 89.7796 15.3155 89.7796 15.2248C89.7796 15.119 89.7493 15.0283 89.6888 14.9527C89.6284 14.862 89.5376 14.8317 89.4469 14.8317Z" fill="white"/>
<path opacity="0.3" d="M93.0145 11.0065C92.7121 10.7948 92.3492 10.689 91.941 10.689C91.5328 10.689 91.1699 10.7948 90.8524 11.0065C90.55 11.2181 90.3081 11.5205 90.1418 11.8834C89.9755 12.2463 89.8848 12.6847 89.8848 13.1686C89.8999 13.6524 89.9755 14.0757 90.1418 14.4386C90.3081 14.8166 90.55 15.1038 90.8524 15.3155C91.1548 15.5272 91.5328 15.633 91.941 15.633C92.3492 15.633 92.7121 15.5272 93.0145 15.3155C93.3169 15.1038 93.5588 14.8015 93.7251 14.4235C93.8914 14.0455 93.9821 13.6221 93.9821 13.1534C93.967 12.6847 93.8914 12.2463 93.7251 11.8834C93.5588 11.5205 93.3169 11.2333 93.0145 11.0065ZM91.9259 14.9375C91.6386 14.9375 91.3816 14.8619 91.185 14.7107C90.9734 14.5595 90.8222 14.3479 90.7012 14.0908C90.5954 13.8187 90.5349 13.5163 90.5349 13.1837C90.5349 12.851 90.5954 12.5487 90.7012 12.2765C90.8071 12.0195 90.9734 11.8078 91.185 11.6566C91.3967 11.5054 91.6386 11.4298 91.9259 11.4298C92.2132 11.4298 92.4551 11.5054 92.6667 11.6566C92.8784 11.8078 93.0447 12.0195 93.1506 12.2765C93.2564 12.5487 93.3169 12.851 93.3169 13.1837C93.3169 13.5163 93.2564 13.8187 93.1506 14.0908C93.0447 14.3479 92.8784 14.5595 92.6667 14.7107C92.4702 14.8619 92.2132 14.9375 91.9259 14.9375Z" fill="white"/>
<path opacity="0.3" d="M97.2334 10.9919C96.9915 10.8407 96.6891 10.7651 96.3111 10.7651H95.026C94.9353 10.7651 94.8446 10.8105 94.7841 10.8861C94.7236 10.9617 94.6934 11.0524 94.6934 11.1582V15.2556C94.6934 15.3614 94.7236 15.4522 94.7841 15.5126C94.8446 15.5882 94.9353 15.6336 95.026 15.6336C95.1167 15.6336 95.2074 15.5882 95.2679 15.5278C95.3284 15.4522 95.3586 15.3614 95.3586 15.2707V13.91H96.3111C96.6891 13.91 96.9915 13.8344 97.2334 13.6832C97.4753 13.532 97.6416 13.3354 97.7475 13.0935C97.8533 12.8667 97.8987 12.6097 97.8987 12.3376C97.8987 12.0654 97.8533 11.8084 97.7475 11.5816C97.6416 11.3246 97.4753 11.1431 97.2334 10.9919ZM97.2334 12.3224C97.2334 12.5643 97.1578 12.7609 97.0217 12.9272C96.8857 13.0784 96.6286 13.1691 96.2658 13.1691H95.3586V11.4909H96.2658C96.6286 11.4909 96.8857 11.5665 97.0217 11.7328C97.1578 11.884 97.2334 12.0805 97.2334 12.3224Z" fill="white"/>
<path opacity="0.3" d="M102.57 10.7192H102.389C102.298 10.7192 102.207 10.7495 102.132 10.8251C102.056 10.8856 102.011 10.9611 101.965 11.0519L100.756 14.6352L99.5462 11.0519C99.5159 10.9611 99.4555 10.8856 99.3799 10.8251C99.3043 10.7646 99.2135 10.7192 99.1228 10.7192H98.9414C98.8204 10.7192 98.7146 10.7797 98.6239 10.8704C98.5483 10.9763 98.5029 11.0972 98.5029 11.2333V15.2399C98.5029 15.3458 98.5332 15.4365 98.5937 15.497C98.6541 15.5726 98.7448 15.6179 98.8356 15.6179C98.9263 15.6179 99.017 15.5726 99.0775 15.5121C99.138 15.4365 99.1682 15.3458 99.1682 15.2551V11.8986L100.332 15.2853C100.363 15.3911 100.423 15.4667 100.499 15.5272C100.65 15.6482 100.862 15.6482 101.028 15.5272C101.103 15.4667 101.164 15.3911 101.194 15.2853L102.358 11.8986V15.2399C102.358 15.3458 102.389 15.4365 102.449 15.497C102.51 15.5726 102.6 15.6028 102.691 15.6028C102.782 15.6028 102.872 15.5575 102.933 15.4819C102.993 15.4063 103.024 15.3155 103.024 15.2248V11.2484C103.024 11.1123 102.978 10.9914 102.903 10.8856C102.797 10.7797 102.691 10.7192 102.57 10.7192Z" fill="white"/>
<path opacity="0.3" d="M106.547 11.4757C106.638 11.4757 106.713 11.4455 106.774 11.3699C106.834 11.3094 106.864 11.2187 106.864 11.1129C106.864 11.007 106.834 10.9314 106.774 10.8558C106.713 10.7802 106.638 10.75 106.547 10.75H104.279C104.188 10.75 104.097 10.7954 104.037 10.871C103.977 10.9466 103.946 11.0373 103.946 11.1431V15.2102C103.946 15.3161 103.977 15.4068 104.037 15.4673C104.097 15.5429 104.188 15.5882 104.279 15.5882H106.547C106.638 15.5882 106.713 15.558 106.774 15.4824C106.834 15.4219 106.864 15.3312 106.864 15.2254C106.864 15.1195 106.834 15.0439 106.774 14.9683C106.713 14.8927 106.638 14.8625 106.547 14.8625H104.612V13.532H106.35C106.441 13.532 106.517 13.5017 106.577 13.4261C106.638 13.3657 106.668 13.2749 106.668 13.1691C106.668 13.0784 106.638 12.9877 106.577 12.9121C106.517 12.8365 106.441 12.8062 106.35 12.8062H104.627V11.4757H106.547Z" fill="white"/>
<path opacity="0.3" d="M110.659 10.7192C110.569 10.7192 110.478 10.7646 110.417 10.8402C110.357 10.9158 110.327 11.0065 110.327 11.1123V14.4537L108.286 10.9611C108.18 10.81 108.059 10.7192 107.908 10.7192H107.832C107.711 10.7192 107.605 10.7797 107.515 10.8704C107.439 10.9763 107.394 11.0972 107.394 11.2333V15.2399C107.394 15.3458 107.424 15.4365 107.484 15.497C107.545 15.5726 107.635 15.6179 107.726 15.6179C107.817 15.6179 107.908 15.5726 107.968 15.5121C108.029 15.4365 108.059 15.3458 108.059 15.2551V11.8986L110.1 15.4063C110.145 15.4667 110.191 15.5272 110.251 15.5575C110.312 15.6028 110.387 15.6179 110.463 15.6179H110.523C110.644 15.6179 110.75 15.5726 110.841 15.4667C110.932 15.3609 110.977 15.2551 110.977 15.1039V11.1123C110.977 11.0065 110.947 10.9158 110.886 10.8402C110.841 10.7646 110.75 10.7192 110.659 10.7192Z" fill="white"/>
<path opacity="0.3" d="M114.439 10.7651H111.627C111.536 10.7651 111.461 10.8105 111.4 10.871C111.34 10.9466 111.31 11.0222 111.31 11.128C111.31 11.2338 111.34 11.3094 111.4 11.385C111.461 11.4606 111.536 11.4909 111.627 11.4909H112.701V15.2556C112.701 15.3614 112.731 15.4522 112.791 15.5126C112.852 15.5882 112.942 15.6336 113.033 15.6336C113.124 15.6336 113.215 15.5882 113.275 15.5278C113.336 15.4522 113.366 15.3614 113.366 15.2707V11.4758H114.439C114.53 11.4758 114.606 11.4455 114.666 11.3699C114.727 11.3094 114.757 11.2187 114.757 11.1129C114.757 11.007 114.727 10.9315 114.666 10.8559C114.606 10.7954 114.53 10.7651 114.439 10.7651Z" fill="white"/>
<path opacity="0.3" d="M119.126 13.0783C118.944 12.9876 118.687 12.912 118.4 12.8213C118.173 12.7608 117.992 12.7003 117.871 12.6398C117.75 12.5945 117.644 12.5189 117.568 12.4282C117.493 12.3375 117.447 12.2316 117.447 12.0804C117.447 11.8688 117.523 11.7024 117.689 11.5815C117.856 11.4605 118.098 11.4 118.37 11.4C118.672 11.4 118.975 11.4605 119.247 11.5664C119.292 11.5966 119.337 11.5966 119.368 11.5966C119.458 11.5966 119.534 11.5512 119.594 11.4756C119.64 11.4 119.67 11.3245 119.67 11.2337C119.67 11.0221 119.564 10.9313 119.473 10.9011C119.126 10.7499 118.748 10.6743 118.324 10.6743C118.007 10.6743 117.72 10.7348 117.493 10.8709C117.266 11.0069 117.085 11.1733 116.964 11.4C116.843 11.6117 116.782 11.8688 116.782 12.1258C116.782 12.4282 116.858 12.6852 117.009 12.8666C117.145 13.0481 117.327 13.1841 117.523 13.2749C117.72 13.3656 117.962 13.4563 118.279 13.547C118.506 13.6226 118.687 13.6831 118.808 13.7284C118.929 13.7738 119.02 13.8343 119.095 13.925C119.171 14.0006 119.201 14.0913 119.201 14.2123C119.201 14.681 118.899 14.9078 118.294 14.9078C117.916 14.9078 117.553 14.817 117.221 14.6356C117.1 14.5751 116.933 14.6054 116.858 14.7112C116.797 14.7868 116.782 14.8624 116.782 14.9531C116.782 15.0287 116.797 15.0892 116.843 15.1497C116.873 15.2101 116.933 15.2555 116.994 15.2857C117.417 15.4974 117.886 15.6184 118.37 15.6184C118.672 15.6184 118.929 15.5579 119.156 15.4369C119.383 15.316 119.564 15.1497 119.7 14.938C119.821 14.7263 119.897 14.4844 119.897 14.2274C119.897 13.9099 119.821 13.6528 119.685 13.4563C119.489 13.3202 119.322 13.169 119.126 13.0783Z" fill="white"/>
<path opacity="0.3" d="M122.921 10.7651H120.109C120.018 10.7651 119.942 10.8105 119.882 10.871C119.821 10.9466 119.791 11.0222 119.791 11.128C119.791 11.2338 119.821 11.3094 119.882 11.385C119.942 11.4606 120.018 11.4909 120.109 11.4909H121.182V15.2556C121.182 15.3614 121.212 15.4522 121.273 15.5126C121.333 15.5882 121.424 15.6336 121.515 15.6336C121.605 15.6336 121.696 15.5882 121.757 15.5278C121.817 15.4522 121.847 15.3614 121.847 15.2707V11.4758H122.921C123.011 11.4758 123.087 11.4455 123.148 11.3699C123.208 11.3094 123.238 11.2187 123.238 11.1129C123.238 11.007 123.208 10.9315 123.148 10.8559C123.087 10.7954 123.011 10.7651 122.921 10.7651Z" fill="white"/>
<path opacity="0.3" d="M126.746 10.7192C126.655 10.7192 126.565 10.7646 126.504 10.8402C126.444 10.9158 126.413 11.0065 126.413 11.1123V13.7734C126.413 14.0304 126.368 14.2421 126.262 14.4235C126.171 14.6049 126.035 14.7259 125.884 14.8166C125.567 14.998 125.189 14.998 124.871 14.8166C124.72 14.7259 124.584 14.6049 124.493 14.4235C124.402 14.2421 124.342 14.0304 124.342 13.7734V11.1123C124.342 11.0065 124.312 10.9158 124.251 10.8402C124.191 10.7646 124.1 10.7192 124.009 10.7192C123.919 10.7192 123.828 10.7646 123.767 10.8402C123.707 10.9158 123.677 11.0065 123.677 11.1123V13.7582C123.677 14.1665 123.767 14.5142 123.919 14.8015C124.085 15.0888 124.297 15.3004 124.554 15.4365C124.811 15.5726 125.083 15.6482 125.37 15.6482C125.642 15.6482 125.914 15.5726 126.187 15.4365C126.444 15.3004 126.655 15.0736 126.822 14.8015C126.988 14.5142 127.064 14.1665 127.064 13.7582V11.1123C127.064 11.0065 127.033 10.9158 126.973 10.8402C126.912 10.7646 126.837 10.7192 126.746 10.7192Z" fill="white"/>
<path opacity="0.3" d="M130.45 11.1129C130.133 10.871 129.755 10.7651 129.316 10.7651H128.182C128.092 10.7651 128.001 10.8105 127.94 10.8861C127.88 10.9617 127.85 11.0524 127.85 11.1582V15.2254C127.85 15.3312 127.88 15.4219 127.94 15.4824C128.001 15.558 128.092 15.6034 128.182 15.6034H129.316C129.755 15.6034 130.148 15.4824 130.45 15.2556C130.753 15.0288 130.994 14.7113 131.146 14.3484C131.297 13.9856 131.372 13.5925 131.372 13.1994C131.372 12.7911 131.297 12.4132 131.146 12.0503C130.994 11.6572 130.753 11.3397 130.45 11.1129ZM130.722 13.1691C130.722 13.5018 130.662 13.8041 130.541 14.0612C130.42 14.3182 130.254 14.5148 130.027 14.6508C129.8 14.7869 129.543 14.8625 129.256 14.8625H128.515V11.4758H129.256C129.543 11.4758 129.815 11.5513 130.027 11.6874C130.254 11.8235 130.42 12.0352 130.541 12.2771C130.662 12.5341 130.722 12.8365 130.722 13.1691Z" fill="white"/>
<path opacity="0.3" d="M132.567 10.7192C132.476 10.7192 132.386 10.7646 132.325 10.8402C132.265 10.9158 132.234 11.0065 132.234 11.1123V15.2399C132.234 15.3458 132.265 15.4365 132.325 15.497C132.386 15.5726 132.476 15.6179 132.567 15.6179C132.658 15.6179 132.748 15.5726 132.809 15.5121C132.869 15.4365 132.9 15.3458 132.9 15.2551V11.1123C132.9 11.0065 132.869 10.9158 132.809 10.8402C132.748 10.7646 132.658 10.7192 132.567 10.7192Z" fill="white"/>
<path opacity="0.3" d="M137.466 11.8985C137.3 11.5205 137.058 11.2333 136.756 11.0065C136.453 10.7948 136.09 10.689 135.682 10.689C135.274 10.689 134.911 10.7948 134.594 11.0065C134.291 11.2181 134.049 11.5205 133.883 11.8834C133.717 12.2463 133.626 12.6847 133.626 13.1686C133.641 13.6524 133.717 14.0757 133.883 14.4386C134.049 14.8166 134.291 15.1038 134.594 15.3155C134.896 15.5272 135.274 15.633 135.682 15.633C136.09 15.633 136.453 15.5272 136.756 15.3155C137.058 15.1038 137.3 14.8015 137.466 14.4235C137.633 14.0455 137.723 13.6221 137.723 13.1534C137.723 12.6999 137.633 12.2765 137.466 11.8985ZM135.667 14.9375C135.38 14.9375 135.123 14.8619 134.926 14.7107C134.715 14.5595 134.563 14.3479 134.442 14.0908C134.337 13.8187 134.276 13.5163 134.276 13.1837C134.276 12.851 134.337 12.5487 134.442 12.2765C134.548 12.0195 134.715 11.8078 134.926 11.6566C135.138 11.5054 135.38 11.4298 135.667 11.4298C135.954 11.4298 136.196 11.5054 136.408 11.6566C136.62 11.8078 136.786 12.0195 136.892 12.2765C136.998 12.5487 137.058 12.851 137.058 13.1837C137.058 13.5163 136.998 13.8187 136.892 14.0908C136.786 14.3479 136.62 14.5595 136.408 14.7107C136.196 14.8619 135.954 14.9375 135.667 14.9375Z" fill="white"/>
</g>
</svg>
