<svg width="75" height="34" viewBox="0 0 75 34" fill="none" xmlns="http://www.w3.org/2000/svg">
<g opacity="0.5">
<path d="M64.1763 13.1945C60.4985 13.4224 62.1499 18.1966 66.2158 17.9446C70.1931 17.6981 68.0948 12.9518 64.1763 13.1945Z" fill="white"/>
<path d="M62.6243 10.2461C60.2808 10.2461 57.9899 10.9387 56.0414 12.2364C54.0928 13.5341 52.5741 15.3786 51.6773 17.5366C50.7805 19.6945 50.5459 22.0691 51.0031 24.36C51.4603 26.6509 52.5888 28.7553 54.2458 30.4069C55.9029 32.0586 58.0142 33.1833 60.3127 33.639C62.6111 34.0947 64.9935 33.8608 67.1586 32.967C69.3237 32.0731 71.1743 30.5594 72.4762 28.6173C73.7782 26.6751 74.4731 24.3918 74.4731 22.056C74.4731 18.9238 73.2248 15.9199 71.0027 13.7051C68.7806 11.4904 65.7668 10.2461 62.6243 10.2461ZM62.6243 32.6282C60.5268 32.6286 58.4764 32.009 56.7323 30.8479C54.9882 29.6867 53.6288 28.0361 52.8259 26.1048C52.023 24.1736 51.8127 22.0484 52.2217 19.998C52.6306 17.9476 53.6404 16.0641 55.1234 14.5858C56.6063 13.1074 58.4958 12.1006 60.5529 11.6926C62.61 11.2846 64.7422 11.4938 66.68 12.2938C68.6178 13.0937 70.2741 14.4484 71.4394 16.1866C72.6047 17.9247 73.2267 19.9683 73.2267 22.0588C73.2267 24.8617 72.1097 27.5498 70.1214 29.5319C68.1331 31.514 65.4364 32.6277 62.6243 32.6282Z" fill="white"/>
<path d="M62.2671 2.00118C59.4541 4.12046 59.943 7.37051 59.943 7.37051C59.943 7.37051 58.175 2.79626 55.8789 0C55.5692 3.5997 56.7009 8.36924 56.7009 8.36924C56.7009 8.36924 55.2632 5.41211 51.7402 5.24658C54.6623 6.92043 55.7959 9.93615 56.0553 10.7452C57.7966 9.67381 59.7881 9.07319 61.8332 9.00251C61.6028 8.24928 60.7836 5.07548 62.2671 2.00118Z" fill="white"/>
<path d="M1.48598 23.213V25.6847H0.454102V19.3167H2.62608C3.36251 19.3167 3.91608 19.4912 4.28679 19.8402C4.65749 20.1892 4.84409 20.6672 4.84658 21.2741C4.84658 21.8761 4.65656 22.3497 4.27653 22.695C3.89649 23.0403 3.34759 23.213 2.62981 23.213H1.48598ZM3.79324 21.2741C3.79324 20.9133 3.69217 20.6381 3.49002 20.4484C3.28788 20.2587 2.96382 20.1641 2.51786 20.1647H1.48598V22.3742H2.51786C3.36749 22.3742 3.79262 22.0075 3.79324 21.2741Z" fill="white"/>
<path d="M9.10585 25.6847L7.51325 23.1414H6.77992V25.6847H5.74805V19.3167H8.00213C8.73172 19.3167 9.28529 19.494 9.66283 19.8486C10.0404 20.2032 10.2288 20.6725 10.2282 21.2565C10.2282 21.7524 10.088 22.1613 9.80745 22.483C9.52693 22.8048 9.12264 23.009 8.59457 23.0958L10.2739 25.6847H9.10585ZM6.77992 22.4105H7.91816C8.75162 22.4105 9.16804 22.0438 9.16742 21.3104C9.16742 20.962 9.06635 20.6898 8.8642 20.4939C8.66175 20.2986 8.34733 20.201 7.91816 20.201H6.77992V22.4105Z" fill="white"/>
<path d="M14.9705 24.3051H12.2733L11.7844 25.6851H10.6807L13.0336 19.4165H14.2195L16.5631 25.6851H15.4585L14.9705 24.3051ZM14.6804 23.5119L13.6214 20.5361L12.5625 23.5119H14.6804Z" fill="white"/>
<path d="M21.7757 19.822C22.2822 20.1949 22.6386 20.7357 22.7806 21.3471H21.6946C21.5593 21.0083 21.3199 20.7209 21.0107 20.526C20.6737 20.3157 20.282 20.209 19.8846 20.2191C19.5081 20.213 19.1371 20.3094 18.8117 20.4981C18.4932 20.6861 18.2358 20.9615 18.0699 21.2913C17.8855 21.6684 17.7955 22.0845 17.8078 22.5039C17.7957 22.9377 17.8888 23.3681 18.0793 23.7584C18.2482 24.0945 18.5143 24.3724 18.8434 24.5562C19.1944 24.7463 19.5888 24.8424 19.9882 24.8352C20.4895 24.8439 20.9761 24.6662 21.3531 24.3368C21.7325 24.0094 21.9617 23.56 22.0407 22.9884H19.6943V22.2305H22.9065V23.2134C22.8388 23.6715 22.6671 24.1082 22.4046 24.4902C22.1383 24.8758 21.7811 25.1903 21.3643 25.4062C20.907 25.6402 20.3986 25.7578 19.8846 25.7484C19.308 25.7602 18.7388 25.6169 18.2369 25.3336C17.7663 25.0633 17.3832 24.6641 17.1332 24.1833C16.8772 23.6593 16.7441 23.084 16.7441 22.5011C16.7441 21.9182 16.8772 21.343 17.1332 20.8189C17.3822 20.3401 17.7636 19.9425 18.2323 19.6732C18.7334 19.3929 19.3007 19.2513 19.8753 19.2631C20.636 19.2631 21.2694 19.4494 21.7757 19.822Z" fill="white"/>
<path d="M30.1915 19.4165V25.6851H29.1503V20.9862L27.332 25.6851H26.427L24.5983 20.9862V25.6851H23.5674V19.4165H24.8157L26.8972 24.4222L28.9423 19.4165H30.1915Z" fill="white"/>
<path d="M35.2411 24.3051H32.5485L32.0596 25.6851H30.9521L33.3051 19.4165H34.49L36.8346 25.6851H35.7299L35.2411 24.3051ZM34.9518 23.5119L33.8929 20.5361L32.834 23.5119H34.9518Z" fill="white"/>
<path d="M41.2511 19.3167V20.1461H39.4682V25.6847H38.427V20.1461H36.6543V19.3167H41.2511Z" fill="white"/>
<path d="M42.8337 19.3167V25.6847H41.8027V19.3167H42.8337Z" fill="white"/>
<path d="M48.6711 19.8491C49.1946 20.2533 49.5647 20.8229 49.7207 21.4643H48.6254C48.4855 21.0927 48.2344 20.7729 47.9061 20.5484C47.5478 20.3144 47.1259 20.1962 46.6979 20.2099C46.3388 20.2042 45.9856 20.301 45.68 20.4889C45.3744 20.6838 45.1297 20.9602 44.9737 21.2867C44.8039 21.6673 44.7162 22.0791 44.7162 22.4956C44.7162 22.9121 44.8039 23.3239 44.9737 23.7045C45.1294 24.0314 45.3741 24.3082 45.68 24.5033C45.9856 24.6912 46.3388 24.788 46.6979 24.7823C47.1258 24.7962 47.5477 24.6784 47.9061 24.4447C48.2326 24.2223 48.4835 23.9061 48.6254 23.5381H49.7207C49.5656 24.1784 49.1952 24.7465 48.6711 25.1477C48.1524 25.542 47.5008 25.7392 46.7165 25.7392C46.155 25.7498 45.6012 25.6077 45.1146 25.3281C44.6525 25.0575 44.2787 24.6597 44.0379 24.1825C43.7873 23.6569 43.6572 23.0822 43.6572 22.5003C43.6572 21.9183 43.7873 21.3437 44.0379 20.818C44.2796 20.3402 44.6531 19.9412 45.1146 19.6677C45.6003 19.3858 46.1545 19.2423 46.7165 19.253C47.5002 19.2536 48.1517 19.4523 48.6711 19.8491Z" fill="white"/>
<path d="M54.5886 23.213V25.6847H53.5576V19.3167H55.7296C56.4648 19.3167 57.0184 19.4912 57.3903 19.8402C57.7623 20.1892 57.9489 20.6672 57.9501 21.2741C57.9501 21.8761 57.7601 22.3497 57.38 22.695C57 23.0403 56.4511 23.213 55.7333 23.213H54.5886ZM56.8996 21.2741C56.8996 20.9133 56.7985 20.6381 56.5963 20.4484C56.3942 20.2587 56.0698 20.1641 55.6232 20.1647H54.5886V22.3742H55.6204C56.4732 22.3742 56.8996 22.0075 56.8996 21.2741Z" fill="white"/>
<path d="M59.7194 24.8822H61.9277V25.6847H58.6875V19.3167H59.7194V24.8822Z" fill="white"/>
<path d="M66.6522 24.3051H63.9558L63.467 25.6851H62.3623L64.7162 19.4165H65.9011L68.2457 25.6851H67.141L66.6522 24.3051ZM66.3629 23.5119L65.304 20.5361L64.2451 23.5119H66.3629Z" fill="white"/>
<path d="M72.3872 19.3167L70.2609 23.3664V25.6847H69.2225V23.3664L67.0869 19.3167H68.2821L69.7487 22.2663L71.2144 19.3167H72.3872Z" fill="white"/>
</g>
</svg>
