<svg width="114" height="29" viewBox="0 0 114 29" fill="none" xmlns="http://www.w3.org/2000/svg">
<g opacity="0.5">
<path d="M6.12842 14.3144L14.8309 5.62551C14.868 5.58837 14.9423 5.58837 14.9794 5.62551L19.2471 9.89568C19.2842 9.93281 19.2842 10.0071 19.2471 10.0442L16.4452 12.8291C16.4081 12.8662 16.3339 12.8662 16.2968 12.8291L14.9794 11.5109C14.9423 11.4738 14.868 11.4738 14.8309 11.5109L12.0476 14.3144C12.0105 14.3515 12.0105 14.4258 12.0476 14.4629L14.8309 17.2478C14.868 17.2849 14.9423 17.2849 14.9794 17.2478L19.3213 12.9034L22.2717 15.8554L14.9794 23.1518C14.9423 23.1889 14.868 23.1889 14.8309 23.1518L6.12842 14.4815C6.09131 14.4258 6.09131 14.3701 6.12842 14.3144Z" fill="white"/>
<path d="M35.4645 14.4815L26.7806 23.1704C26.7435 23.2075 26.6692 23.2075 26.6321 23.1704L22.3644 18.9002C22.3273 18.8631 22.3273 18.7888 22.3644 18.7517L25.1663 15.9482C25.2034 15.9111 25.2776 15.9111 25.3147 15.9482L26.6321 17.2664C26.6692 17.3035 26.7435 17.3035 26.7806 17.2664L29.5825 14.4815C29.6196 14.4444 29.6196 14.3701 29.5825 14.333L26.7806 11.5295C26.7435 11.4924 26.6692 11.4924 26.6321 11.5295L22.2902 15.8739L19.3213 12.9219L26.6136 5.62551C26.6507 5.58837 26.7249 5.58837 26.762 5.62551L35.446 14.3144C35.5016 14.3515 35.5016 14.4258 35.4645 14.4815C35.4645 14.4629 35.4645 14.4629 35.4645 14.4815Z" fill="white"/>
<path d="M39.6582 9.58205V5.55323C39.8809 5.55323 40.5674 5.53467 40.8829 5.53467C42.1075 5.53467 42.4972 6.16591 42.4972 6.87142C42.4972 7.59549 41.9405 8.22674 41.0128 8.22674C40.92 8.22674 40.7159 8.22674 40.5674 8.20817V9.58205H39.6582ZM40.5674 6.42584V7.33557C40.6973 7.35414 40.8458 7.3727 40.9942 7.3727C41.2354 7.3727 41.5323 7.26131 41.5323 6.87142C41.5323 6.51867 41.3096 6.40727 40.9756 6.40727C40.8457 6.40727 40.753 6.40727 40.5674 6.42584Z" fill="white"/>
<path d="M45.0206 5.49561C46.2453 5.49561 47.1545 6.29394 47.1545 7.575C47.1545 8.80035 46.2453 9.65439 45.0206 9.65439C43.7959 9.65439 42.8867 8.85605 42.8867 7.575C42.8867 6.40534 43.7588 5.49561 45.0206 5.49561ZM45.0206 8.78179C45.7814 8.78179 46.171 8.24337 46.171 7.55643C46.171 6.81379 45.6515 6.33107 45.0206 6.33107C44.3526 6.33107 43.8702 6.81379 43.8702 7.55643C43.8702 8.26194 44.3897 8.78179 45.0206 8.78179Z" fill="white"/>
<path d="M51.8859 9.58008H51.0138L50.1788 6.99941L49.3438 9.58008H48.4717L47.2842 5.56982H48.3233L48.9913 8.11337L49.7335 5.56982H50.6613L51.4406 8.11337L52.1272 5.56982H53.0178L51.8859 9.58008Z" fill="white"/>
<path d="M53.5381 5.55127H55.9132V6.40531H54.4473V7.11081H55.7462V7.98342H54.4473V8.70749H55.9688V9.56152H53.5381V5.55127Z" fill="white"/>
<path d="M56.8408 9.5801V5.55128C57.0635 5.55128 58.084 5.53271 58.2139 5.53271C59.3087 5.53271 59.6984 6.07113 59.6984 6.81377C59.6984 7.55641 59.2345 7.87203 59.0304 7.96486L60.1994 9.54297H59.086L58.1026 8.13195H57.7686V9.54297H56.8408V9.5801ZM57.75 6.42388V7.31505H58.084C58.4366 7.31505 58.7149 7.18509 58.7149 6.8509C58.7149 6.62811 58.6036 6.42388 58.1583 6.42388C58.0284 6.40532 57.9541 6.40532 57.75 6.42388Z" fill="white"/>
<path d="M60.7002 5.55127H63.0753V6.40531H61.6094V7.11081H62.9083V7.98342H61.6094V8.70749H63.131V9.56152H60.7002V5.55127Z" fill="white"/>
<path d="M64.0029 5.55128H64.0772C64.2813 5.55128 65.0049 5.53271 65.2647 5.53271C66.879 5.53271 67.5099 6.46101 67.5099 7.51928C67.5099 8.6518 66.7491 9.5801 65.209 9.5801C65.0049 9.5801 64.4668 9.56154 64.0772 9.56154H64.0029V5.55128ZM64.9121 6.42388V8.72607C65.0235 8.74463 65.1163 8.74463 65.2461 8.74463C66.044 8.74463 66.545 8.31761 66.545 7.55641C66.545 6.81377 66.0069 6.42388 65.2461 6.42388C65.1534 6.40532 65.0235 6.40532 64.9121 6.42388Z" fill="white"/>
<path d="M69.4023 5.56985C69.625 5.55128 70.1817 5.53271 70.627 5.53271C71.5919 5.53271 71.9815 5.9783 71.9815 6.53528C71.9815 6.9623 71.8145 7.24079 71.5177 7.42645V7.44501C71.8145 7.55641 72.0929 7.85346 72.0929 8.35475C72.0929 9.19022 71.4434 9.59867 70.5713 9.59867C70.1817 9.59867 69.6621 9.5801 69.4209 9.56154L69.4023 5.56985ZM70.3301 6.42388V7.14796H70.627C70.8682 7.14796 71.0538 7.05513 71.0538 6.75807C71.0538 6.51671 70.8311 6.40532 70.6084 6.40532C70.4971 6.38675 70.4229 6.40532 70.3301 6.42388ZM70.3301 7.94629V8.68893C70.3858 8.7075 70.46 8.72607 70.6456 8.72607C70.9981 8.72607 71.1837 8.57754 71.1837 8.29905C71.1837 8.03912 70.9981 7.94629 70.7012 7.94629H70.3301Z" fill="white"/>
<path d="M74.7647 7.94627V9.58008H73.837V7.94627L72.4268 5.56982H73.4844L74.338 7.09224L75.1915 5.56982H76.175L74.7647 7.94627Z" fill="white"/>
<path d="M85.6195 19.2524C85.5824 19.4381 85.5453 19.6238 85.5082 19.7909C85.5082 19.8466 85.4525 19.8837 85.3968 19.8837H85.2113C85.1556 19.8837 85.1185 19.8466 85.0999 19.7909C85.0628 19.6238 85.0257 19.4567 84.9701 19.2896L83.8938 16.1334C83.8753 16.0962 83.8382 16.0591 83.8011 16.0591H81.9641C81.927 16.0591 81.8713 16.0962 81.8713 16.1334L80.8136 19.2896C80.758 19.4567 80.7023 19.6238 80.6837 19.7909C80.6652 19.8466 80.6281 19.8837 80.5724 19.8651H80.4054C80.3497 19.8651 80.3126 19.828 80.2941 19.7723C80.2755 19.6052 80.2384 19.4381 80.2013 19.271L79.3663 16.1148C79.3478 16.0777 79.3106 16.0405 79.2735 16.0405H77.1582C77.1025 16.0405 77.0469 16.0777 77.0469 16.1519C77.0469 16.1705 77.0469 16.1705 77.0469 16.1891L79.2364 23.0028C79.255 23.0399 79.2921 23.077 79.3292 23.077H81.092C81.1291 23.077 81.1662 23.0585 81.1847 23.0028L82.4094 19.8094C82.4836 19.6238 82.5393 19.4381 82.595 19.2339C82.595 19.1782 82.6506 19.141 82.6877 19.141H82.8176L82.929 19.2153C82.9661 19.401 83.0032 19.5866 83.0774 19.7537L84.3206 22.9842C84.3392 23.0213 84.3763 23.0585 84.4134 23.0585H86.306C86.3617 23.0585 86.3988 23.0213 86.3988 22.9842L88.5141 16.1705C88.5327 16.1148 88.4956 16.0591 88.4399 16.0405C88.4214 16.0405 88.4214 16.0405 88.4028 16.0405H86.4545C86.3988 16.0405 86.3617 16.0777 86.3617 16.1148L85.6195 19.2524Z" fill="white"/>
<path d="M90.0732 16.0781H92.0401C92.0958 16.0781 92.1515 16.1338 92.1515 16.1895V23.0032C92.1515 23.0589 92.0958 23.1146 92.0401 23.1146H90.0732C90.0176 23.1146 89.9619 23.0589 89.9619 23.0032V16.171C89.9619 16.1153 90.0176 16.0781 90.0732 16.0781Z" fill="white"/>
<path d="M91.1124 12.1792C90.1846 12.1792 89.7578 12.829 89.7578 13.4231C89.7578 14.3514 90.4258 14.7784 91.1124 14.7784C91.7433 14.7784 92.3556 14.3143 92.3556 13.4231C92.3741 12.7547 91.836 12.1792 91.1495 12.1792C91.1309 12.1792 91.1309 12.1792 91.1124 12.1792Z" fill="white"/>
<path d="M97.5319 18.7518C96.8453 18.5847 96.3443 18.4733 96.3443 18.1019C96.3443 17.8792 96.5856 17.6564 97.0309 17.6564C97.6803 17.6749 98.3298 17.8792 98.8864 18.2133C98.9421 18.2505 98.9978 18.2319 99.0349 18.1762L99.74 16.8395C99.7585 16.8023 99.7585 16.7466 99.7214 16.7095C99.2019 16.301 98.2927 15.874 96.901 15.874C94.897 15.874 94.1733 17.0808 94.1733 18.1205C94.1733 19.7543 95.7134 20.1256 96.8453 20.4041C97.5319 20.5712 98.0329 20.7012 98.0329 21.0725C98.0329 21.2025 97.9772 21.5181 97.3649 21.5181C96.7154 21.5181 95.7134 21.1468 95.1382 20.7383C95.1011 20.7012 95.0269 20.7197 94.9898 20.7569L94.0991 22.0008C94.062 22.0379 94.062 22.0936 94.0991 22.1308C94.5445 22.5949 95.7877 23.2819 97.1979 23.2819C99.0349 23.2819 100.204 22.3721 100.204 20.9425C100.185 19.383 98.6452 19.0117 97.5319 18.7518Z" fill="white"/>
<path d="M104.955 18.7518C104.268 18.5847 103.767 18.4733 103.767 18.1019C103.767 17.8792 104.008 17.6564 104.454 17.6564C105.103 17.6749 105.753 17.8792 106.309 18.2133C106.365 18.2505 106.421 18.2319 106.458 18.1762L107.163 16.8395C107.181 16.8023 107.181 16.7466 107.126 16.7095C106.606 16.301 105.697 15.874 104.305 15.874C102.301 15.874 101.578 17.0808 101.578 18.1205C101.578 19.7543 103.118 20.1256 104.231 20.4041C104.918 20.5712 105.419 20.7012 105.419 21.0725C105.419 21.2025 105.363 21.5181 104.751 21.5181C104.101 21.5181 103.099 21.1468 102.524 20.7383C102.487 20.7012 102.413 20.7197 102.376 20.7569L101.485 22.0008C101.448 22.0379 101.448 22.0936 101.485 22.1308C101.93 22.5949 103.173 23.2819 104.584 23.2819C106.421 23.2819 107.59 22.3721 107.59 20.9425C107.608 19.383 106.068 19.0117 104.955 18.7518Z" fill="white"/>
<path d="M43.9811 16.6719C42.9977 16.2078 42.1441 15.8179 42.1441 14.9638C42.1441 14.3697 42.6266 13.9984 43.4059 13.9984C43.9997 13.9798 44.5934 14.2026 45.0202 14.6111C45.0573 14.6482 45.1316 14.6482 45.1687 14.6111L46.3005 13.033C46.3377 12.9958 46.3191 12.9216 46.282 12.8844C45.5583 12.1975 44.4636 11.8076 43.1832 11.8076C40.8638 11.8076 39.6577 13.3857 39.6577 14.9453C39.6577 17.0432 41.2906 17.823 42.608 18.4728C43.5543 18.937 44.3708 19.3268 44.3708 20.0881C44.3708 20.7007 43.9069 21.0906 43.1832 21.0906C42.2926 21.072 41.439 20.7007 40.8267 20.0509C40.7896 20.0138 40.7154 19.9952 40.6783 20.0324C40.6783 20.0324 40.6783 20.0324 40.6597 20.0509L39.4536 21.4991C39.4165 21.5362 39.4165 21.5733 39.435 21.6105C40.0288 22.6873 41.6988 23.2628 43.0905 23.2628C45.2614 23.2628 46.8387 21.9075 46.8387 20.0509C46.8572 17.9901 45.3357 17.2846 43.9811 16.6719Z" fill="white"/>
<path d="M52.2013 15.874C49.8633 15.874 48.2861 17.3593 48.2861 19.5872C48.2861 21.8151 49.8633 23.3004 52.2013 23.3004C54.5393 23.3004 56.1165 21.8151 56.1165 19.5872C56.1165 17.3593 54.5393 15.874 52.2013 15.874ZM52.2013 21.2767C51.2921 21.2767 50.6241 20.5712 50.6241 19.5872C50.6241 18.4733 51.422 17.8977 52.2013 17.8977C53.1105 17.8977 53.7785 18.6032 53.7785 19.5872C53.7785 20.6084 53.1291 21.2767 52.2013 21.2767Z" fill="white"/>
<path d="M57.7305 14.7601V22.9848C57.7305 23.0405 57.7676 23.0962 57.8232 23.0962H59.7901C59.8458 23.0962 59.9015 23.0405 59.9015 22.9848V18.1948C59.9015 18.1391 59.9386 18.0834 59.9942 18.0834H61.3117C61.3673 18.0834 61.423 18.0277 61.423 17.972V16.1711C61.423 16.1154 61.3673 16.0597 61.3117 16.0597H59.9942C59.9386 16.0597 59.9014 16.0226 59.8829 15.9483V14.89C59.8829 14.166 60.2911 13.8318 60.6622 13.8318C60.922 13.8318 61.1632 13.8875 61.3859 13.9803C61.4416 13.9989 61.4972 13.9803 61.5343 13.9432L62.1652 12.5136C62.1838 12.4765 62.1652 12.4208 62.1467 12.3836C61.7384 12.0495 60.9777 11.8267 60.2355 11.8267C58.6582 11.8267 57.7305 12.9035 57.7305 14.7601Z" fill="white"/>
<path d="M65.5245 21.2766C65.1534 21.2766 64.9308 20.9239 64.9308 20.3483V18.1947C64.9308 18.139 64.9679 18.0833 65.0235 18.0833H66.842C66.8976 18.0833 66.9533 18.0276 66.9533 17.9719V16.171C66.9533 16.1153 66.8976 16.0596 66.842 16.0596H65.0235C64.9679 16.0596 64.9122 16.0225 64.9122 15.9668V14.1473C64.9122 14.0916 64.8565 14.0359 64.8009 14.0359H62.834C62.7783 14.0359 62.7227 14.0916 62.7227 14.1473V20.4597C62.7227 22.3906 63.4092 23.3003 64.8565 23.3003C65.6544 23.3189 66.4337 23.0775 67.0832 22.6134C67.1203 22.5762 67.1389 22.5391 67.1203 22.4834L66.5636 21.0538C66.5451 20.9981 66.4894 20.9796 66.4337 20.9981C66.4337 20.9981 66.4152 20.9981 66.4152 21.0167C66.174 21.1838 65.8585 21.2766 65.5245 21.2766Z" fill="white"/>
<path d="M73.1872 16.6905C72.2037 16.2263 71.3316 15.8364 71.3316 14.9824C71.3316 14.3883 71.8141 14.017 72.5934 14.017C73.2057 13.9798 73.7809 14.2026 74.2263 14.6296C74.2634 14.6668 74.3376 14.6668 74.3747 14.6111L75.5066 13.033C75.5437 12.9958 75.5252 12.9216 75.488 12.8844C74.7644 12.1975 73.6696 11.8076 72.3893 11.8076C70.0699 11.8076 68.8638 13.3857 68.8638 14.9453C68.8638 17.0432 70.4966 17.8416 71.8141 18.4728C72.7604 18.937 73.5768 19.3268 73.5768 20.0881C73.5768 20.7007 73.113 21.0906 72.3893 21.0906C71.4986 21.072 70.6451 20.7007 70.0513 20.0509C70.0142 20.0138 69.94 19.9952 69.9029 20.0324C69.9029 20.0324 69.9029 20.0324 69.8843 20.0509L68.6782 21.4991C68.6411 21.5362 68.6411 21.5733 68.6596 21.6105C69.2534 22.6873 70.9234 23.2628 72.3151 23.2628C74.4861 23.2628 76.0633 21.9075 76.0633 20.0509C76.0633 18.0087 74.5232 17.3032 73.1872 16.6905Z" fill="white"/>
</g>
</svg>
