<svg width="83" height="23" viewBox="0 0 83 23" fill="none" xmlns="http://www.w3.org/2000/svg">
<g opacity="0.5">
<path d="M26.5571 7.37203L21.483 7.53731C21.4003 7.53731 21.3177 7.5869 21.2516 7.63648C21.1855 7.7026 21.1689 7.78524 21.1689 7.88441L21.2681 9.27278C21.2846 9.43806 21.4334 9.58681 21.5987 9.57029L22.987 9.55376L23.3011 16.0493C23.3011 16.132 23.3507 16.2146 23.4168 16.2807C23.4829 16.3469 23.5655 16.3634 23.6482 16.3634L25.2018 16.2642C25.3836 16.2477 25.5159 16.0989 25.4993 15.9336L25.3175 9.53723L26.6894 9.5207C26.772 9.5207 26.8547 9.48764 26.9208 9.42153C26.9869 9.35542 27.0199 9.27278 27.0034 9.17361L26.9042 7.7026C26.8877 7.48773 26.739 7.3555 26.5571 7.37203ZM32.4742 7.78524L30.9371 7.7026C30.7553 7.7026 30.6231 7.83482 30.6066 8.01663L30.59 11.4049L29.9289 11.5537L29.7636 7.7026C29.7636 7.52079 29.6149 7.38856 29.4496 7.38856L27.929 7.42162C27.8463 7.42162 27.7637 7.45467 27.6976 7.52079C27.6315 7.5869 27.5984 7.66954 27.5984 7.75218L27.8794 16.2973C27.8794 16.4791 28.0282 16.6113 28.21 16.6113L29.7306 16.5782C29.8132 16.5782 29.8958 16.5452 29.962 16.4791C30.0281 16.413 30.0611 16.3303 30.0611 16.2477L29.8958 13.3883L30.4909 13.4379L30.59 15.9998C30.59 16.0824 30.6231 16.1816 30.6727 16.2312C30.7388 16.2973 30.8214 16.3303 30.9041 16.3303L32.4908 16.446H32.5073C32.6726 16.4295 32.8048 16.2973 32.8213 16.132V8.1158C32.8213 8.03316 32.7883 7.95052 32.7387 7.88441C32.6561 7.81829 32.5569 7.78524 32.4742 7.78524ZM38.1765 7.07452L36.7716 7.17369C36.6063 7.19022 36.4741 7.32245 36.4741 7.50426C36.4741 7.50426 36.4906 12.8594 36.4741 13.5536C36.4575 13.9668 36.5237 14.661 36.0609 14.694C35.7468 14.7106 35.6311 14.2478 35.6311 13.6032C35.6311 12.8759 35.6807 7.90093 35.6807 7.85135C35.6807 7.68607 35.565 7.53731 35.3832 7.52079L33.7965 7.3555C33.6973 7.33898 33.6147 7.37203 33.5486 7.43814C33.4825 7.50426 33.4329 7.5869 33.4494 7.68607C33.4494 7.68607 33.5155 13.9503 33.5155 14.1817C33.5321 14.9915 34.1601 16.446 35.9286 16.3964C37.912 16.3469 38.2591 15.1734 38.3913 13.785C38.4409 13.2065 38.5401 7.98358 38.5401 7.40509C38.5401 7.30592 38.507 7.22328 38.4409 7.15717C38.3583 7.09105 38.2591 7.058 38.1765 7.07452ZM44.325 7.40509L42.8705 7.4712C42.7879 7.4712 42.7052 7.52079 42.6391 7.5869C42.5895 7.65301 42.5565 7.73565 42.5565 7.81829L42.8044 11.8347L41.3003 7.68607C41.2507 7.55384 41.102 7.45467 40.9532 7.4712L39.4987 7.63648C39.3335 7.65301 39.2012 7.80177 39.2012 7.96705L39.4492 15.8841C39.4492 16.0493 39.5814 16.1981 39.7467 16.2146L41.2011 16.3138C41.3003 16.3138 41.383 16.2807 41.4491 16.2146C41.5152 16.1485 41.5482 16.0659 41.5482 15.9667L41.3168 12.4958L42.573 16.0989C42.6226 16.2146 42.7383 16.2973 42.854 16.3138H44.3911C44.4076 16.3138 44.4076 16.3138 44.4242 16.3138C44.5068 16.3138 44.5729 16.2807 44.639 16.2312C44.7051 16.165 44.7382 16.0824 44.7382 15.9832L44.639 7.71912C44.639 7.63648 44.606 7.55384 44.5399 7.48773C44.4903 7.43815 44.4076 7.40509 44.325 7.40509ZM46.2588 7.23981C46.1596 7.23981 46.0604 7.23981 45.9447 7.23981C45.7795 7.23981 45.6307 7.38856 45.6307 7.55384L45.3663 15.7849C45.3663 15.9667 45.4985 16.0989 45.6638 16.1155C45.6638 16.1155 45.8621 16.132 46.1431 16.132C47.1678 16.132 49.5975 15.9502 50.1594 14.2312C50.6222 12.8098 50.5561 10.8595 50.4404 9.93391C50.2256 8.1158 48.8537 7.23981 46.2588 7.23981ZM48.4405 12.6611C48.2587 14.0494 47.829 14.1321 47.3496 14.2974L47.581 9.14055C47.7463 9.19014 47.9612 9.17361 48.2256 9.53723C48.6058 10.0496 48.6058 11.3057 48.4405 12.6611ZM55.2171 14.6775L53.3163 14.8263L53.2337 13.0412L54.4733 12.9751C54.6386 12.9586 54.7543 12.8429 54.7708 12.6776L54.8865 11.5867C54.903 11.4876 54.87 11.3884 54.8039 11.3223C54.7378 11.2562 54.6386 11.2231 54.5559 11.2231L53.2172 11.2892V9.35542H55.2006C55.3824 9.35542 55.5311 9.20666 55.5311 9.02485C55.5311 8.9918 55.5311 8.97527 55.5146 8.95874L55.3989 7.80177C55.3824 7.63648 55.2336 7.50426 55.0683 7.50426L51.4486 7.5869C51.2668 7.5869 51.1346 7.73565 51.1346 7.91746L51.2503 16.0493C51.2503 16.2312 51.3991 16.3634 51.5809 16.3634H55.2501C55.4319 16.3634 55.5642 16.2146 55.5807 16.0493L55.6138 14.9915C55.6138 14.8924 55.5807 14.8097 55.5146 14.7436C55.3989 14.694 55.2997 14.661 55.2171 14.6775ZM61.1342 9.90085C61.0515 8.7604 60.6549 7.23981 58.1756 7.23981C57.6467 7.23981 57.0187 7.30592 56.3245 7.43814C56.1757 7.4712 56.06 7.60343 56.06 7.76871L56.1757 15.7188C56.1757 15.8841 56.3079 16.0328 56.4732 16.0328L57.6137 16.1155C57.6963 16.132 57.7955 16.0989 57.8616 16.0328C57.9277 15.9667 57.9608 15.8841 57.9608 15.8014V13.2395L58.5392 13.2065L59.1838 15.9502C59.2169 16.0989 59.3491 16.2146 59.4979 16.2146C59.5144 16.2146 59.5144 16.2146 59.5309 16.2146L60.6714 16.132C60.7706 16.132 60.8532 16.0824 60.9028 15.9998C60.9524 15.9336 60.9854 15.8345 60.9689 15.7353L60.159 12.6776C60.721 12.2644 61.2499 11.4876 61.1342 9.90085ZM59.0682 11.0248C58.7706 11.3388 58.2748 11.438 57.9442 11.4545V9.1075C58.0434 9.09097 58.1591 9.07444 58.2583 9.07444C58.688 9.07444 59.2334 9.27278 59.2995 10.1984C59.3326 10.562 59.2665 10.8264 59.0682 11.0248ZM65.4811 12.2313C65.9604 11.6033 67.1505 10.1653 67.0182 7.65301C67.0182 7.57037 66.9686 7.48773 66.9025 7.42162C66.8364 7.37203 66.7538 7.33898 66.6711 7.33898L65.3158 7.42162C65.134 7.43814 65.0018 7.5869 65.0183 7.76871C65.0679 8.47942 64.5886 10 63.9109 10.9587L64.0101 7.85135C64.0101 7.76871 63.977 7.66954 63.9109 7.61996C63.8448 7.55384 63.7622 7.52079 63.6795 7.52079L61.9275 7.55384C61.8449 7.55384 61.7623 7.5869 61.6961 7.65301C61.63 7.71912 61.597 7.80177 61.6135 7.88441L61.7953 16.1155C61.7953 16.2146 61.8449 16.2973 61.911 16.3634C61.9771 16.4295 62.0763 16.446 62.1589 16.446L63.5142 16.2642C63.6795 16.2477 63.7952 16.0989 63.7952 15.9502L63.8118 13.5371C64.0927 13.7023 64.9026 14.8758 65.0348 16.0328C65.0514 16.1981 65.2001 16.3303 65.3654 16.3138H66.8034H66.8199C66.9025 16.3138 66.9686 16.2807 67.0348 16.2146C67.1009 16.1485 67.1339 16.0659 67.1339 15.9832C67.1174 15.6857 66.6381 13.1569 65.4811 12.2313ZM69.5471 7.17369L67.9934 7.37203C67.8281 7.38856 67.7124 7.53731 67.7124 7.68607L67.6959 15.7518C67.6959 15.8345 67.7289 15.9336 67.7951 15.9832C67.8612 16.0493 67.9438 16.0659 68.0265 16.0659C68.0265 16.0659 68.0264 16.0659 68.043 16.0659L69.7289 15.9336C69.8941 15.9171 70.0264 15.7849 70.0264 15.6031L69.9107 7.45467C69.9107 7.3555 69.8611 7.27286 69.795 7.20675C69.7289 7.19022 69.6462 7.15717 69.5471 7.17369ZM72.8527 7.40509C72.3899 7.43815 70.8363 7.71912 70.704 9.98349C70.6875 10.2645 70.671 10.5454 70.6544 10.8099C70.5553 12.3636 70.4892 13.4709 70.6875 14.4461C70.8032 15.0246 71.299 16.3634 73.1998 16.3634C73.3155 16.3634 73.4477 16.3634 73.5634 16.3469C74.3568 16.2807 74.9518 16.0328 75.3319 15.5866C75.8608 14.9585 75.7782 14.1651 75.7451 13.7354V13.6528C75.7286 13.4709 75.5798 13.3387 75.4146 13.3552L74.208 13.4048C74.1088 13.4048 74.0262 13.4544 73.9766 13.5205C73.9105 13.5866 73.894 13.6858 73.9105 13.785C73.9436 13.9503 73.9601 14.4626 73.7452 14.7106C73.6956 14.7767 73.5965 14.8593 73.3651 14.8593H73.3485C73.1667 14.8593 73.051 14.8097 72.9353 14.694C72.7535 14.5122 72.5552 14.0494 72.6213 12.942C72.6378 12.6776 72.6544 12.3801 72.6544 12.066C72.6874 11.2396 72.7205 10.2975 72.8031 9.70251V9.68598C72.8692 9.23972 72.9519 9.04138 73.3155 9.02485C73.5799 9.00833 73.7783 9.07444 73.8774 9.19014C74.0097 9.33889 73.9931 9.60334 73.9766 9.68598C73.9601 9.78515 73.9766 9.88432 74.0427 9.95043C74.1088 10.0331 74.1915 10.0661 74.2906 10.0661L75.7451 10.0827C75.9269 10.0827 76.0757 9.95043 76.0757 9.76862C76.0757 9.73557 76.1087 8.84304 75.4311 8.14886C74.8691 7.5869 73.9931 7.32245 72.8527 7.40509ZM82.5382 15.6527C82.5217 15.5535 81.8936 13.0908 80.6044 11.9173C81.2325 11.3223 82.5052 10.1653 82.0754 7.50426C82.0424 7.33898 81.8936 7.20675 81.7118 7.23981L80.0259 7.42162C79.9433 7.43814 79.8607 7.4712 79.7945 7.55384C79.745 7.61996 79.7119 7.71912 79.7284 7.80177C79.7284 7.83482 80.0755 9.7521 78.7698 10.8925L78.8029 7.61996C78.8029 7.52079 78.7698 7.43815 78.6872 7.37203C78.621 7.30592 78.5219 7.27286 78.4392 7.28939L76.7864 7.50426C76.6211 7.52079 76.4889 7.66954 76.4889 7.83482L76.6872 16.0163C76.6872 16.1155 76.7368 16.1981 76.8029 16.2477C76.869 16.2973 76.9517 16.3303 77.0343 16.3303H77.0509L78.4723 16.165C78.6376 16.1485 78.7533 16.0163 78.7533 15.851L78.869 13.2891C79.3152 13.7519 80.0755 14.942 80.1912 15.9502C80.2077 16.132 80.373 16.2477 80.5548 16.2312L82.2407 16.0493C82.3399 16.0328 82.4225 15.9832 82.4721 15.9171C82.5382 15.8345 82.5548 15.7518 82.5382 15.6527Z" fill="white"/>
<path d="M19.8796 15.1233L20.5573 10.3962L17.731 4.46262L15.8137 5.12375L13.3014 2.42965L8.85532 0L7.88015 3.58662L7.2025 1.70241L3.79768 5.04111L1.88041 8.36328L1.79777 11.8177L0.458984 11.1896L1.36804 16.7266L3.45059 20.2801L8.34294 21.966L12.3593 22.1148L19.2846 19.5859L21.268 14.6605L19.8796 15.1233ZM16.888 12.4953L12.9708 12.5945L12.8221 17.0075L12.6072 19.619L9.18588 19.5859V17.0902L8.9049 12.7102L4.80591 12.892L4.65715 8.66079L10.7065 8.6112L16.9541 8.42939L17.0533 8.99135L16.888 12.4953Z" fill="white"/>
</g>
</svg>
