<svg width="61" height="38" viewBox="0 0 61 38" fill="none" xmlns="http://www.w3.org/2000/svg">
<path d="M13.5089 10.6979C13.5089 8.99274 13.525 7.28399 13.4981 5.58064C13.4981 5.07035 13.6562 4.88348 14.1647 4.91223C14.7631 4.94803 15.3631 4.94803 15.9615 4.91223C16.452 4.87989 16.7772 5.00746 16.8599 5.53033C16.9425 6.09811 17.2192 5.92742 17.5337 5.72438C18.5812 5.03801 19.7078 4.61217 20.9871 4.65709C22.022 4.69302 22.9438 5.01645 23.6068 5.81961C23.9374 6.22389 24.1458 6.09811 24.48 5.86992C25.9444 4.87091 27.5346 4.36601 29.3134 4.80802C30.8407 5.18714 31.7463 6.17537 31.9978 7.70983C32.3338 9.75997 32.1128 11.8317 32.1398 13.8926C32.1505 14.7461 32.5261 15.8529 31.9709 16.3919C31.4624 16.886 30.3681 16.4458 29.5434 16.55C28.6001 16.6686 28.3395 16.329 28.3809 15.3929C28.4581 13.571 28.4204 11.7418 28.3934 9.91629C28.3827 9.17421 28.4042 8.32793 27.5382 8.0063C26.5985 7.65772 25.7162 7.99732 24.8987 8.48964C24.5843 8.6801 24.6615 9.01071 24.6615 9.30358C24.6615 11.3986 24.613 13.4955 24.6831 15.5923C24.71 16.426 24.4369 16.6237 23.6769 16.5536C22.9904 16.4995 22.3007 16.4995 21.6142 16.5536C21.0446 16.5914 20.908 16.3739 20.9152 15.8349C20.9404 13.8584 20.9314 11.882 20.9152 9.90551C20.9152 9.15984 20.9907 8.30457 20.0977 7.99732C19.1598 7.67569 18.2686 7.99732 17.4582 8.513C17.1456 8.71244 17.2659 9.05203 17.2641 9.34131C17.2641 11.4975 17.239 13.6536 17.2641 15.8097C17.2731 16.4009 17.0988 16.5931 16.5113 16.5554C15.7647 16.5031 15.0154 16.5031 14.2689 16.5554C13.6041 16.6057 13.4765 16.3344 13.4891 15.7343C13.534 14.0489 13.5089 12.3725 13.5089 10.6979Z" fill="white"/>
<path d="M35.7336 12.6693C33.0115 10.5922 33.626 7.33102 35.1083 5.99062C36.7847 4.47413 38.7666 4.37351 40.8257 4.96106C41.2587 5.08324 41.5552 5.1623 41.9397 4.83708C42.8525 4.06626 43.9791 4.08423 45.0949 4.11837C45.4129 4.11837 45.5243 4.2693 45.4542 4.56936C45.4237 4.68435 45.3859 4.79935 45.3572 4.91434C44.9457 6.53145 44.9457 6.53145 43.325 6.71113C43.8964 7.77483 44.2019 8.88524 43.9827 10.0693C43.555 12.3728 41.2983 13.8426 38.6013 13.6377C38.2814 13.6144 37.7532 13.1993 37.6184 13.8174C37.4837 14.4355 38.0209 14.6511 38.4953 14.7482C39.5482 14.9638 40.6155 15.1075 41.6702 15.3034C42.1992 15.3943 42.7188 15.5332 43.2226 15.7184C45.3644 16.5539 45.8567 18.9131 44.2558 20.5698C43.6641 21.1672 42.9273 21.6006 42.1176 21.8275C40.0789 22.4595 37.9021 22.4963 35.8432 21.9335C35.3247 21.7875 34.8353 21.5528 34.3968 21.24C32.6 19.9948 32.6 17.7668 34.386 16.5234C34.5657 16.3958 35.0149 16.4318 34.7687 15.9143C34.1075 14.5236 34.289 13.8803 35.4767 12.9118C35.5593 12.8292 35.6438 12.7483 35.7336 12.6693ZM39.2122 19.7666C39.6595 19.7862 40.1072 19.7377 40.54 19.6228C41.0287 19.4701 41.6181 19.3533 41.6307 18.7424C41.6432 18.1315 41.0431 17.9482 40.5526 17.844C39.417 17.614 38.2671 17.4523 37.1261 17.2493C36.8009 17.1918 36.632 17.3337 36.4936 17.6086C36.1828 18.2196 36.3894 18.8898 37.0632 19.2797C37.7176 19.6443 38.4627 19.8138 39.2104 19.7684L39.2122 19.7666ZM37.3561 9.10625C37.3561 10.1574 38.0155 10.8779 38.9732 10.8779C39.8716 10.8779 40.5813 10.1466 40.5903 9.1889C40.6029 8.1845 39.8249 7.35618 38.878 7.37055C37.9311 7.38493 37.3525 8.06052 37.3561 9.10625Z" fill="white"/>
<path d="M52.88 15.6627C51.8504 16.5 50.6484 16.8306 49.3044 16.7408C47.6154 16.6276 46.178 15.4435 45.8546 13.8443C45.4808 11.9631 46.196 10.5077 47.8921 9.70275C49.1139 9.12419 50.4364 9.11161 51.7444 9.00919C52.014 8.98763 52.4236 9.18887 52.5171 8.78819C52.5983 8.3901 52.4083 7.98592 52.0499 7.79456C51.533 7.48412 50.9265 7.35748 50.3286 7.43521C49.6099 7.50887 48.8911 7.58254 48.2389 7.90057C47.8113 8.1072 47.5094 8.08025 47.3603 7.57715C47.3286 7.49299 47.2895 7.41181 47.2435 7.33458C46.3774 5.61506 46.3792 5.61865 48.2102 5.07423C49.5913 4.67459 51.0372 4.54825 52.4667 4.70229C54.9248 4.94126 56.2508 6.34456 56.3406 8.90138C56.4233 11.2911 56.3891 13.6844 56.4323 16.076C56.4323 16.4515 56.3029 16.5395 55.9759 16.5359C55.2572 16.527 54.5384 16.5108 53.8197 16.5359C53.2088 16.5647 53.2843 15.9035 52.88 15.6627ZM52.6321 12.5057C52.6321 11.4277 52.6321 11.3917 52.2637 11.3827C51.5809 11.3666 50.8838 11.3827 50.2423 11.6469C49.4751 11.9703 49.2343 12.9424 49.8147 13.4814C50.4939 14.1157 51.3078 13.8821 52.0984 13.7006C52.8513 13.5263 52.5746 12.928 52.6321 12.5057Z" fill="white"/>
<path d="M11.071 10.4283C11.0476 10.5415 11.0242 10.6547 11.0009 10.7679H10.9164C7.55645 11.9119 4.19586 13.0576 0.834664 14.2052C0.588504 14.2878 0.28305 14.4963 0.083607 14.2519C-0.115836 14.0075 0.144698 13.7506 0.317189 13.5565C1.21558 12.5431 1.78696 11.192 3.31603 10.696C1.7636 10.1642 1.17066 8.76989 0.23274 7.71697C0.0800135 7.54628 -0.117633 7.31808 0.0889974 7.08989C0.250708 6.91021 0.4789 7.05216 0.67475 7.12044C2.96386 7.89665 5.24578 8.7052 7.54746 9.44728C8.62554 9.79226 9.63713 10.3295 10.7817 10.4211L11.071 10.4283Z" fill="white"/>
<path d="M11.0713 10.4287H10.7856C10.9257 10.0118 10.6706 9.66861 10.543 9.31644C9.52425 6.50267 8.49829 3.70327 7.47592 0.900286C7.37709 0.630767 7.13812 0.287581 7.39326 0.0719664C7.64841 -0.143648 7.9323 0.179774 8.17307 0.328907C8.22338 0.359452 8.2701 0.397185 8.31861 0.433121C11.1755 2.55513 11.1701 2.14726 11.127 5.94566C11.109 7.43939 11.0905 8.93372 11.0713 10.4287Z" fill="white"/>
<path d="M11.0852 11.5047C11.0978 13.5369 11.1301 15.5691 11.1103 17.6012C11.1178 18.4276 10.7137 19.2035 10.0323 19.6711C9.42676 20.1095 8.83741 20.5695 8.2265 20.9972C7.97495 21.1768 7.70903 21.5649 7.38561 21.3008C7.13046 21.0942 7.38561 20.7456 7.47904 20.4743C8.43733 17.839 9.39561 15.2079 10.3539 12.581C10.4869 12.2216 10.6414 11.8623 10.7851 11.5029L11.0852 11.5047Z" fill="white"/>
<path d="M11.5212 27.6624C11.0971 28.2967 10.7791 28.7225 10.515 29.1789C10.1143 29.8743 9.7657 29.7179 9.39556 29.1645C9.08472 28.7063 8.82239 28.2068 8.29054 27.7648C8.29054 28.6848 8.29054 29.5059 8.29054 30.3288C8.29054 30.663 8.40913 31.1015 7.81978 31.0817C7.23044 31.0619 7.38855 30.6091 7.38855 30.2875C7.37418 29.0633 7.37418 27.8391 7.38855 26.6149C7.38855 26.349 7.2484 25.9824 7.70299 25.8962C8.03467 25.8204 8.37653 25.9727 8.54209 26.2699C8.9859 26.9383 9.44048 27.6013 9.96694 28.3829C10.3982 27.7181 10.8042 27.1252 11.178 26.5053C11.4259 26.0956 11.6955 25.7614 12.2363 25.8944C12.8256 26.0381 12.5615 26.5268 12.5723 26.8592C12.607 27.9373 12.607 29.0118 12.5723 30.0827C12.5597 30.4564 12.8598 31.0655 12.0764 31.0781C11.2229 31.0925 11.5661 30.4331 11.5373 30.0378C11.4942 29.328 11.5212 28.6093 11.5212 27.6624Z" fill="white"/>
<path d="M46.3784 27.6642C45.9597 28.2895 45.6417 28.7154 45.3776 29.1717C44.9769 29.8635 44.6247 29.7108 44.2564 29.1574C43.9614 28.6668 43.5937 28.224 43.1657 27.8439C43.1657 28.698 43.1657 29.5515 43.1657 30.4043C43.1657 30.7403 43.1945 31.0853 42.6878 31.0727C42.1811 31.0602 42.2458 30.6954 42.2458 30.3756C42.2458 29.1178 42.2368 27.8601 42.2458 26.6023C42.2458 26.3346 42.1056 25.9681 42.5638 25.8836C42.8959 25.8089 43.2377 25.9608 43.4047 26.2574C43.8485 26.9276 44.3031 27.5924 44.8421 28.3794C45.3111 27.6606 45.7675 27.021 46.1538 26.3418C46.3191 25.9845 46.7155 25.7957 47.0971 25.8926C47.5984 25.9842 47.4223 26.3993 47.4277 26.6904C47.4457 27.887 47.4277 29.0837 47.4277 30.284C47.4277 30.6936 47.4277 31.0799 46.8474 31.0835C46.267 31.0871 46.3766 30.6649 46.373 30.3289C46.3784 29.5167 46.3784 28.7082 46.3784 27.6642Z" fill="white"/>
<path d="M54.4313 29.3281C54.4313 28.2411 54.4313 27.375 54.4313 26.5108C54.4313 26.2071 54.4044 25.9035 54.859 25.8855C55.3585 25.8657 55.3585 26.182 55.3567 26.5323C55.3567 27.817 55.3567 29.1017 55.3567 30.3847C55.3567 30.6326 55.4627 30.965 55.0944 31.0584C54.77 31.1549 54.4218 31.0168 54.2517 30.7242C53.4826 29.6803 52.6759 28.6669 51.7541 27.4739C51.7541 28.6076 51.7541 29.524 51.7541 30.4386C51.7541 30.7979 51.7541 31.1034 51.2564 31.0854C50.8198 31.0692 50.6958 30.8303 50.6958 30.4475C50.6958 29.1898 50.6958 27.932 50.6958 26.6851C50.6958 26.412 50.5503 26.0256 50.9492 25.9178C51.3481 25.81 51.7146 25.846 51.9967 26.2179C52.6795 27.1163 53.3748 28.0147 54.0666 28.9131C54.1331 28.9975 54.2103 29.0784 54.4313 29.3281Z" fill="white"/>
<path d="M30.1155 32.5132C31.7326 32.5132 32.7137 33.5176 32.7047 35.1563C32.7187 35.8487 32.4485 36.5167 31.9569 37.0045C31.4653 37.4924 30.7953 37.7576 30.1029 37.7382C28.5038 37.7382 27.4868 36.7177 27.4922 35.1095C27.4976 33.4673 28.4661 32.5132 30.1155 32.5132ZM31.6302 35.1024C31.641 34.0656 30.9474 33.2553 30.067 33.2786C29.1866 33.302 28.5739 34.0494 28.5613 35.0754C28.5469 36.2487 29.068 36.8722 30.0616 36.8722C31.0786 36.856 31.6176 36.2577 31.632 35.1006L31.6302 35.1024Z" fill="white"/>
<path d="M26.5666 35.1706C26.5666 35.8283 26.554 36.4877 26.5666 37.1471C26.5774 37.5586 26.4354 37.7472 25.997 37.7382C25.5586 37.7293 25.4849 37.5208 25.5029 37.1687C25.5029 36.989 25.5029 36.8093 25.5029 36.6296C25.5029 35.4186 25.5029 35.4186 24.308 35.4186C23.1635 35.4186 23.1671 35.4186 23.1581 36.5919C23.1828 36.9176 23.1555 37.2451 23.0772 37.5622C22.9874 37.8191 22.6622 37.7329 22.4322 37.7149C22.098 37.6897 22.1016 37.4256 22.1016 37.1758C22.1016 35.7995 22.1016 34.4232 22.1016 33.0432C22.1016 32.6605 22.2579 32.5132 22.6406 32.5132C23.0233 32.5132 23.194 32.6659 23.1689 33.0522C23.1599 33.2014 23.1689 33.3505 23.1689 33.5014C23.1653 34.6747 23.1653 34.6747 24.3188 34.6747C25.4723 34.6747 25.4669 34.6747 25.5065 33.2768C25.5173 32.9336 25.4095 32.5419 25.9916 32.5222C26.6025 32.5024 26.5702 32.8815 26.5666 33.2876C26.563 33.9147 26.5666 34.5418 26.5666 35.1706Z" fill="white"/>
<path d="M33.6079 35.1522C33.6079 34.4964 33.6079 33.8405 33.6079 33.1757C33.6079 32.9529 33.5342 32.6062 33.8558 32.5918C34.6769 32.5522 35.5358 32.3402 36.2959 32.8379C37.1062 33.377 37.2356 34.3886 36.5115 35.0462C36.1521 35.3804 36.1611 35.5529 36.4234 35.8979C36.6716 36.2326 36.8813 36.5943 37.0487 36.9759C37.1493 37.2005 37.5734 37.4988 37.1403 37.6947C36.8205 37.842 36.3695 37.8528 36.127 37.4018C35.9149 37.0083 35.6867 36.6238 35.4603 36.2393C35.3256 36.0111 35.2034 35.711 34.8692 35.8116C34.5655 35.9033 34.6895 36.2105 34.6698 36.4315C34.6538 36.6708 34.6538 36.9109 34.6698 37.1502C34.6949 37.5509 34.562 37.7539 34.1163 37.7521C33.6366 37.7521 33.5989 37.4736 33.6043 37.1089C33.6132 36.4657 33.6061 35.808 33.6079 35.1522ZM34.668 34.1622C34.668 34.5215 34.5961 34.9258 35.1693 34.8809C35.6167 34.8431 35.9095 34.6078 35.9095 34.1622C35.9095 33.7166 35.6095 33.4776 35.1621 33.4435C34.5853 33.4039 34.6805 33.8244 34.668 34.1622Z" fill="white"/>
<path d="M60.9685 29.6716C60.9685 30.8359 60.8121 31.0227 59.664 31.0713C59.125 31.0946 58.5859 31.1593 58.0684 30.9652C56.7748 30.4873 56.2303 29.4308 56.4783 27.8478C56.658 26.7176 57.648 25.8965 58.895 25.8714C59.3145 25.856 59.7346 25.8674 60.1527 25.9055C60.5444 25.945 60.8517 26.1283 60.7726 26.6008C60.6666 27.2279 60.2695 26.8219 60.0197 26.7805C58.3146 26.432 57.3389 27.2603 57.5456 28.9061C57.6678 29.8908 58.7818 30.5394 59.7017 30.1836C60.0755 30.0399 60.0054 29.7326 60.0611 29.4452C60.1312 29.0732 59.7646 28.4084 60.5444 28.4497C61.3242 28.4911 60.8373 29.1469 60.9649 29.5098C60.9738 29.5633 60.9751 29.6178 60.9685 29.6716Z" fill="white"/>
<path d="M36.1776 29.6543C36.1776 30.8528 36.0087 31.0414 34.8012 31.081C34.2981 31.0971 33.7896 31.16 33.2919 30.9822C31.9982 30.524 31.4448 29.4729 31.6748 27.8809C31.8383 26.7453 32.8283 25.9044 34.0699 25.8721C34.4894 25.8563 34.9094 25.8659 35.3277 25.9008C35.7715 25.9422 36.1003 26.1686 35.9565 26.6627C35.7966 27.2125 35.4049 26.8046 35.1534 26.7561C33.5363 26.4417 32.6145 27.2035 32.7367 28.7865C32.7772 29.2878 33.0487 29.7418 33.4712 30.0147C33.8938 30.2876 34.4192 30.3483 34.8928 30.179C35.2738 30.046 35.2145 29.7442 35.2702 29.4603C35.342 29.0865 34.9647 28.4307 35.7337 28.4433C36.5028 28.4559 36.0697 29.1135 36.1847 29.48C36.1905 29.5382 36.1881 29.5968 36.1776 29.6543Z" fill="white"/>
<path d="M12.5837 34.5815C12.5837 34.0748 12.5837 33.5663 12.5837 33.0596C12.5837 32.7578 12.6394 32.5404 13.0149 32.5206C13.4408 32.5044 13.5019 32.7452 13.5001 33.0866C13.5001 33.8915 13.4839 34.7037 13.5001 35.5033C13.5234 36.4358 13.9026 36.8562 14.6752 36.8527C15.4819 36.8527 15.8179 36.4627 15.8251 35.5051C15.8323 34.6989 15.8323 33.8933 15.8251 33.0884C15.8251 32.747 15.888 32.5206 16.3085 32.5134C16.7289 32.5062 16.9104 32.6697 16.8852 33.0902C16.8241 34.1593 17.0146 35.2373 16.7594 36.2974C16.4881 37.4222 15.6814 37.866 14.1721 37.7349C13.2036 37.645 12.6053 36.9676 12.5837 35.9237C12.5711 35.4781 12.5837 35.0325 12.5837 34.5815Z" fill="white"/>
<path d="M28.7884 31.0765C28.6389 31.109 28.4825 31.0776 28.357 30.99C28.2315 30.9023 28.1482 30.7663 28.1272 30.6147C27.9978 30.0757 27.7571 29.7577 27.0923 29.7882C26.4275 29.8188 25.8345 29.799 25.7105 30.6489C25.6656 30.9346 25.4518 31.0855 25.1266 31.0873C24.7169 31.0873 24.4923 31.0316 24.69 30.5375C25.2524 29.1288 25.795 27.7093 26.334 26.2917C26.4101 26.0262 26.6603 25.8492 26.9359 25.8658C27.2737 25.855 27.4157 26.0563 27.5199 26.3168C28.0859 27.7255 28.6411 29.1378 29.2179 30.5411C29.4191 31.0262 29.1927 31.1142 28.7884 31.0765ZM26.9539 27.2242C26.7509 27.9429 26.3179 28.3544 26.5784 28.8916C26.6215 28.9779 27.1516 28.985 27.227 28.8718C27.5756 28.349 27.0617 27.9501 26.9539 27.2242Z" fill="white"/>
<path d="M17.8775 30.8497C17.7068 31.2306 17.3528 31.0743 17.0707 31.0419C16.8336 31.015 16.7401 30.767 16.7006 30.5766C16.5389 29.786 15.9819 29.8147 15.3476 29.7896C14.7134 29.7644 14.4205 30.0214 14.2911 30.6017C14.1779 31.103 13.7682 31.1731 13.3747 31.0509C12.8627 30.891 13.2598 30.5263 13.3334 30.3322C13.8239 28.9846 14.3666 27.6568 14.8823 26.32C14.9476 26.0504 15.1906 25.8618 15.468 25.8654C15.7986 25.8528 15.9549 26.0271 16.0645 26.3002C16.6263 27.7125 17.1875 29.1248 17.7481 30.537L17.8775 30.8497ZM15.5632 27.2669C15.2596 27.9083 14.9415 28.345 15.1015 28.884C15.1212 28.9523 15.6585 29.0008 15.7465 28.884C16.1616 28.3665 15.592 27.9515 15.5632 27.2669Z" fill="white"/>
<path d="M41.4538 30.7879C41.4951 30.9838 41.3837 31.0575 41.2148 31.0736C40.8447 31.1078 40.4422 31.1311 40.3524 30.6622C40.2068 29.9039 39.7397 29.7997 39.0551 29.7889C38.3705 29.7781 38.0687 30.0081 37.9069 30.6119C37.7937 31.0323 37.4685 31.203 37.075 31.0431C36.6528 30.8724 36.8954 30.5418 36.996 30.283C37.4931 28.9654 37.998 27.6555 38.5107 26.3535C38.6077 26.1037 38.7191 25.8701 39.0695 25.8665C39.346 25.8448 39.5988 26.0229 39.6714 26.2906C40.2356 27.7053 40.801 29.1193 41.3676 30.5328C41.4017 30.6155 41.4251 30.7035 41.4538 30.7879ZM39.0928 27.4603C39.0138 27.9436 38.5017 28.3371 38.7856 28.851C38.8844 29.0307 39.3246 29.0307 39.4306 28.851C39.7235 28.3299 39.2995 27.9185 39.0928 27.4603Z" fill="white"/>
<path d="M7.83965 37.7567C7.4246 37.7567 7.27906 37.6201 7.421 37.259C7.99597 35.7856 8.544 34.3015 9.14951 32.8407C9.34177 32.3789 9.97244 32.4094 10.1863 32.9071C10.7972 34.3338 11.3506 35.782 11.922 37.2194C11.9992 37.4171 12.0873 37.6525 11.7836 37.7243C11.4099 37.8106 11.0415 37.7818 10.9086 37.3344C10.7379 36.7631 10.4827 36.4253 9.78198 36.463C9.13514 36.4989 8.5979 36.5079 8.45236 37.2949C8.43816 37.44 8.36382 37.5725 8.24738 37.6603C8.13094 37.7481 7.98306 37.783 7.83965 37.7567ZM9.66519 34.0032C9.47473 34.686 9.03811 35.0597 9.33638 35.5592C9.39747 35.6634 9.93291 35.6634 9.99041 35.5592C10.2833 35.0615 9.87002 34.686 9.66519 34.0032Z" fill="white"/>
<path d="M18.8869 35.5991C18.8869 35.3009 18.8725 35.0008 18.8869 34.7007C18.93 33.9479 18.9983 33.2004 17.8394 33.4071C17.5447 33.4592 17.4297 33.2453 17.4297 32.9579C17.4297 32.5751 17.6723 32.5356 17.9687 32.5374C18.9534 32.5374 19.9452 32.5374 20.9244 32.5374C21.1239 32.5374 21.4832 32.3991 21.4635 32.7836C21.4509 33.0531 21.3844 33.4681 20.973 33.3963C19.7925 33.1932 19.9164 33.9605 19.9326 34.6972C19.9506 35.5021 19.9326 36.3143 19.9326 37.1156C19.9326 37.4948 19.8661 37.7427 19.3936 37.7427C18.921 37.7427 18.8545 37.4858 18.8671 37.1102C18.8959 36.6143 18.8869 36.1076 18.8869 35.5991Z" fill="white"/>
<path d="M22.483 28.9293C22.483 28.6023 22.4596 28.2717 22.483 27.9464C22.5476 27.2152 22.5009 26.615 21.4983 26.7767C21.1695 26.8306 21.0132 26.6438 21.024 26.2988C21.0365 25.9017 21.3043 25.9035 21.581 25.9017C22.5351 25.9017 23.4892 25.8891 24.4415 25.9017C24.6607 25.9017 25.0506 25.722 25.0542 26.155C25.0542 26.4497 24.8745 26.7983 24.5151 26.7516C23.437 26.6096 23.5017 27.2906 23.5233 28.0093C23.5502 28.843 23.5233 29.6785 23.5341 30.5123C23.5341 30.9237 23.3993 31.1088 22.9645 31.0998C22.5297 31.0908 22.4704 30.868 22.4758 30.5248C22.4901 30.002 22.483 29.4647 22.483 28.9293Z" fill="white"/>
<path d="M48.5252 32.5575C48.3348 33.3302 47.8748 33.9339 47.4885 34.5574C47.0123 35.3246 46.7446 36.0972 46.838 37.0028C46.8704 37.3118 46.9279 37.6928 46.405 37.7071C45.8821 37.7215 45.866 37.3765 45.9289 37.0459C46.1463 35.8043 45.4473 34.879 44.8939 33.8997C44.6621 33.4883 44.4375 33.0714 44.2021 32.642C45.1275 32.4443 45.1275 32.4443 46.3331 34.5124C47.2531 34.0902 46.865 32.2018 48.5252 32.5575Z" fill="white"/>
<path d="M41.2789 35.5908C41.2789 35.3213 41.2609 35.0518 41.2789 34.7823C41.3453 33.9557 41.3795 33.1831 40.1523 33.379C39.8828 33.4221 39.7175 33.2083 39.7103 32.9262C39.6995 32.5309 39.978 32.5237 40.2619 32.5237C41.2501 32.5237 42.2383 32.5237 43.2248 32.5237C43.4368 32.5237 43.7638 32.4285 43.7512 32.8112C43.7405 33.0825 43.6219 33.4203 43.2967 33.3718C42.0389 33.1921 42.1557 33.9881 42.1844 34.7912C42.2132 35.5944 42.1844 36.3473 42.1844 37.1271C42.1844 37.4523 42.1593 37.7254 41.7227 37.7218C41.286 37.7182 41.2789 37.4361 41.2789 37.1163C41.2789 36.6078 41.2789 36.1065 41.2789 35.5908Z" fill="white"/>
<path d="M18.5078 28.4539C18.5078 27.7658 18.5078 27.0776 18.5078 26.3894C18.5078 26.0049 18.6749 25.8666 19.0468 25.8648C19.4188 25.863 19.5751 26.0265 19.5697 26.4038C19.5571 27.3615 19.6039 28.3192 19.5535 29.2787C19.5194 29.9542 19.6865 30.3118 20.4322 30.1896C20.6115 30.1746 20.7918 30.1746 20.9712 30.1896C21.2928 30.1896 21.3665 30.3891 21.3575 30.664C21.3575 30.9101 21.2515 31.0665 20.9892 31.0683C20.301 31.0683 19.6128 31.0683 18.9265 31.0683C18.5473 31.0683 18.5078 30.8095 18.5096 30.5184C18.5084 29.8309 18.5078 29.1427 18.5078 28.4539Z" fill="white"/>
<path d="M49.5748 28.4291C49.5748 29.0832 49.5748 29.739 49.5748 30.393C49.5748 30.7847 49.5586 31.0974 49.025 31.0866C48.5471 31.0758 48.5129 30.8027 48.5147 30.4415C48.5207 29.1323 48.5207 27.823 48.5147 26.5138C48.5147 26.1544 48.5417 25.8777 49.0214 25.8651C49.5604 25.8525 49.582 26.1616 49.5748 26.5551C49.5748 27.1804 49.5748 27.8039 49.5748 28.4291Z" fill="white"/>
<path d="M39.1637 35.1814C39.1637 35.8372 39.1511 36.4931 39.1637 37.1489C39.1763 37.5693 39.011 37.7364 38.5851 37.7275C38.1593 37.7185 38.091 37.5029 38.0928 37.1561C38.0928 35.7851 38.0928 34.4142 38.0928 33.0432C38.0928 32.6623 38.2455 32.5132 38.6318 32.5132C39.0182 32.5132 39.1709 32.6533 39.1709 33.0378C39.1637 33.7494 39.1637 34.4645 39.1637 35.1814Z" fill="white"/>
<path d="M11.0855 11.5051H10.7998L10.9166 10.7612H11.001C11.1843 10.9948 11.1412 11.25 11.0855 11.5051Z" fill="white"/>
</svg>
